"";"p_val";"avg_logFC";"pct.1";"pct.2";"p_val_adj"
"MIF";3,20194019386625e-139;-0,324898482583751;0,961;0,963;1,07386670221886e-134
"RPL29";1,1073377212595e-80;-0,139182407728532;1;0,999;3,7137892495601e-76
"HLA-B";2,66146422994041e-64;0,26994608991172;0,976;0,952;8,92601873437414e-60
"B2M";1,97751333309916e-60;0,24062770937518;0,998;0,997;6,63218421654797e-56
"RPS17";1,01671723254999e-57;-0,218507772592764;0,931;0,934;3,40986625452616e-53
"RPL18";1,75810218015102e-57;-0,0965276366632;1;0,999;5,89632309179048e-53
"RPS9";1,80482363634404e-51;-0,0857852729069406;0,999;1;6,05301751157064e-47
"RPL18A";3,9830294502023e-46;-0,086998201641463;0,999;1;1,33582841700885e-41
"MT-ND3";8,75162113573682e-46;0,258547776445758;0,959;0,913;2,93511869650341e-41
"RPL13";1,06804300483423e-45;-0,0999056566860714;1;1;3,58200262961304e-41
"RPL22L1";9,41998890768712e-44;-0,197653790159134;0,928;0,956;3,15927587986011e-39
"SELENOW";2,99441045080353e-43;-0,182189084023935;0,844;0,877;1,00426537699049e-38
"SOCS1";3,60824904065886e-40;0,257903934952545;0,84;0,752;1,21013456325617e-35
"RPL11";5,77509746159264e-40;-0,0966256907657175;1;0,999;1,93685218666894e-35
"MALAT1";2,23974860843558e-39;0,329536428842422;0,991;0,982;7,51166888297126e-35
"MT-ND1";4,17958135018658e-38;0,21592130471634;0,96;0,911;1,40174799322557e-33
"EIF5A";5,48319054057608e-38;0,125927788852262;0,982;0,977;1,83895244349841e-33
"SRGN";1,909648159594e-36;0,219161886603735;0,944;0,895;6,40457799764636e-32
"NME2";2,25576641792928e-35;-0,172899050249222;0,438;0,557;7,56538941245123e-31
"CCDC85B";4,90678954350718e-34;-0,187606158098047;0,907;0,932;1,64563907710144e-29
"RPS15";6,0106399145045e-33;-0,0988639012441039;1;0,999;2,01584841452652e-28
"RPS21";2,72591297692038e-32;0,0628548641455988;0,997;0,997;9,14216694199558e-28
"RPS18";1,00076913997808e-31;-0,0871997975969512;1;1;3,35637954165847e-27
"RPS2";1,145416630048e-31;-0,0611166051966654;1;1;3,84149829385497e-27
"RPL3";3,66232487514476e-31;-0,076082112259185;1;0,999;1,22827051662605e-26
"RPS23";1,41862605300174e-30;-0,0748558182202888;1;1;4,75778805655723e-26
"RPS19";9,44325575408757e-30;-0,077441506783035;1;0,999;3,16707911480589e-25
"PFN1";1,81427179787343e-29;0,0920851853574032;0,996;0,995;6,0847047557079e-25
"RPS27";2,24017785076743e-28;0,0858281899510733;0,999;0,999;7,51310847590381e-24
"SELENOH";3,27813902512551e-28;-0,12299889518399;0,893;0,901;1,09942226624659e-23
"PTTG1";8,93755883307522e-28;-0,169482926293838;0,673;0,762;2,99747848143677e-23
"CSNK2B";1,47296977297044e-27;0,134851601117165;0,85;0,796;4,94004602458828e-23
"RPL17";1,56141362891324e-27;-0,127731771617217;0,791;0,828;5,23666902864922e-23
"RPL12";2,23844001036693e-27;-0,078393481987431;0,999;0,998;7,5072801067686e-23
"ERAP2";4,27920147720693e-27;-0,117341492009012;0,206;0,327;1,43515859142566e-22
"RPL8";7,2570250114066e-27;-0,0790145493702803;0,999;1;2,43386104832555e-22
"CORO1B";2,31734666838581e-26;-0,205314282257051;0,826;0,864;7,77191725643231e-22
"RPL39";2,67310013158691e-26;0,0821674141423876;1;0,996;8,96504322131618e-22
"RPS14";1,31478208903248e-25;-0,0579713143387197;1;1;4,40951617019712e-21
"RPL7A";3,05627195570004e-25;-0,0661802805804421;1;0,999;1,02501248850268e-20
"CALM2";4,04639014805591e-25;0,11754990380474;0,945;0,925;1,35707832785499e-20
"CD63";4,55941258104486e-25;0,196377202159949;0,865;0,809;1,52913579143083e-20
"DDX5";4,65591865922995e-24;0,118758516443007;0,966;0,953;1,56150199993254e-19
"EIF4EBP1";6,72258597797499e-24;-0,176475161631991;0,751;0,805;2,25462088529325e-19
"UBC";9,8358695532537e-24;0,138793209987547;0,967;0,942;3,29875393077023e-19
"H2AFZ";1,29159103288928e-23;-0,12756190251038;0,975;0,982;4,33173800610408e-19
"RPS16";2,80231280939495e-23;-0,0532087673461916;0,999;0,999;9,39839670014877e-19
"XIST";5,75947822289359e-23;-0,060806083232645;0,039;0,102;1,93161380639405e-18
"SQSTM1";6,47425300375417e-23;0,241489750965993;0,771;0,712;2,17133497239907e-18
"HMGB2";8,47295430383206e-23;-0,149529268600809;0,863;0,924;2,8416594144192e-18
"CFL1";8,83762983570775e-23;0,0910446705485133;0,993;0,986;2,96396429429966e-18
"PPIA";1,87858362316989e-22;0,0688893160777213;0,995;0,996;6,30039375538719e-18
"CALR";2,51715324403914e-22;0,133525854588991;0,941;0,908;8,44202854985847e-18
"ATP5MD";1,61715425282939e-21;0,102666079433582;0,942;0,915;5,42361193313921e-17
"HLA-E";5,36391135783659e-21;0,152897230348634;0,927;0,884;1,79894859119123e-16
"PSMA2";1,19662639605877e-20;0,120759753662617;0,754;0,695;4,01324560710191e-16
"GADD45GIP1";2,77975903058562e-20;-0,107241237187443;0,94;0,949;9,32275583677807e-16
"RPS28";2,87119831824275e-20;0,0696057423620244;1;0,999;9,62942491972254e-16
"NEAT1";4,95669443843534e-20;0,175996715287402;0,908;0,88;1,66237618076244e-15
"OST4";6,90360178578507e-20;0,103132210794499;0,96;0,937;2,3153299669166e-15
"MRPS26";7,13957139783016e-20;-0,139747480567051;0,821;0,854;2,39446945540428e-15
"TRMT112";1,19813807908999e-19;0,107765091080444;0,943;0,922;4,01831548965199e-15
"HSPD1";7,14908568197611e-19;-0,103323434174764;0,975;0,988;2,39766035602115e-14
"ATP6V0E1";1,53417838248856e-18;0,133934185280923;0,902;0,851;5,14532745919012e-14
"HEBP2";1,67270770504709e-18;-0,0981234309070538;0,526;0,627;5,60992710118694e-14
"MT-CO1";2,98450980248979e-18;0,120646877792872;0,975;0,952;1,00094489755902e-13
"PSME1";3,97013675503419e-18;0,137029993374723;0,953;0,928;1,33150446490337e-13
"CXCR4";6,8069357888784e-18;0,248353677628016;0,385;0,299;2,28291012487404e-13
"COX6A1";1,00145888709752e-17;0,0923550405158526;0,964;0,951;3,35869281554767e-13
"C19orf53";2,0161287709248e-17;-0,0832812028716745;0,948;0,95;6,76169267192758e-13
"PPP1R14B";2,47814389800095e-17;0,100899446528719;0,933;0,92;8,3111990051156e-13
"TPT1";6,27707343439567e-17;0,0751214387906711;1;1;2,10520488842762e-12
"FTL";9,21832096089957e-17;0,204643779368801;0,999;0,998;3,0916404838665e-12
"DLGAP5";9,61380256606297e-17;-0,126558200843394;0,448;0,551;3,2242771046062e-12
"FKBP1A";1,15657453630432e-16;0,100296557881453;0,873;0,852;3,87891967985743e-12
"VIM";1,48040971105804e-16;0,205342011740065;0,684;0,613;4,96499808894644e-12
"PRR7";1,77825610952174e-16;-0,0619647035242546;0,268;0,371;5,96391534011403e-12
"CSF2";1,8632610253547e-16;0,18394836412542;0,297;0,207;6,24900482683461e-12
"TOMM20";6,10465629000735e-16;-0,0968918281826463;0,88;0,895;2,04737962654266e-11
"ANKRD12";7,52590546535969e-16;0,139410149678306;0,731;0,664;2,52403817497233e-11
"HIST1H2AG";1,03959392984381e-15;-0,15490962492783;0,267;0,352;3,48659012191017e-11
"PFDN2";1,22882501820481e-15;-0,104770159920474;0,926;0,936;4,12123334605529e-11
"RPL24";1,28939782129213e-15;-0,0585817275693081;0,999;0,998;4,32438241304955e-11
"SLC25A5";2,25811665116239e-15;0,0827159821932502;0,958;0,954;7,57327162466842e-11
"RPL10A";2,70671983167306e-15;-0,0522046550374342;1;0,998;9,0777969714651e-11
"PARP1";3,45980439833437e-15;-0,103873806608441;0,889;0,92;1,16034919911338e-10
"CHCHD10";5,36609282220891e-15;-0,0975928877924954;0,9;0,917;1,79968021071242e-10
"EIF1";5,52830117888584e-15;0,0816110362823124;0,997;0,995;1,85408164937473e-10
"SH3BGRL3";7,10746934380055e-15;0,107028019064356;0,984;0,979;2,38370306852383e-10
"UBE2S";7,377114968409e-15;-0,129222612031532;0,872;0,917;2,47413681810501e-10
"HMGA1";7,62850268719671e-15;-0,120096960489799;0,88;0,899;2,55844723123203e-10
"ATP6V0B";7,85440081776245e-15;0,108706442935429;0,876;0,839;2,63420894626117e-10
"ATP1B3";9,55410197594252e-15;0,0993291527474858;0,865;0,834;3,2042547206916e-10
"GIMAP4";1,07276820738904e-14;-0,0967160568568526;0,319;0,414;3,59785001394137e-10
"CENPV";1,88996960403237e-14;-0,113506365443132;0,613;0,684;6,33858005800378e-10
"RPS12";1,90464568936628e-14;-0,0566040806608843;1;1;6,38780071299665e-10
"ATP5F1E";2,1926251622528e-14;0,0718673403180645;0,994;0,989;7,35362626916345e-10
"JPT1";2,67666602259918e-14;-0,0986427247060531;0,896;0,909;8,97700250659313e-10
"RPL27A";3,00360221296104e-14;-0,056226104836584;1;0,997;1,00734811018287e-09
"TSTD1";4,11592638505107e-14;0,119472718179682;0,776;0,716;1,38039939101843e-09
"MIR155HG";4,14664141160308e-14;0,201940576188603;0,872;0,85;1,39070059662344e-09
"EEF2";4,23367517757571e-14;-0,0867547086817084;0,974;0,982;1,41988998105534e-09
"MT-ATP6";4,44809162614845e-14;0,108505751612649;0,976;0,945;1,49180096957767e-09
"MT-CO2";4,46588236926091e-14;0,101123292379839;0,977;0,954;1,49776762900272e-09
"AL118516.1";4,81786950332855e-14;-0,0785396783652126;0,205;0,291;1,61581707402633e-09
"GPR183";5,27462354645394e-14;0,144027790918842;0,526;0,455;1,76900324500972e-09
"RPL35A";6,38097101853342e-14;-0,0629760483027826;1;0,998;2,14005006019574e-09
"H2AFJ";9,40135938014876e-14;-0,094218993869999;0,419;0,509;3,15302790891429e-09
"RPL28";9,51141182095078e-14;-0,0667541130208962;1;1;3,18993729651047e-09
"RNASEK";1,14115175207278e-13;-0,054070507638483;0,174;0,255;3,82719474610168e-09
"POLR2L";1,36765878642715e-13;0,0783388158856275;0,938;0,916;4,58685403791937e-09
"RAB5IF";1,40231177164577e-13;0,0837509774696241;0,673;0,617;4,70307321974557e-09
"CDK4";1,42283500602754e-13;0,0892162394928042;0,841;0,802;4,77190404321517e-09
"CCNB1";1,72922487266445e-13;-0,127737413021585;0,589;0,676;5,79947437794202e-09
"PSMA1";1,80500988675913e-13;0,0767526701425161;0,917;0,909;6,05364215821278e-09
"OAZ1";2,4637635071977e-13;-0,0540448421222721;0,991;0,989;8,26297005043966e-09
"PPIB";2,71086471429552e-13;0,0890315250216531;0,944;0,915;9,0916980788043e-09
"SDHC";3,45159464116525e-13;0,0912423325409015;0,728;0,674;1,157595810754e-08
"MYL12B";3,6500351856574e-13;0,092141185216394;0,965;0,947;1,22414880056578e-08
"TAP1";3,67599314647732e-13;0,114660958659946;0,77;0,724;1,23285458146556e-08
"CNPY2";3,87525288397819e-13;0,0932020378963483;0,722;0,678;1,2996823122286e-08
"ENO1";4,06707056209307e-13;0,0543872149119955;0,997;0,994;1,36401412511477e-08
"AC004556.1";4,63628047138357e-13;-0,0935331058096444;0,085;0,141;1,55491574449262e-08
"AURKAIP1";5,77704319969174e-13;-0,0791003100369234;0,932;0,933;1,93750474831262e-08
"CENPF";6,63086718549817e-13;-0,135241356710995;0,555;0,655;2,22386023667237e-08
"MRPL21";7,46962412353007e-13;-0,0912280489003785;0,809;0,832;2,50516253854952e-08
"TRIR";7,93785390301612e-13;0,0828106643806672;0,916;0,894;2,66219744199355e-08
"EIF1AY";8,60254264020879e-13;0,0937279781045336;0,757;0,661;2,88512075067322e-08
"PHGDH";1,25746477181653e-12;-0,113535070370876;0,426;0,503;4,21728535171828e-08
"HIST1H1B";1,28108255751803e-12;-0,236096806995388;0,49;0,569;4,29649468140398e-08
"CD47";1,32852497484774e-12;0,114819080226863;0,703;0,651;4,45560706064436e-08
"TMBIM6";1,61793774755903e-12;0,0935048735092319;0,919;0,878;5,42623961776347e-08
"TMCO1";1,69886686927304e-12;0,0932621470388768;0,766;0,712;5,69765970616793e-08
"HMGN1";1,95219778634322e-12;0,0660538231085055;0,965;0,961;6,5472809358379e-08
"HIST2H2AA4";2,47658317085051e-12;-0,0522585212911063;0,089;0,146;8,30596463839846e-08
"CAPRIN1";2,50924786559118e-12;-0,123164895831077;0,745;0,804;8,41551549161969e-08
"EIF1B";2,57876205222158e-12;0,0899770528510622;0,716;0,665;8,64865217074073e-08
"KDELR2";3,09911668017272e-12;0,0893092966275532;0,752;0,706;1,03938175219633e-07
"SEC61G";3,31463976239559e-12;0,0856580832265972;0,945;0,927;1,11166388351223e-07
"HIST1H2AK";3,388897763535e-12;-0,0508108073665648;0,089;0,146;1,13656853193437e-07
"ERP44";5,76619495302018e-12;0,0855537780645581;0,522;0,458;1,93386646334391e-07
"AP002387.2";5,91189974951318e-12;-0,0518184001588114;0,213;0,294;1,98273293799173e-07
"BTN3A2";5,97372192023661e-12;-0,0519369721639062;0,136;0,203;2,00346685760895e-07
"AIF1";6,01785545847609e-12;-0,147024350752238;0,423;0,495;2,01826836366371e-07
"SEC61B";6,39732623784092e-12;0,0795548129420267;0,97;0,957;2,14553527364709e-07
"BAX";7,02593696969901e-12;0,0962787182432787;0,834;0,794;2,35635874089765e-07
"ASPM";7,53487520585508e-12;-0,110716991013122;0,454;0,544;2,52704644653968e-07
"CD55";8,08269167183023e-12;0,11967948261728;0,537;0,484;2,71077313289842e-07
"LSM7";8,30503327452025e-12;-0,0708362250784065;0,941;0,943;2,7853420596086e-07
"TMPO";8,53520457375278e-12;-0,11180977507481;0,849;0,876;2,86253690994521e-07
"CCNB2";8,94487101280638e-12;-0,0718903429515737;0,36;0,444;2,999930840275e-07
"LINC01943";1,06408377742236e-11;0,223061974180663;0,562;0,498;3,56872417271912e-07
"FOXP1";1,07014256941401e-11;0,132434300949637;0,697;0,663;3,58904414930071e-07
"PDIA3";1,21922338925504e-11;0,0777458891621798;0,873;0,846;4,08903140288354e-07
"MKI67";1,54805676640748e-11;-0,106133832383377;0,637;0,752;5,19187278317742e-07
"RPS4Y1";1,56783189661721e-11;0,0946454866150503;0,878;0,785;5,25819461487479e-07
"TMEM258";1,61736719905182e-11;0,0763162982991243;0,925;0,897;5,42432611218001e-07
"RPL36A";2,53377889715992e-11;0,0676697350584297;0,931;0,9;8,49778766529494e-07
"PAM16";2,58544243579061e-11;-0,0611853493159885;0,285;0,364;8,67105684115456e-07
"MRPL36";2,6419956770099e-11;-0,0962519800310165;0,788;0,82;8,86072510155582e-07
"TMED10";2,78840863191842e-11;0,0959803929848069;0,703;0,651;9,35176486972799e-07
"ACTR2";3,69753589247182e-11;-0,094807934967144;0,836;0,877;1,2400795876172e-06
"ACTG1";3,7013010651852e-11;0,0572430299232338;0,997;0,995;1,24134235124181e-06
"TPX2";3,83310526776463e-11;-0,103945312498184;0,567;0,653;1,2855468447029e-06
"MINOS1";4,10178261430182e-11;0,0753885232741721;0,821;0,8;1,37565585318455e-06
"RPL39L";4,62910078507663e-11;-0,0753060157251143;0,347;0,428;1,552507821299e-06
"EMP3";4,65504387420939e-11;0,0987918706409665;0,937;0,901;1,56120861453235e-06
"RPS4X";4,70148061473249e-11;-0,0805290197038637;0,999;0,999;1,57678256856898e-06
"SNHG8";4,84662865091878e-11;-0,114284133383714;0,869;0,884;1,62546231694514e-06
"MZT2B";5,47461063174897e-11;-0,0663619969541462;0,946;0,947;1,83607491367597e-06
"PRPF8";5,70786735161026e-11;-0,0965129144947744;0,713;0,77;1,91430455238305e-06
"CCL4L2";6,1707736112785e-11;0,504929388595821;0,178;0,123;2,06955405375058e-06
"IL32";7,28408164171065e-11;0,114450260396875;0,972;0,942;2,44293530099692e-06
"PSMG4";8,03202454763363e-11;-0,0843952977524474;0,57;0,636;2,69378039278537e-06
"NUDT1";8,62665797916453e-11;-0,0888304657747022;0,808;0,825;2,8932085530522e-06
"MT-CO3";9,63892827821913e-11;0,0814709239608975;0,975;0,952;3,23270376594913e-06
"NDFIP2";1,09897503510419e-10;0,0953622834210351;0,704;0,657;3,68574247273245e-06
"HIST1H3B";1,11097942051523e-10;-0,0982606636421593;0,255;0,322;3,72600278052398e-06
"STK26";1,15054518131922e-10;-0,0926820104472879;0,499;0,573;3,8586984291084e-06
"HIST1H2AL";1,31361505335135e-10;-0,068988274695627;0,199;0,268;4,40560216592977e-06
"NPC2";1,5149159871471e-10;0,178408424542314;0,382;0,328;5,08072523769393e-06
"NDUFC2";1,52583041683345e-10;0,0852803143802352;0,877;0,836;5,11733005197602e-06
"NAA38";1,70297080895516e-10;-0,0989062930448461;0,81;0,821;5,71142349907382e-06
"SELENOS";1,73534049352804e-10;0,092689787002721;0,656;0,611;5,81998494719433e-06
"SNRPD1";2,03889987826224e-10;-0,0614621596685745;0,963;0,959;6,83806241171589e-06
"NDUFAF8";2,05998564086e-10;-0,0895791178993379;0,859;0,867;6,90877984231625e-06
"P4HB";2,13219044022981e-10;0,0672601004170497;0,82;0,795;7,15094029844275e-06
"TRAC";2,24190070141269e-10;0,0867020889823207;0,914;0,884;7,51888657239789e-06
"RPL26";2,38057784985453e-10;-0,0571458577368955;0,999;0,998;7,98398199284213e-06
"ITM2B";2,44215801308813e-10;0,100411303256411;0,628;0,571;8,19050954429496e-06
"DNAJA1";2,54605043407866e-10;0,0619760973376089;0,935;0,922;8,53894394581301e-06
"CTSL";2,89172861083327e-10;0,0605611281956728;0,122;0,074;9,69827941501262e-06
"SPTBN1";3,21357600500585e-10;-0,10514119735668;0,452;0,522;1,07776912055886e-05
"SELENOT";3,44384053817126e-10;0,0867805863924852;0,73;0,68;1,15499523969188e-05
"MTRNR2L8";3,74696450470265e-10;0,0766791043881462;0,525;0,455;1,25665695558717e-05
"CENPE";3,9619731480429e-10;-0,106297187623156;0,402;0,477;1,32876655439063e-05
"MRPS34";4,17344748916604e-10;-0,0706813763242353;0,907;0,907;1,39969081891651e-05
"VARS";4,59589648909007e-10;-0,0959898917002597;0,594;0,65;1,54137176451103e-05
"BRI3";4,67620703476398e-10;0,121157941132278;0,701;0,655;1,56830631531914e-05
"VCP";4,71090942609727e-10;-0,0913783645219626;0,857;0,872;1,5799448033245e-05
"LBR";4,89502200615317e-10;-0,0980191216116977;0,658;0,71;1,64169248042365e-05
"AUP1";4,96701480208518e-10;0,0958371732620923;0,699;0,663;1,66583742432333e-05
"PRR11";5,20015863008251e-10;-0,0679002576862414;0,294;0,369;1,74402920135707e-05
"IFITM1";5,25263605045145e-10;-0,0755365049476057;0,364;0,434;1,76162907860041e-05
"CEP55";5,41607760603687e-10;-0,0797611345380298;0,504;0,589;1,81644410751265e-05
"TMED9";5,61580373076042e-10;0,0789702138189283;0,77;0,741;1,88342825522243e-05
"LTA";5,70341778540897e-10;0,14879343423534;0,93;0,923;1,91281225687046e-05
"TK1";5,78863565165885e-10;-0,072007471420241;0,597;0,679;1,94139262485335e-05
"RBM3";6,16941986569702e-10;0,075245736031968;0,925;0,912;2,06910003455747e-05
"NDUFA3";6,96959242251636e-10;0,0775840589216867;0,842;0,789;2,33746190666354e-05
"HERPUD1";7,14903521428598e-10;0,0926588516547328;0,661;0,612;2,39764343016723e-05
"UBB";7,63711252756836e-10;-0,0587850306903701;0,971;0,965;2,56133479949588e-05
"PEPD";9,1040753100929e-10;0,0800943337114546;0,438;0,378;3,05332477749896e-05
"HNRNPF";9,73537293071574e-10;0,0625679992806514;0,937;0,929;3,26504937350345e-05
"NDFIP1";1,06790900860664e-09;0,0928007783510784;0,795;0,756;3,58155323306496e-05
"CCM2";1,35146144186752e-09;-0,0737405870118488;0,519;0,588;4,53253138373528e-05
"IL2RG";1,35901138466745e-09;0,0799938413097019;0,705;0,655;4,5578523818977e-05
"CCNA2";1,81565230347239e-09;-0,0747720150464467;0,532;0,614;6,0893346953857e-05
"PLCG2";1,82624228516244e-09;-0,307897010368842;0,502;0,557;6,1248513759778e-05
"HM13";2,17230824155878e-09;0,0833435455356434;0,722;0,678;7,28548738053983e-05
"NME3";2,88572420411644e-09;-0,0689918491379851;0,48;0,558;9,67814183576571e-05
"CDKN3";2,94713982899142e-09;-0,0754035183032059;0,598;0,667;9,88411755847141e-05
"CLEC2D";2,9961049083627e-09;0,101056107327774;0,783;0,751;0,000100483366416668
"LMAN2";3,1458726775761e-09;0,0751143951015673;0,783;0,74;0,000105506277860547
"CD52";3,24777961986759e-09;0,144141184614756;0,744;0,699;0,000108924032891119
"CALM1";3,62490153021167e-09;0,0613482939546199;0,99;0,985;0,000121571947520239
"NDUFA4";3,93661252976934e-09;0,0581877870434928;0,982;0,97;0,000132026111023404
"HMGB1";3,97568742652348e-09;-0,0737642066927315;0,991;0,992;0,000133336604910744
"ETFB";3,97930094286986e-09;-0,0739371716828958;0,85;0,863;0,000133457795021969
"PTPN11";3,9953775268093e-09;-0,0966631707811193;0,658;0,705;0,00013399697149413
"HMMR";4,63854233124733e-09;-0,0954870362053138;0,553;0,632;0,000155567432705373
"RALBP1";4,65853975708505e-09;-0,0785020956140352;0,699;0,747;0,000156238106373118
"IL9";4,70586693246388e-09;0,44813575982676;0,131;0,086;0,000157825365180974
"KLF6";4,89165718892511e-09;0,113440832309144;0,487;0,431;0,00016405639880217
"NKG7";4,99056860759039e-09;0,297970362843376;0,584;0,556;0,000167373689961367
"ZRANB2";5,29697884654699e-09;-0,0910614457437932;0,792;0,822;0,000177650076555493
"PSMB2";5,67193896651174e-09;0,078631682172746;0,901;0,875;0,000190225489058871
"MGAT4B";6,16564175645603e-09;0,0649907824929183;0,425;0,365;0,000206783293228022
"STMN1";6,30684525175055e-09;-0,0840304925006219;0,821;0,876;0,00021151897605321
"RPP25L";7,02761343307481e-09;-0,0682194203997154;0,454;0,526;0,000235692099318463
"METTL26";7,0652273429763e-09;-0,0649806992978881;0,867;0,872;0,000236953594628739
"METTL5";7,10166563172800e-09;-0,0741177015032819;0,811;0,827;0,000238175661956894
"HIST1H2BF";8,19011058722491e-09;-0,0654910574140018;0,121;0,172;0,000274679928874349
"FANCI";8,82812397287603e-09;-0,072150698235835;0,525;0,598;0,000296077621802316
"LAMTOR4";9,26290981366215e-09;-0,0576846533111466;0,865;0,87;0,000310659469330601
"COPZ1";9,4151816367667e-09;0,0686243902267833;0,659;0,618;0,000315766361733882
"HIST1H3G";9,51083191369251e-09;-0,0778611201092161;0,248;0,309;0,000318974280721419
"GFI1";9,73179769562507e-09;0,0718114180672053;0,307;0,248;0,000326385031115873
"COX6C";1,02633117846084e-08;0,0632276819523698;0,97;0,952;0,000344210950632197
"NDUFB10";1,04184162325469e-08;-0,059905955177356;0,925;0,917;0,000349412843607158
"EPRS";1,15915744770158e-08;-0,0871592781158359;0,855;0,88;0,000388758224810154
"MLST8";1,20405024694623e-08;-0,0742354533746311;0,446;0,517;0,000403814371820825
"SMDT1";1,27263012141078e-08;0,0928292662926331;0,734;0,684;0,000426814690118748
"TMEM160";1,31090959168743e-08;-0,0747670358428613;0,831;0,84;0,00043965285886013
"MANF";1,36725638048802e-08;0,0698543408544692;0,868;0,844;0,000458550444888073
"CSTB";1,47135150782179e-08;0,0977690319866538;0,88;0,845;0,000493461868693271
"CTSC";1,6508148316694e-08;0,107635328686528;0,703;0,672;0,000553650278245283
"CIRBP";1,85299928106136e-08;0,0785894336864429;0,841;0,824;0,000621458898882359
"RUVBL2";1,94629057356386e-08;-0,0700771895015212;0,606;0,661;0,000652746932561849
"MITD1";1,95067527562957e-08;0,0766847090597979;0,694;0,645;0,000654217473940644
"PDCD5";1,95209296490758e-08;-0,0569009455596898;0,948;0,949;0,000654692938570704
"KIF20B";2,00548600630444e-08;-0,088299586247259;0,615;0,681;0,000672599896794382
"BRK1";2,05552718211904e-08;0,0652358270995685;0,866;0,844;0,000689382706339084
"CCL5";2,21549538453938e-08;0,197697309446867;0,256;0,202;0,000743032842066816
"NCAPD2";2,62034776652543e-08;-0,0545867428230357;0,495;0,575;0,0008788122339373
"NTHL1";2,75965647778826e-08;-0,0623724116198957;0,482;0,55;0,000925533589520626
"ORMDL2";2,79837002877445e-08;0,0838337353525462;0,559;0,507;0,000938517340250376
"SEC11C";2,85732070915261e-08;0,0693172186995417;0,86;0,819;0,000958288219435602
"DUSP4";2,99088725829856e-08;0,0883695142534299;0,649;0,61;0,00100308376868817
"SEC11A";3,362820854548e-08;0,07870887443969;0,818;0,785;0,00112782285819831
"LTB";3,52214376113972e-08;0,126097008218148;0,847;0,81;0,00118125657461104
"CSE1L";3,55298087874245e-08;-0,069092529581992;0,602;0,657;0,00119159872711264
"BNIP3";3,68856887443796e-08;-0,0610096365168311;0,58;0,64;0,001237072229109
"EEF1D";3,79442525276793e-08;-0,0630266735320348;0,982;0,981;0,00127257434127331
"HSD17B10";3,90132906787423e-08;0,0632622618877078;0,763;0,707;0,00130842774278366
"CCL4";4,2382647975377e-08;0,598514111343321;0,49;0,448;0,00142142924779819
"SPCS1";4,41652313075631e-08;0,0692675396785603;0,923;0,888;0,00148121352759305
"DDX24";4,72059419898825e-08;-0,0642363857051294;0,909;0,924;0,00158319288245668
"ANP32E";4,77339328263887e-08;-0,0787252875465947;0,878;0,904;0,00160090063913142
"ANXA11";5,01517271700931e-08;0,0795106818731248;0,769;0,735;0,00168198862583058
"ATP6AP2";5,21968020998631e-08;0,0690800102461737;0,603;0,556;0,00175057634882521
"BTBD6";5,44660163345844e-08;0,0516926153781593;0,307;0,252;0,00182668125582929
"CLPX";5,56460994353417e-08;-0,071949446090723;0,447;0,518;0,00186625888286249
"SARAF";6,44814861045445e-08;0,0629126358936499;0,799;0,765;0,00216258008097421
"PPP6R1";6,91037588061239e-08;-0,0909777547699691;0,713;0,759;0,00231760186283978
"ATP5IF1";7,12646664953868e-08;-0,0599190340964397;0,917;0,914;0,00239007438492228
"RAB7A";7,29939473851136e-08;0,0830491872161345;0,798;0,769;0,00244807100740194
"HSPH1";7,58488550144152e-08;-0,0839972875619255;0,849;0,871;0,00254381889947346
"ARL6IP4";8,07648480914667e-08;-0,0667588364293685;0,918;0,92;0,00270869147529161
"BTF3";8,50924617072055e-08;0,053470508213481;0,99;0,98;0,00285383098073626
"TXNDC17";8,61535364810887e-08;-0,0578973334525581;0,899;0,902;0,00288941730650275
"PDAP1";8,91772153263523e-08;-0,0671267764604095;0,9;0,913;0,00299082544761521
"LIG1";9,66136366800174e-08;-0,064725447924089;0,512;0,583;0,00324022814697442
"GYPC";9,68679805154669e-08;-0,0739092614297481;0,848;0,862;0,00324875833052773
"CDK2AP2";9,73281352412366e-08;0,0894175912369398;0,798;0,764;0,00326419099972059
"HIST2H2BF";1,00053569719632e-07;-0,0617547170804834;0,138;0,19;0,00335559662125702
"GABPB1-AS1";1,05579289696938e-07;-0,104828127775651;0,481;0,545;0,00354091821785592
"EMC7";1,06827068964618e-07;0,0793940668844713;0,688;0,647;0,00358276623893535
"POLR3G";1,12083681188923e-07;-0,0528909514095977;0,347;0,415;0,00375906249971409
"TOMM7";1,1224228601714e-07;0,0661290244191965;0,966;0,948;0,00376438178844284
"TCOF1";1,16084851833897e-07;-0,0873695664012634;0,688;0,742;0,00389325376080525
"DDIT4";1,26413959868855e-07;-0,0884794800562914;0,822;0,854;0,00423967138608166
"ATP6V1G1";1,28031369237553e-07;0,0826059254518899;0,715;0,666;0,00429391606148904
"HNRNPAB";1,28630351065936e-07;-0,0762534278560434;0,942;0,957;0,00431400471404937
"PLP2";1,34674639073965e-07;0,0909673681092225;0,791;0,751;0,00451671804526263
"TRBC2";1,35545482374646e-07;0,101474769731945;0,807;0,768;0,00454592438788087
"TRAP1";1,36818377171833e-07;-0,0744801394780797;0,725;0,752;0,00458861473358894
"NCBP2-AS2";1,38005686589921e-07;-0,0678874350423816;0,579;0,632;0,00462843471685277
"TCP1";1,4214212827828e-07;-0,071116648987656;0,913;0,921;0,00476716269819694
"ODC1";1,46761558127357e-07;0,0720044283912795;0,898;0,909;0,0049220891364753
"ELAC2";1,51072161840027e-07;-0,0620900725959855;0,488;0,544;0,00506665816379084
"RABAC1";1,66206560428418e-07;0,100135430941524;0,724;0,677;0,00557423562364827
"NCAPG";1,8434960251041e-07;-0,0580950379799849;0,506;0,591;0,00618271696899415
"BIRC5";1,89720396132885e-07;-0,0723893546630264;0,616;0,694;0,00636284264550469
"LARP4B";1,96344199313208e-07;-0,0616039898118712;0,389;0,456;0,00658499175656636
"SPPL2A";2,02341833777811e-07;0,0657776724186804;0,449;0,401;0,00678614042124024
"ETHE1";2,03040416971201e-07;0,074435685568117;0,653;0,6;0,00680956950438015
"ASXL1";2,15255604049961e-07;0,0630441444199236;0,616;0,581;0,00721924244862758
"PRDX2";2,26192511349694e-07;-0,0663458422076446;0,921;0,932;0,00758604444564603
"PHPT1";2,33839355869495e-07;0,0975907153189004;0,857;0,828;0,00784250431715113
"VEGFB";2,48477232169771e-07;0,0655145033881719;0,516;0,466;0,00833342941250978
"TRAPPC1";2,52786585521261e-07;0,0663396279083515;0,857;0,816;0,00847795650521206
"HIST1H3F";2,58603965017967e-07;-0,0540937021044711;0,153;0,205;0,00867305977877257
"TNFRSF14";2,63761512204616e-07;0,0828458769317523;0,491;0,445;0,00884603359631843
"ARPC4";2,65263147297552e-07;0,058451191351454;0,863;0,838;0,00889639543406529
"HIST1H1E";2,85125007036089e-07;-0,154928536336436;0,545;0,594;0,00956252248597635
"CISH";2,99700112052403e-07;0,0871542571973589;0,706;0,669;0,0100513423580135
"NAGK";3,17113729686761e-07;0,0581246325058109;0,322;0,272;0,0106353602662346
"CDC20";3,35196330933793e-07;-0,0795077046856927;0,594;0,647;0,0112418145468575
"TAF15";3,38767253025675e-07;-0,102345320080817;0,68;0,716;0,0113615761319751
"MCM4";3,5403379569345e-07;-0,0797198196289496;0,745;0,795;0,0118735854399669
"MAFG";3,62231335007183e-07;0,0688510209448971;0,451;0,405;0,0121485145134709
"RPN2";3,64628299142484e-07;0,0669240644760691;0,758;0,733;0,0122289038966406
"CBX5";3,75770577583018e-07;-0,0706856169031473;0,686;0,727;0,0126025936309792
"ASNS";3,83036482283268e-07;-0,0702011485235022;0,567;0,612;0,0128462775428163
"ATP6V0D1";4,06407316310744e-07;0,086202806173743;0,461;0,423;0,0136300885744297
"MYL6B";4,23930500620534e-07;-0,0602991845101698;0,579;0,638;0,0142177811298115
"TMEM273";4,31517704993488e-07;0,0608452302180225;0,182;0,135;0,0144722407900716
"ELL2";4,50741041880751e-07;-0,0660546559303521;0,314;0,377;0,0151169530625966
"EMC4";4,51036200403429e-07;0,0668713146994442;0,719;0,69;0,0151268520891302
"CCR7";4,61781068959657e-07;0,150179023334637;0,705;0,674;0,015487213490769
"TXN";4,76975244053558e-07;0,0864582444613369;0,994;0,99;0,0159967957350682
"PRELID1";4,89653154497245e-07;-0,0550255310290511;0,966;0,963;0,0164219874955286
"NUS1";4,96720701558717e-07;-0,0826385443909587;0,48;0,536;0,0166590188888762
"CYTOR";5,23780440563932e-07;0,0884776935437673;0,731;0,696;0,0175665484156332
"CTSA";5,41590195098802e-07;0,0817876359261223;0,399;0,359;0,0181638519632236
"HLA-F";5,48065933088951e-07;0,0885026891362482;0,563;0,52;0,0183810352639372
"SRSF2";5,61454678923534e-07;0,0533369650799085;0,931;0,936;0,0188300670217375
"MARCKSL1";5,82266960393586e-07;-0,0536442632967805;0,361;0,431;0,0195280693176801
"LAMP1";5,90923431918013e-07;0,0799661440079442;0,484;0,444;0,0198183900596663
"NSUN5";5,95522222543772e-07;-0,0643184395803908;0,529;0,585;0,019972624299673
"FXYD5";6,08074012242173e-07;0,0890195551810271;0,873;0,844;0,020393586222578
"CDCA7";7,20720309813811e-07;-0,053496561263244;0,42;0,49;0,0241715177505356
"EIF4A1";7,33956564456402e-07;0,0554764408820496;0,769;0,747;0,0246154352587388
"ZMYM2";7,47155197148748e-07;-0,0511055856166505;0,209;0,262;0,0250580910019747
"CD164";7,65857368446135e-07;0,0621549216798302;0,726;0,702;0,0256853244229465
"ANAPC1";7,93732213723634e-07;-0,0548318383398525;0,428;0,487;0,0266201909838632
"PSMD8";8,18381464359666e-07;0,0564836447240116;0,951;0,934;0,0274468775516945
"NUDT8";8,76360180660524e-07;-0,0574081815794367;0,369;0,437;0,0293913677389926
"CFAP36";9,24571493739422e-07;-0,0606527735513217;0,48;0,545;0,0310082787570327
"TMSB10";9,40515386982489e-07;0,0623988463282412;0,999;0,996;0,0315430050486187
"PIM3";9,66397895744741e-07;0,0817828130445665;0,774;0,745;0,0324110526274871
"PAPOLA";1,00645690205148e-06;-0,0697350234795121;0,793;0,82;0,0337545515810024
"TMBIM4";1,02058527884303e-06;0,0662080465718888;0,618;0,574;0,0342283890818376
"EIF5B";1,03121184771744e-06;-0,0696029095687039;0,942;0,949;0,0345847829487475
"NMRAL1";1,08418525771247e-06;-0,0592926891878373;0,39;0,454;0,0363614051731609
"BRCA1";1,08495865402927e-06;-0,0746484680060062;0,596;0,654;0,0363873433388337
"HK1";1,1059133324468e-06;-0,0855017330373447;0,681;0,728;0,0370901213436009
"YWHAQ";1,11804388390275e-06;0,0540129314366002;0,901;0,898;0,0374969557783305
"ARL4C";1,14372424554689e-06;0,115938076436288;0,394;0,35;0,0383582237471514
"U2SURP";1,16792628989731e-06;-0,0782879309927147;0,855;0,878;0,039169911910576
"RASGRP1";1,21873110026748e-06;0,0810965748520078;0,536;0,496;0,0408738036407707
"VDAC1";1,22335212710313e-06;-0,0608445395506769;0,949;0,949;0,0410287836387848
"HIST1H2AC";1,24079989752078e-06;-0,0691314554360747;0,18;0,231;0,041613946963052
"PLK3";1,26368119237829e-06;0,0720638592937534;0,432;0,387;0,0423813398299832
"NDUFA1";1,32399915414968e-06;0,0644903581748277;0,912;0,879;0,0444042836318719
"AHCTF1";1,33994649274811e-06;-0,0741471027508069;0,534;0,591;0,044939125473786
"CANX";1,3977921050045e-06;0,0556285491480615;0,829;0,804;0,046879151617641
"RPL35";1,39809655824503e-06;-0,0592794348117818;0,999;0,998;0,0468893623704216
"IRF1";1,48313313546574e-06;0,152485865462105;0,627;0,602;0,0497413190972501
"DDX39A";1,57503778873573e-06;0,0623516930251609;0,847;0,835;0,052823617358619
"TIGIT";1,61643238115853e-06;-0,0603087252585817;0,127;0,172;0,0542119091992947
"XPO1";1,67231094710215e-06;-0,0769588855289932;0,764;0,803;0,0560859645439119
"TXNDC15";1,67869767584168e-06;0,0567355357832135;0,364;0,318;0,0563001626523783
"ARL6IP5";1,71390803507962e-06;0,0856201697184901;0,796;0,748;0,0574810476805003
"LYPLA2";1,86087139887206e-06;0,0555182388253962;0,529;0,491;0,0624099049753713
"APOL6";1,86377740823449e-06;0,079763244704419;0,377;0,331;0,0625073667173685
"ATP5PD";1,87151272435285e-06;0,0562818649812491;0,886;0,853;0,0627667937493459
"ATF5";1,88059762380344e-06;0,0560466415384417;0,32;0,269;0,0630714831071197
"RPA2";2,12106347884326e-06;0,0604492504983289;0,72;0,694;0,0711362269534452
"PSME2";2,13583338158146e-06;0,0550319826595582;0,968;0,955;0,071631579951479
"CD2";2,1771724406078e-06;0,0571773831217657;0,93;0,908;0,0730180093131044
"GATA3";2,19948725137953e-06;0,0752154620495882;0,444;0,393;0,0737664034367666
"JTB";2,24210575264699e-06;0,0528593631824861;0,921;0,904;0,0751957427322746
"SLA";2,24655876642087e-06;0,0814039409328128;0,595;0,558;0,0753450879082231
"MGST3";2,31194067119549e-06;0,0629402983076675;0,612;0,565;0,0775378662305542
"TINF2";2,50704373988694e-06;0,0659386338224748;0,373;0,331;0,0840812329483282
"MT1E";2,80247518195534e-06;0,125704913371199;0,638;0,588;0,0939894126524182
"PLK1";2,85755935368882e-06;-0,0573589364478503;0,319;0,374;0,0958368256040156
"CUL1";2,85907369448602e-06;-0,0613895606255544;0,525;0,584;0,0958876135656723
"C12orf45";2,92782291837781e-06;-0,0567865440829574;0,653;0,704;0,0981933250365549
"NME1";3,42936766760078e-06;0,0505252822909428;0,945;0,939;0,115014132835995
"KARS";3,48224648748764e-06;-0,0703551147477403;0,72;0,761;0,116787582697361
"SPCS2";3,62942989860876e-06;0,0614606869655383;0,854;0,827;0,121723819939541
"DDX3X";3,65613523833968e-06;-0,0807446242318992;0,765;0,811;0,122619463623436
"APEH";3,84344916524914e-06;-0,0671995004353789;0,52;0,575;0,128901598104126
"PHF19";3,85917972633575e-06;-0,0654109065992868;0,687;0,738;0,129429169661848
"CCT4";4,0278246023612e-06;-0,0521973234615127;0,93;0,933;0,13508518151399
"ZFC3H1";4,12501257496119e-06;-0,0686621190541785;0,423;0,485;0,138344671739048
"RANBP2";4,55784825418544e-06;-0,073851811579879;0,607;0,659;0,152861114748871
"TACC3";4,81628614550036e-06;-0,0666648725786517;0,563;0,621;0,161528604747791
"NAPSA";4,99728837463582e-06;-0,086041143123276;0,373;0,435;0,167599057508536
"AURKA";5,0181626588388e-06;-0,0933532255881774;0,445;0,498;0,168299139252136
"ARPC5";5,03617882977313e-06;-0,0624434481525049;0,923;0,915;0,168903365592931
"RGS16";5,08437754261782e-06;0,0540820395975903;0,384;0,337;0,170519854024317
"IDH2";5,32192504497545e-06;-0,057810840244063;0,619;0,667;0,178486722158387
"SNRPA1";5,57394261065509e-06;-0,0604297356093224;0,865;0,888;0,18693888727615
"CENPH";5,59865926715984e-06;-0,0641993434978332;0,644;0,683;0,187767834502007
"FDFT1";5,63168856913056e-06;-0,0562327992430738;0,607;0,663;0,188875571231501
"NCAPH";5,90404691882605e-06;-0,0512873877773536;0,419;0,483;0,198009925563588
"UXT";6,35100282095612e-06;0,0686695799889361;0,89;0,866;0,212999932609226
"KIF15";6,88938188190045e-06;-0,0603968633935195;0,348;0,408;0,231056089555177
"PIH1D1";7,18165654914213e-06;-0,0634508301900177;0,608;0,655;0,240858397345129
"CD247";7,21428761005993e-06;0,0713116887905023;0,6;0,572;0,24195277786619
"GPR171";7,22646634873409e-06;0,0902844388225382;0,617;0,593;0,242361228403844
"ANKRD39";7,45350477834965e-06;-0,0529840490890075;0,534;0,589;0,249975643256291
"EVI5";7,66965493089704e-06;-0,0853609957229872;0,58;0,639;0,257224887072425
"ITGB1BP1";7,72152455667539e-06;0,064319340483729;0,792;0,769;0,258964490581779
"FAM207A";7,96523968196121e-06;-0,0616015107520042;0,79;0,806;0,267138208453615
"UQCC2";8,08139518377221e-06;-0,0510319114560505;0,847;0,845;0,271033831673352
"BATF3";8,08529430186166e-06;-0,136154135809237;0,623;0,658;0,271164600295836
"PTGER4";8,10139113689604e-06;0,0690097875209669;0,284;0,242;0,271704455949219
"MBNL1";8,18933369741777e-06;-0,0684695446266309;0,778;0,814;0,274653873543997
"SSR2";8,19259104684395e-06;0,0588522134446394;0,87;0,835;0,274763118529052
"UBA1";8,83055033660404e-06;-0,0584274896132405;0,595;0,644;0,296158997189026
"CRELD2";8,88992876710293e-06;0,0785304260516196;0,581;0,553;0,298150430991098
"ENSA";9,51189502446399e-06;0,056784072028087;0,824;0,8;0,319009935330473
"CD99";9,53240016353619e-06;0,0677951509419863;0,742;0,706;0,319697636684677
"RNF115";9,89795529718251e-06;0,051796520722621;0,488;0,452;0,331957624756907
"MCM7";1,0401230792137e-05;-0,0612919012488089;0,804;0,837;0,34883647830669
"VKORC1";1,06192593813095e-05;0,0654731063526674;0,58;0,544;0,356148721130359
"WASHC3";1,06528362362714e-05;0,0592089939554771;0,48;0,441;0,357274821692071
"TMEM14B";1,06651013990541e-05;-0,0588907742473627;0,821;0,844;0,357686170721475
"M6PR";1,07587529222208e-05;0,0639765882296477;0,71;0,688;0,360827055505442
"COPRS";1,09842002524918e-05;0,0655249848811592;0,719;0,681;0,36838810806807
"TOMM5";1,10262549999391e-05;-0,0517138322657992;0,778;0,783;0,369798540187958
"LYAR";1,13480904787333e-05;-0,0686764941489542;0,836;0,861;0,380592258475758
"MCM6";1,15784261805636e-05;-0,0602957617630916;0,752;0,782;0,388317257243743
"INTS1";1,18070911779823e-05;-0,061535172734406;0,363;0,418;0,395986223927172
"HSPA4";1,18174300269322e-05;-0,0649437278138654;0,826;0,835;0,396332968243251
"LONP1";1,24934979838739e-05;-0,0686333713551974;0,645;0,695;0,419006935383164
"ISG20";1,27388571223282e-05;0,164641874095266;0,371;0,33;0,427235790168643
"NSD2";1,2895471454518e-05;-0,065575289738969;0,529;0,583;0,432488321641624
"SNX9";1,31990299582822e-05;0,104087084977502;0,472;0,435;0,442669066740867
"TMEM208";1,33726763729635e-05;0,0670097861665817;0,808;0,782;0,44849282019645
"REEP5";1,34223619784325e-05;0,064788591056245;0,803;0,767;0,45015917603267
"GOT2";1,34750000898849e-05;-0,055242724678658;0,61;0,672;0,451924553014559
"CCT8";1,36056640929609e-05;-0,0501971568798609;0,932;0,944;0,456306762349724
"CCND3";1,39565499748774e-05;-0,0610873805203922;0,813;0,826;0,468074773057439
"SRM";1,4255427373719e-05;0,0539732914641022;0,93;0,923;0,478098523259788
"ROMO1";1,44711475634364e-05;0,058688247220636;0,875;0,858;0,485333346982529
"GRK2";1,45838058816944e-05;-0,0710413320325087;0,642;0,684;0,489111681660268
"TIMM13";1,46754053748127e-05;-0,0563531724217166;0,881;0,897;0,492183745460469
"AARS";1,48475449954314e-05;-0,0530972705492253;0,485;0,538;0,497956964056778
"CCND2";1,51168643178097e-05;0,07584586133274;0,913;0,902;0,506989395490701
"DCXR";1,52931951391016e-05;-0,0643474683254568;0,771;0,783;0,512903178575189
"TIPRL";1,61765833925821e-05;-0,051201536291903;0,673;0,712;0,542530253820419
"MLX";1,744534656067e-05;0,0580077389632848;0,623;0,597;0,585082032951751
"JOSD1";1,74578810554713e-05;-0,0549834877909544;0,459;0,516;0,585502414838396
"CHEK1";1,74936568398172e-05;-0,0585403698319504;0,661;0,711;0,586702263093791
"RRP1B";1,76631888680849e-05;-0,067762055018083;0,758;0,789;0,59238802825783
"IVNS1ABP";1,77928854875564e-05;-0,0569273019056356;0,394;0,455;0,596737793481667
"RNPS1";1,94680641899747e-05;-0,0584177790485658;0,834;0,848;0,652919936803372
"LAPTM4A";2,0364700463732e-05;0,0553170460352614;0,374;0,336;0,682991324152642
"HDAC7";2,0555684564831e-05;-0,0544991779745779;0,43;0,492;0,689396548935302
"CCL3L1";2,07017799405695e-05;0,117019999810313;0,139;0,107;0,69429629564682
"ARPC1B";2,09644703187374e-05;0,0615642223866364;0,863;0,845;0,703106405549816
"PRKDC";2,11313994174172e-05;-0,0768911280725681;0,878;0,897;0,708704873661338
"GRPEL1";2,17047336392754e-05;-0,067058491553581;0,781;0,797;0,727933356794017
"TMEM165";2,18344487367409e-05;0,0507952337817132;0,644;0,615;0,732283741732815
"HSPE1";2,1960944385383e-05;-0,0529026290407963;0,984;0,986;0,736526152796976
"EIF4H";2,24342942594764e-05;-0,0681358586498015;0,795;0,819;0,752401360874318
"TMEM50A";2,27602571485019e-05;0,0515358505650165;0,778;0,747;0,763333504246456
"PSMB3";2,35928481377285e-05;0,0628746779310319;0,955;0,943;0,791256940843139
"ARID1B";2,36634934614157e-05;0,0552903412022386;0,469;0,43;0,793626243708961
"COX7A2";2,37657007139058e-05;0,0539606809810291;0,97;0,952;0,797054070542971
"JAML";2,47258034914254e-05;0,0618623702679406;0,572;0,534;0,829253997495426
"CD44";2,50643498020965e-05;0,0533850357734031;0,798;0,768;0,840608163662711
"CRIP1";2,52094668112075e-05;-0,0702861602011247;0,397;0,451;0,845475097914276
"APOL2";2,53577960945813e-05;0,0687074236356777;0,439;0,408;0,850449765420067
"IRF2";2,53590410709402e-05;0,051972526753691;0,465;0,423;0,850491519437194
"CD226";2,6863403954384e-05;0,0660045803661765;0,476;0,438;0,900944841822131
"ZBTB32";2,92486446867255e-05;-0,0636929967652718;0,611;0,654;0,980941045503399
"SACS";3,05493748751113e-05;-0,0667936052240048;0,448;0,505;1
"SESN3";3,09188313362834e-05;0,0566344446852873;0,124;0,091;1
"HIGD1A";3,25059134220712e-05;0,0503456099107391;0,637;0,607;1
"EIF4B";3,2859906842111e-05;-0,0550504780496865;0,863;0,879;1
"UBE2N";3,30438127975496e-05;0,0553557039114849;0,882;0,86;1
"CENPM";3,30980848120544e-05;-0,0539622999813242;0,668;0,714;1
"CLDND1";3,39464959104435e-05;0,0654971914794805;0,677;0,641;1
"RRM1";3,52207098497396e-05;-0,0517186099666183;0,702;0,745;1
"FAM50A";3,5541788192396e-05;0,0532002598896016;0,67;0,638;1
"PARP14";3,55459467681432e-05;0,0769761588006641;0,521;0,491;1
"ECHS1";3,59551679905275e-05;0,0509179395352375;0,757;0,725;1
"CENPX";3,70005294785091e-05;-0,0600571339617277;0,83;0,839;1
"CFLAR";3,71864472141172e-05;0,054422241293276;0,88;0,861;1
"TUBA1C";3,82192569591241e-05;0,0566721903500418;0,882;0,877;1
"FAM162A";4,01364366023766e-05;-0,0558186970418706;0,825;0,826;1
"ATP5F1A";4,10071728974242e-05;-0,0521596423947426;0,895;0,914;1
"TPM4";4,15064742261738e-05;-0,0587825615412381;0,893;0,902;1
"MRPL24";4,41265323239065e-05;0,0656284452482205;0,647;0,616;1
"EXOSC6";4,55704648882374e-05;0,0519455007207151;0,553;0,518;1
"RAB10";4,97686455784418e-05;0,0514198511757914;0,642;0,607;1
"MAF";5,01377412717179e-05;0,112415791432398;0,437;0,398;1
"IKZF1";5,14990071110747e-05;0,0678221831256249;0,759;0,746;1
"PPM1G";5,29795513575787e-05;-0,0546856928729103;0,918;0,926;1
"MAL";5,31077241429127e-05;0,0816263023021376;0,207;0,17;1
"TAPBP";5,62472868524441e-05;0,0692660362192078;0,754;0,74;1
"DERL2";5,70095321068289e-05;0,0521306629938739;0,55;0,522;1
"BATF";5,91982791028e-05;0,0935627784085404;0,926;0,897;1
"SYNCRIP";6,02400112958215e-05;-0,0623436900254786;0,875;0,904;1
"GLO1";6,1736711866052e-05;-0,0575886334171727;0,76;0,784;1
"MYC";6,19066721512508e-05;0,0604710016214702;0,705;0,664;1
"TNFRSF25";6,59803770610072e-05;0,0525656416456862;0,631;0,6;1
"SEPT9";6,69803085634893e-05;-0,0633260321160025;0,675;0,709;1
"MT1X";6,79998909470398e-05;0,0515166371290045;0,789;0,77;1
"CISD1";7,1096201262388e-05;-0,0503268705596068;0,76;0,775;1
"HLA-DPA1";7,23288659352939e-05;0,0650946197625724;0,241;0,205;1
"CAVIN3";7,24075746196416e-05;-0,0533896915479123;0,246;0,29;1
"NDUFAF3";7,47206805359961e-05;0,0529791924984185;0,814;0,778;1
"NUSAP1";7,49334848958094e-05;-0,054234872944922;0,565;0,63;1
"TMEM59";8,0027967033938e-05;0,0632675110511118;0,658;0,627;1
"BUB1";8,00813701130216e-05;-0,0538188200852319;0,36;0,407;1
"NAPA";8,45394440585909e-05;0,0616973735674369;0,527;0,495;1
"YY1";8,66490473730746e-05;-0,0667272889298414;0,779;0,798;1
"RBMS1";8,67088509766976e-05;0,0571866053003739;0,487;0,455;1
"LPXN";8,83483469137781e-05;0,0686634007395778;0,548;0,523;1
"TRIM28";8,93109268226502e-05;-0,0729270907295274;0,757;0,789;1
"CTSS";9,02145188238647e-05;0,0552379403178544;0,314;0,279;1
"SNHG19";9,07954625228109e-05;-0,0897868173021653;0,446;0,499;1
"CCNT1";9,22079480457748e-05;-0,0538713789766596;0,327;0,376;1
"CMTM6";9,22912575631644e-05;0,0713869289708872;0,689;0,678;1
"NUFIP1";9,51178669268349e-05;-0,0525837603533709;0,427;0,478;1
"SYMPK";0,000100254049622433;-0,0527637045516784;0,356;0,406;1
"PDS5A";0,000104585623927908;-0,0553123954171938;0,632;0,681;1
"DDX1";0,000105338700426965;-0,063308196486468;0,754;0,787;1
"MLF2";0,000106642626636601;0,05716283379815;0,759;0,724;1
"CCDC34";0,000108835205073506;-0,0578448140185523;0,517;0,564;1
"ISCU";0,000109061285957407;0,0589120791878801;0,745;0,714;1
"SDF4";0,000109147962352905;0,0599852739795617;0,675;0,656;1
"MAD2L1";0,000113732865205874;-0,0620632049216967;0,715;0,761;1
"RPP30";0,000121151053951728;0,0566223091186652;0,681;0,657;1
"NUCKS1";0,000123494650452557;-0,061913962452925;0,923;0,94;1
"KDM6B";0,000127178740389699;0,0514238016865367;0,322;0,288;1
"ANXA2";0,00012862848581403;0,0788844234381423;0,567;0,535;1
"TARS";0,000128964021464013;-0,0554528561249428;0,766;0,799;1
"TYMP";0,000129201915478642;0,111402210107802;0,493;0,468;1
"ARHGAP11A";0,000132882678167914;-0,0533097579217639;0,391;0,444;1
"CENPW";0,000136418249643214;-0,0524196444639446;0,663;0,703;1
"GARS";0,000139842392483107;-0,0590096166508065;0,803;0,82;1
"CAPNS1";0,000147383790252031;0,0669239742449392;0,721;0,704;1
"CEBPB";0,00015495606843168;0,0797649579248496;0,527;0,504;1
"SLC35B1";0,000161062838956626;0,0546144056425297;0,586;0,56;1
"LCP1";0,000163407836886007;-0,0544864948505404;0,911;0,92;1
"YTHDC1";0,000165119491626571;-0,0521709235993155;0,65;0,694;1
"MYDGF";0,000166226222886827;0,0559587601396458;0,829;0,803;1
"CCDC25";0,00017228460459081;-0,0515595010912628;0,709;0,751;1
"ATRAID";0,000173759624988829;0,0529504394593455;0,699;0,662;1
"DUT";0,000174041836264494;-0,0581881537190325;0,937;0,944;1
"DCUN1D5";0,00017598141646005;-0,0587260609326725;0,785;0,817;1
"UQCRC1";0,000176086324948152;-0,0633497087502263;0,7;0,723;1
"ATAD2";0,000178395779796947;-0,053185885319926;0,684;0,742;1
"CD3E";0,0001871120035453;0,0530043000769829;0,9;0,868;1
"TMEM256";0,000189264338456081;0,0672322349005493;0,566;0,534;1
"SDHAF2";0,000189548218002311;0,0507464418105977;0,494;0,463;1
"TCEA1";0,000190735027449469;-0,0581583616070775;0,879;0,89;1
"AP3S1";0,000198259287682423;0,0514410066522051;0,5;0,472;1
"HIST1H1D";0,000199662092099886;-0,179385401920718;0,616;0,65;1
"HDAC1";0,000203168706063488;0,0510446558200507;0,776;0,759;1
"CAND1";0,000205799672750697;-0,0658306430465229;0,597;0,638;1
"EIF2AK4";0,000211735889520261;-0,0548635972018325;0,55;0,589;1
"SNRNP25";0,000225039612690479;-0,0593811843298011;0,764;0,801;1
"RNASEH1";0,000232922796978339;-0,0530014450858266;0,627;0,662;1
"IPO5";0,000234013619577229;-0,0592041553335944;0,707;0,755;1
"SELENOK";0,000234875096464981;0,0652534156392396;0,804;0,788;1
"LGALS3";0,000246550088291727;0,0858999910611875;0,241;0,206;1
"CLTC";0,000261683951270326;-0,0535752313267346;0,698;0,741;1
"RUNX3";0,000279815891432931;0,0533101132386661;0,726;0,714;1
"EIF6";0,000281314035734332;0,0528274358976726;0,838;0,813;1
"TMEM126B";0,000281456982287892;0,0643994325053325;0,654;0,627;1
"C1orf35";0,000283951033164146;-0,0572133519529739;0,627;0,663;1
"CUTA";0,000286436139022856;0,0684015765414387;0,773;0,737;1
"USP7";0,000304626869000191;-0,0618948003767792;0,576;0,617;1
"POLE4";0,000309234395884869;0,0570746366715486;0,67;0,646;1
"SMC4";0,000309412246716914;-0,0558724033906874;0,725;0,769;1
"DEGS1";0,000331842981547668;0,0539208062333356;0,436;0,407;1
"NAA50";0,000339483009408677;-0,0534847670854142;0,712;0,761;1
"LMNB1";0,000354909956871533;-0,0534110952830728;0,639;0,686;1
"ATP13A3";0,000357284450264277;-0,06150343117273;0,516;0,568;1
"FAM241A";0,000373849975706861;0,0505109449319606;0,547;0,526;1
"ZFAS1";0,000379287183946528;-0,0609485965212553;0,901;0,916;1
"DAD1";0,000383664703292002;0,0524235336563055;0,912;0,885;1
"SPTAN1";0,00038450868698003;-0,0573560892302714;0,479;0,527;1
"GBP4";0,000395690370518684;0,0744868060380039;0,306;0,274;1
"SLC38A2";0,000413447792551908;-0,0710249616060773;0,39;0,434;1
"RAB5C";0,000426705753463293;0,0572361254160348;0,529;0,509;1
"ANXA5";0,000428558829257231;0,0675190842164918;0,603;0,593;1
"ILF3-DT";0,000438405848070021;-0,065812149648043;0,391;0,439;1
"TRMT10C";0,000457436152013812;-0,0617638539651578;0,79;0,818;1
"RILPL2";0,00046094863153795;-0,0626556482728113;0,699;0,737;1
"CARD8";0,000482757086916307;-0,0561120016699375;0,405;0,458;1
"POM121";0,000502204638762284;-0,0548896262803976;0,487;0,537;1
"ZNF706";0,00051332235799245;-0,0505335535552558;0,906;0,908;1
"PFKL";0,00054859581361453;-0,0552036816745513;0,534;0,572;1
"IPO7";0,000552523623202855;-0,0683596481910982;0,702;0,737;1
"APPL1";0,000576396015753252;-0,0527019849524266;0,615;0,654;1
"GHITM";0,000579850016226612;0,0532696481718729;0,864;0,84;1
"STX16";0,000592130608701325;-0,0518363570281683;0,414;0,454;1
"LRPPRC";0,000593446234548306;-0,0643389623591989;0,755;0,779;1
"HIST2H2AC";0,000622990558274183;-0,0978821869306835;0,451;0,494;1
"CFAP97";0,000627018628566438;-0,0532878889851895;0,635;0,677;1
"TIMM10";0,000649700797361974;-0,0628893198228218;0,847;0,854;1
"TRAF3IP3";0,00067047115591212;0,0576593479394908;0,669;0,663;1
"DCP2";0,000676396413742527;-0,055925294235359;0,452;0,491;1
"SAMSN1";0,000684418453718658;0,0820341757015122;0,597;0,583;1
"GCN1";0,000710859769034263;-0,0622681336025737;0,447;0,494;1
"ARID5A";0,000720465242914623;0,0635215025074777;0,58;0,548;1
"LAMTOR1";0,000759572808411803;0,0585618158350876;0,805;0,78;1
"ABCE1";0,000760237902399138;-0,0514438098764025;0,803;0,832;1
"XBP1";0,000763540129340167;0,0729146057354791;0,588;0,571;1
"CCL3";0,000781528671545313;0,247254270875693;0,539;0,529;1
"RFC1";0,000789724491547064;-0,0596791092530591;0,744;0,775;1
"HAUS6";0,000791988449154136;-0,0505527612739888;0,508;0,552;1
"ARL8B";0,000795081352921621;0,051678449814108;0,487;0,471;1
"USP48";0,000842816622438322;-0,0512348587896915;0,569;0,612;1
"PHRF1";0,000850076955521157;-0,0515167850448404;0,391;0,439;1
"POLR2G";0,000861479921854299;0,0512360849802198;0,732;0,712;1
"MYO1G";0,000883036640498082;-0,0584183943293096;0,695;0,726;1
"IKZF3";0,000890585188920896;0,0795877291828998;0,516;0,488;1
"CCNI";0,000906296047544804;0,0573690875517412;0,904;0,894;1
"PMF1";0,000947853142194891;0,0552467580959246;0,678;0,659;1
"RCC2";0,000998648562124213;-0,0575445579370158;0,552;0,603;1
"TMEM179B";0,0010539052719549;0,059174252286441;0,555;0,537;1
"ID2";0,00108325916224336;0,0825657116778585;0,545;0,522;1
"TNFSF14";0,00111695462588367;0,0748156292606068;0,473;0,441;1
"MSH6";0,00113549872764416;-0,0543288361729157;0,691;0,729;1
"SMARCA5";0,00120221191181687;-0,0576591086685569;0,84;0,847;1
"SYNE2";0,0013162361714869;0,0714890881837638;0,353;0,32;1
"ACAT2";0,0013643354870504;0,0521323117311003;0,626;0,606;1
"HNRNPR";0,00137541195717489;-0,0550333440547723;0,899;0,905;1
"PRDM1";0,00144779236044463;0,0620018892667022;0,318;0,287;1
"MAK16";0,00147681500347553;-0,0530110894482431;0,605;0,648;1
"DDB1";0,00147715727430063;-0,050899600256846;0,641;0,676;1
"COMMD5";0,00157693288642771;0,0504401197231741;0,451;0,431;1
"HIST1H1C";0,00164288377504402;-0,106032611319763;0,564;0,601;1
"BRI3BP";0,00174837416530182;-0,0503418670894623;0,572;0,609;1
"ANXA7";0,00182959238914893;0,0540012312765498;0,766;0,761;1
"SELENOF";0,00189612653533668;0,0509602305519358;0,682;0,669;1
"CSKMT";0,00191429460950741;-0,0875331009622013;0,359;0,401;1
"FAM129A";0,00227607715993749;0,0654373895703006;0,348;0,319;1
"TNF";0,00232863532702103;0,0580269494448744;0,651;0,623;1
"CAB39";0,00239486432468082;-0,0517596093201598;0,546;0,593;1
"EIF4G1";0,00239606193608327;-0,0593304619671959;0,825;0,844;1
"CD40LG";0,00247610064513125;0,0564744818161109;0,534;0,512;1
"GZMM";0,00253707237790094;0,0538719243844429;0,483;0,45;1
"ELP5";0,00259086638937081;0,0505400205598595;0,621;0,612;1
"OPTN";0,00272420384002316;0,0850620717632116;0,438;0,416;1
"ME2";0,00279366577810172;-0,0529341189350571;0,707;0,744;1
"TNFRSF9";0,00297170728952163;0,0538658182907714;0,296;0,265;1
"CYC1";0,00302291704756806;-0,0524075510510917;0,841;0,84;1
"HLA-DRB1";0,00314952532025365;0,057371069680611;0,131;0,109;1
"CAST";0,003320404084905;0,0617551449616012;0,78;0,757;1
"S100A11";0,00340822586749414;0,0692823815115489;0,942;0,929;1
"C4orf48";0,00343150349737275;0,0522239841138153;0,743;0,722;1
"HIST1H2AH";0,00377713218206975;-0,0653235608769094;0,278;0,309;1
"TDG";0,00430158822917128;-0,0522025059427631;0,669;0,702;1
"SUZ12";0,00431055514253628;-0,0555633549718212;0,761;0,796;1
"CHD4";0,00437100015405429;-0,0528220445487271;0,817;0,847;1
"SNHG25";0,00442575805238411;-0,0924404409243562;0,467;0,498;1
"IL2";0,00461774486836202;-0,093718403817712;0,14;0,166;1
"CDC42SE2";0,00536413199813455;0,0518838640532587;0,638;0,621;1
"PNRC2";0,0054866320838945;-0,0561363366972538;0,726;0,758;1
"RBBP6";0,00565192459333831;-0,0649406590698768;0,661;0,687;1
"HDLBP";0,00575206005635439;-0,059105639461022;0,712;0,747;1
"AC058791.1";0,00608365881995114;0,0533625089974331;0,311;0,284;1
"MORF4L2";0,00671248180017451;-0,0532233464461604;0,665;0,699;1
"DDX6";0,00726055965977038;-0,0533680321761922;0,606;0,627;1
"HNRNPU";0,00775580491998944;-0,0511476083743916;0,959;0,968;1
"JUN";0,00786101277862543;-0,288556139335561;0,184;0,213;1
"EPSTI1";0,00808698295922688;0,0574134901643258;0,159;0,138;1
"TOP1";0,00825135160663615;-0,0534592509508349;0,906;0,913;1
"C19orf70";0,00857692198610243;0,0533393790169685;0,899;0,871;1
"CDK6";0,00865959521377533;-0,0647615530801516;0,719;0,745;1
"GADD45A";0,0093569363597131;-0,051881500349072;0,213;0,244;1
"MAP1LC3B";0,0111571229160753;0,0527977169794127;0,762;0,734;1
"RGCC";0,0123956320258272;0,0667971991991593;0,651;0,644;1
"HIST1H4H";0,0136204847539118;-0,0538958974191007;0,166;0,193;1
"UBE2C";0,0153739558654674;0,0712223184757286;0,543;0,538;1
"MT2A";0,0154854270698995;0,0545871896378096;0,948;0,947;1
"RFC4";0,0159743341372878;-0,0502973292358099;0,677;0,706;1
"TIMP1";0,0164683649006664;-0,0525651239235025;0,198;0,226;1
"ITGB1";0,02008508923606;0,0666636410278747;0,488;0,473;1
"FTH1";0,021161133918631;0,0570295323491612;0,992;0,986;1
"FBXO32";0,0217340077399163;0,053900585119849;0,107;0,091;1
"IFI6";0,0224009927818227;0,0543422231914871;0,166;0,149;1
"RPS27L";0,0226097213278923;0,0596367325935299;0,845;0,835;1
"HEXIM1";0,024623885665661;-0,0782720243379631;0,297;0,33;1
"SPINT2";0,026792628239997;0,0632026490634376;0,303;0,289;1
"TRIP12";0,0303018835841868;-0,0501324487391326;0,582;0,616;1
"LMNA";0,0312880722004911;-0,0660159530070068;0,617;0,639;1
"MYH9";0,0343468904434738;-0,050687411170258;0,809;0,837;1
"NAMPT";0,0374711779953216;-0,0543914599947446;0,893;0,901;1
"STAT1";0,0376072258130798;0,109500853682242;0,737;0,738;1
"TNFRSF18";0,0391278580793302;0,0526465860897474;0,631;0,627;1
"ICOS";0,0391370935140549;-0,0561931968784323;0,502;0,527;1
"CD74";0,0398865280097594;0,0584591179099418;0,724;0,705;1
"ZBTB38";0,0521992590418937;0,050215325129981;0,312;0,297;1
"IFI35";0,0526965754545384;0,0530236044764578;0,393;0,38;1
"DUSP2";0,0539242984907743;0,0580205249693972;0,758;0,748;1
"FLNA";0,0878404858616034;-0,0612639011265549;0,757;0,779;1
"GBP5";0,0975130605690751;0,0670168316010754;0,347;0,337;1
"PTPN7";0,110299846440089;-0,0507353015136596;0,761;0,799;1
"CD27";0,137697877983071;0,0687724956267624;0,512;0,519;1
"TFRC";0,178585262376287;-0,0570151198007082;0,687;0,708;1
"IER2";0,245499446149512;-0,0626453434869944;0,668;0,693;1
"GZMB";0,281006379949954;0,0760476460222237;0,942;0,957;1
"MT-ND5";0,345287127089808;-0,107823030431921;0,919;0,864;1
"ZBED2";0,408597890059521;0,0513385713625372;0,75;0,779;1
"IFNG";0,556328051965591;-0,471821554323534;0,347;0,37;1
"AL355075.4";0,561272360514155;-0,178699513267473;0,112;0,117;1
"HIST1H4C";0,649337932341394;0,0688089443187145;0,907;0,927;1
"IL17F";0,711967086336264;-0,21761429125427;0,219;0,225;1
"LINC01871";0,849075928799652;0,0645213944310402;0,208;0,215;1
"MT-ND6";0,872994150088455;-0,0595183993330389;0,512;0,511;1
"GBP1";0,8763196663362;0,0592462801006494;0,44;0,457;1
"HLA-C";0,958554079527735;0,0506161512438599;0,966;0,939;1
"LGALS1";0,96003506751306;-0,138332872360105;0,407;0,405;1
"G0S2";0,998081795155116;-0,088120804966347;0,233;0,233;1
