"";"p_val";"avg_logFC";"pct.1";"pct.2";"p_val_adj"
"MT-ND4";0;-0,220663857038699;0,996;0,996;0
"SOCS1";1,06004412775254e-259;0,279977992231356;0,884;0,797;3,55517599565647e-255
"MIF";2,8881868689403e-254;-0,254954648441414;0,939;0,965;9,68640112105199e-250
"B2M";1,12475970379656e-244;0,169062510162882;1;1;3,77221909459291e-240
"MT-CO3";6,09804007571928e-222;-0,149938181614052;0,997;0,996;2,04516068059473e-217
"MT-ATP6";2,51463925226336e-161;-0,138574917412435;0,996;0,997;8,43359712424084e-157
"MT-CYB";1,53514811025495e-142;-0,132021451688971;0,995;0,995;5,14857973217304e-138
"MT-ND3";1,44925020182595e-136;-0,180944395028758;0,991;0,992;4,86049532688387e-132
"HLA-B";2,64423353711881e-136;0,139786588027744;0,993;0,989;8,86823043678907e-132
"DDIT4";6,42116606170231e-123;-0,182984321542513;0,795;0,853;2,15353067377372e-118
"MT-CO2";7,72669577584994e-119;-0,101296438500993;0,997;0,997;2,59137922930455e-114
"SH3BGRL3";8,84602323795471e-113;0,137695734465463;0,99;0,984;2,96677927354525e-108
"EIF4EBP1";7,02302359272916e-110;-0,162082633078168;0,703;0,779;2,35538165252951e-105
"RPS21";1,01499955593795e-109;0,0819755764747958;0,998;0,999;3,40410551070468e-105
"SELENOW";3,78061216266778e-109;-0,143585580424638;0,822;0,871;1,26794170711552e-104
"MT-ND5";9,93581775549373e-106;-0,166588906936183;0,963;0,978;3,33227455883749e-101
"ATP6V0E1";1,60754191525159e-99;0,142998266741882;0,838;0,775;5,39137407537078e-95
"MT-ND4L";1,43016949709763e-98;-0,177998147532525;0,698;0,775;4,79650245936602e-94
"SEC61B";2,98293064804155e-98;0,118480990933812;0,968;0,953;1,00041528074018e-93
"MT-CO1";3,21438566061801e-97;-0,0861990693227064;0,997;0,997;1,07804066285807e-92
"RPS10";2,3679241514736e-95;0,110415404878849;0,968;0,96;7,94154401921216e-91
"IRF1";6,45071428673637e-89;0,215048438207675;0,538;0,438;2,16344055748564e-84
"PSMA7";1,32901704289176e-86;0,0860487639522614;0,996;0,994;4,4572573584504e-82
"PFN1";1,84292819413324e-81;0,074250234644833;1;0,999;6,18081257748407e-77
"MYO1G";4,9924731850165e-81;-0,139350426510427;0,559;0,643;1,67437565679084e-76
"GATA3";1,86269661571983e-78;0,172459404281331;0,542;0,451;6,24711190980117e-74
"RPLP1";3,01907340567412e-77;0,0520233506641032;1;1;1,01253683879499e-72
"SQSTM1";6,06748887755699e-76;0,154181571732667;0,638;0,557;2,03491441975506e-71
"RPSA";1,11809338855368e-75;-0,0515413667394804;1;1;3,74986160653134e-71
"GZMB";3,85180280093341e-75;-0,160574716786212;0,895;0,943;1,29181762337705e-70
"CSF2";1,33713843689146e-74;0,310529787353158;0,295;0,203;4,48449488964659e-70
"CD55";1,91372182703961e-74;0,135534195537755;0,519;0,423;6,41824026352543e-70
"NAMPT";3,05188526143641e-74;-0,157508067543452;0,856;0,887;1,02354127898054e-69
"CFLAR";9,01362282050271e-73;0,150057759983961;0,803;0,758;3,0229888215402e-68
"NDUFA4";6,51862414312462e-71;0,0882448216166463;0,986;0,979;2,18621616512114e-66
"CYTIP";1,57035604028589e-70;-0,121304912567021;0,735;0,786;5,26666008791083e-66
"NME2";2,20370044957276e-70;-0,168964826871627;0,27;0,345;7,39077056777711e-66
"PHGDH";9,84415516145571e-69;-0,136247083880271;0,468;0,55;3,30153275804902e-64
"PSAT1";2,9565120838972e-67;-0,132673857224044;0,484;0,563;9,91555022697443e-63
"GPR183";1,50868476655798e-66;0,137353588069809;0,533;0,444;5,05982697008216e-62
"CALM2";3,11388890697023e-66;0,102785063502185;0,939;0,917;1,04433606161968e-61
"PSME1";3,70057763451995e-65;0,126519033579186;0,935;0,916;1,2410997270653e-60
"CSTB";5,3668728707526e-65;0,126782812268356;0,833;0,783;1,79994182339301e-60
"TPT1";4,58595138118161e-64;0,0642728737984717;1;1;1,53803637422069e-59
"MT-ND2";6,73365837105255e-64;-0,11032106358393;0,988;0,991;2,2583343444836e-59
"PTTG1";3,65240516683745e-63;-0,120039578701863;0,613;0,688;1,22494364485394e-58
"MINOS1";6,87276529391743e-63;0,113097990010007;0,783;0,729;2,30498802427403e-58
"CALM1";7,10954849082662e-63;0,0804406242951954;0,995;0,993;2,38440037285343e-58
"PPIA";1,05758156436892e-62;0,0639491075165668;0,999;0,999;3,54691705058048e-58
"H2AFZ";5,67054274991597e-62;-0,0812557395263407;0,987;0,994;1,90178662746682e-57
"EIF5A";9,31168047535751e-62;0,0746904093878578;0,989;0,985;3,1229513978254e-57
"CORO1B";3,61091246955108e-60;-0,123437236802453;0,846;0,885;1,21102782403804e-55
"CD47";3,63213039201464e-60;0,129432478207388;0,666;0,596;1,21814389087387e-55
"RPS26";9,96653015315941e-60;0,0805332125717473;0,998;0,999;3,3425748827666e-55
"HMGB2";1,02905217464501e-59;-0,104513315993182;0,897;0,952;3,45123518332443e-55
"SNX9";7,14227456512455e-59;0,110504150391083;0,395;0,306;2,39537604365147e-54
"CLEC2D";1,04665686539213e-58;0,124322520389253;0,738;0,678;3,51027779515212e-54
"RPL22L1";2,29725042711939e-55;-0,0865384530128059;0,96;0,979;7,70451848247302e-51
"RGCC";6,89328784957296e-55;0,15510481508383;0,625;0,562;2,31187087898978e-50
"GIMAP4";2,8745872357028e-54;-0,0965043946665465;0,203;0,278;9,64079067110006e-50
"TRMT112";3,80994508877293e-54;0,0968006111216038;0,911;0,885;1,27777938387267e-49
"PRDX1";5,77040745972323e-54;0,0787615294389514;0,984;0,981;1,93527925384198e-49
"PSMA2";8,33382813858354e-54;0,105226806504966;0,681;0,61;2,79499928111815e-49
"EMP3";9,24170575836391e-54;0,120910445689965;0,905;0,878;3,09948327724009e-49
"PSME2";1,84241842017262e-53;0,0911455840963404;0,966;0,955;6,17910289757492e-49
"COX7A2";4,029915596201e-53;0,0854870736884819;0,971;0,966;1,35155309265389e-48
"JAML";6,37725151855773e-53;0,130271435182773;0,643;0,578;2,13880261429389e-48
"DUSP4";1,28177120731432e-52;0,134401647608322;0,626;0,566;4,29880427509077e-48
"NAPSA";1,41358107977017e-52;-0,121508708799075;0,253;0,33;4,7408682253332e-48
"UBE2S";2,814941268244e-52;-0,103502979261657;0,899;0,934;9,44075002543672e-48
"MGST3";3,399885222952e-52;0,12447367728585;0,54;0,459;1,14025350607364e-47
"BATF3";3,29614532760128e-51;-0,179251018086051;0,506;0,572;1,10546121997092e-46
"SRGN";9,73577269339947e-51;0,117770528951131;0,94;0,925;3,26518344591231e-46
"DHRS3";1,51301401951923e-50;0,0867599583168115;0,256;0,183;5,07434641866359e-46
"MT-ATP8";1,54986438124294e-50;-0,119610579907567;0,385;0,456;5,19793516181258e-46
"ASNS";1,74724967718579e-50;-0,11068121344849;0,44;0,512;5,85992596734571e-46
"ATP6V0B";3,99151587475415e-50;0,101193959140455;0,839;0,802;1,33867459407505e-45
"UXT";6,57769811646683e-50;0,107169431971423;0,861;0,82;2,20602839430064e-45
"FOXP1";8,2162594655629e-50;0,119816504389181;0,678;0,613;2,75556909956048e-45
"RNF125";2,0565998050757e-49;0,108328204621948;0,397;0,318;6,8974244262629e-45
"CD63";2,16065893897028e-49;0,116965326405158;0,758;0,705;7,24641794951852e-45
"ODC1";2,50307572423883e-49;0,102602492779394;0,899;0,89;8,39481536395217e-45
"RNF213";1,43189638078169e-47;-0,107013366257827;0,804;0,841;4,80229408186563e-43
"PHLDA1";1,50173591720579e-47;0,10535641502501;0,379;0,302;5,03652191912477e-43
"LMNA";3,49612272210735e-47;-0,152217783313859;0,45;0,521;1,17252963854036e-42
"FURIN";1,11955110382841e-46;-0,115375410570623;0,466;0,535;3,75475049201972e-42
"GPX4";3,03276239802151e-46;0,088744049235548;0,94;0,925;1,01712785304845e-41
"COX6A1";8,95854308750997e-46;0,0786498044791906;0,959;0,949;3,00451618068909e-41
"DDX5";3,56970715425187e-45;0,0807681071705209;0,963;0,954;1,19720838539299e-40
"SUMO2";4,40377663456595e-45;0,0666838981036431;0,979;0,971;1,47693860770073e-40
"MYL12B";4,82906504622684e-45;0,0863878781907392;0,944;0,924;1,61957183520356e-40
"CSNK2B";8,70354382162316e-45;0,0950993441525265;0,77;0,725;2,91899452689598e-40
"RBM3";1,47564421851692e-44;0,0825035942405443;0,919;0,904;4,94901558006204e-40
"RPL36";4,29424124282651e-44;-0,0523050164485293;1;1;1,44020262801915e-39
"SERF2";4,32732133182533e-44;0,0683236693874392;0,996;0,995;1,45129702826758e-39
"ANP32E";1,70625478949846e-43;-0,081967173015409;0,889;0,922;5,72243731301993e-39
"TMSB4X";3,6456164152627e-43;0,0911276958029341;0,999;0,999;1,2226668333508e-38
"HOPX";7,78241260795788e-43;-0,103155810750115;0,249;0,319;2,61006554045691e-38
"SPINT2";4,84322491405491e-42;0,1005901407116;0,36;0,288;1,62432077167574e-37
"CYP1B1";1,2466153461335e-41;-0,0992507037637671;0,105;0,158;4,18089854786252e-37
"FTL";1,88374531303801e-41;0,119966458571629;0,999;0,999;6,31770503086689e-37
"S100A11";7,13781256897688e-41;0,112746423069684;0,908;0,888;2,39387957938347e-36
"TAP1";8,84846695197754e-41;0,109647736184982;0,66;0,599;2,96759884635423e-36
"HINT1";9,22946412871933e-41;0,059389433343727;0,995;0,994;3,09537767948989e-36
"BCL2L11";2,31563897186565e-40;0,0964085556039035;0,382;0,311;7,766189983843e-36
"MT-ND1";3,66460252438442e-40;-0,0902486341699689;0,993;0,993;1,22903439462805e-35
"COX6C";6,38601963243e-40;0,0766222522121212;0,961;0,954;2,14174326432437e-35
"NDFIP1";7,12089732280554e-40;0,103219898890301;0,711;0,659;2,38820654412252e-35
"NDUFA11";9,657749585133e-40;0,0854951033910256;0,811;0,774;3,2390160558619e-35
"MAL";2,27762848447218e-39;0,107937866710968;0,204;0,146;7,63871041122281e-35
"TNFSF14";3,33825721240488e-39;0,139734495546803;0,494;0,431;1,11958470389635e-34
"EIF1";3,54108654027577e-39;0,0684221393127431;0,998;0,998;1,18760960387769e-34
"TCEA1";5,92900116710949e-39;-0,0853805567165815;0,872;0,886;1,98846841142518e-34
"PSTPIP2";7,06716731246063e-39;0,0633987857567154;0,227;0,165;2,37018657325305e-34
"M6PR";1,12488052094729e-38;0,0995012153682892;0,629;0,574;3,77262429115301e-34
"OST4";3,03933419808525e-38;0,0790739358057473;0,935;0,922;1,01933190335383e-33
"HSPD1";8,90879059913988e-38;-0,0564450165733179;0,995;0,997;2,98783019113953e-33
"RPS17";1,08560523852734e-37;-0,128003951493196;0,915;0,922;3,640902848973e-33
"ZBTB32";1,34125921370408e-37;-0,0868881818711896;0,49;0,552;4,49831515092074e-33
"NDUFB2";1,39267649043298e-36;0,0778868498972431;0,917;0,906;4,67075841361413e-32
"GNG5";3,87483741951245e-36;0,0671602535945823;0,952;0,94;1,29954297375609e-31
"PARP1";6,49703424442877e-36;-0,0730192102532334;0,912;0,934;2,17897534489652e-31
"CCM2";7,84362930715759e-36;-0,0837227592884541;0,441;0,501;2,63059639703451e-31
"CCL4";1,27454439093089e-35;0,241134855864671;0,375;0,305;4,27456697830401e-31
"TNFRSF9";1,47905797897407e-35;0,132773542869574;0,274;0,213;4,96046464988324e-31
"SELENOH";1,72490006739384e-35;-0,0730661464660567;0,877;0,901;5,78496984602546e-31
"PA2G4";1,87520805506825e-35;-0,0633358792380756;0,982;0,989;6,2890727750879e-31
"EIF5";3,39671485542289e-35;0,0775708215289099;0,898;0,887;1,13919022821173e-30
"EIF2S2";5,86176445813332e-35;-0,0678007834252436;0,967;0,978;1,96591856396875e-30
"TMSB10";6,22893498534977e-35;0,0828023641361302;0,999;1;2,08906021538661e-30
"BRI3";6,91017665963929e-35;0,0789398360149489;0,552;0,479;2,31753504810982e-30
"BNIP3";1,06252110195376e-34;-0,0993969297035209;0,471;0,531;3,56348327173252e-30
"NOP10";1,62705842940968e-34;0,0681502384759076;0,942;0,932;5,45682856055418e-30
"PLK3";2,44431583467981e-34;0,066971573356033;0,368;0,298;8,19774644634916e-30
"DNAJA1";2,88498181689882e-34;0,0710265426341958;0,929;0,912;9,67565201751525e-30
"HLA-C";2,93556733140351e-34;0,091914995773791;0,956;0,939;9,84530571606108e-30
"PHPT1";3,41989252977288e-34;0,0979646886278123;0,799;0,754;1,14696355663523e-29
"MTRNR2L1";7,67910096854904e-34;-0,0644583404078869;0,098;0,146;2,57541688283198e-29
"CALR";8,77497875821605e-34;0,0764482756387062;0,951;0,942;2,9429523759305e-29
"SLC25A5";1,36714952391015e-33;0,061564645611099;0,981;0,979;4,58514607328985e-29
"DDX39A";1,44668768963188e-33;0,0834092151328041;0,812;0,782;4,85190117348741e-29
"ATP1B3";1,85901353015265e-33;0,0830232393374613;0,833;0,805;6,23475957742594e-29
"RNF19A";2,44052200151755e-33;0,103095661735999;0,544;0,48;8,18502268868956e-29
"RGS16";3,30069275806218e-33;0,102068514470384;0,368;0,303;1,10698633719889e-28
"POLR2L";5,2099117156473e-33;0,0751437750381005;0,902;0,891;1,74730019119379e-28
"POMP";5,24594847293459e-33;0,0612371364480435;0,969;0,962;1,7593861988528e-28
"ASPM";6,69864564981583e-33;-0,0938768181322734;0,495;0,557;2,24659177803523e-28
"MKI67";7,81805154891925e-33;-0,0765018245404836;0,756;0,83;2,62201812847654e-28
"SLC27A2";1,64352418126954e-32;-0,0605114652665512;0,139;0,191;5,51205139914178e-28
"REL";1,6835284739916e-32;0,137726735636508;0,636;0,592;5,64621779607303e-28
"CD81";4,07701358098271e-32;-0,0852826177348793;0,634;0,68;1,36734881478998e-27
"DLGAP5";4,15361474235174e-32;-0,0883763158304969;0,46;0,521;1,39303931228992e-27
"SPTBN1";4,26825228507366e-32;-0,090038390661078;0,426;0,483;1,431486451368e-27
"NME1";5,16298534226401e-32;0,0591911228888162;0,974;0,968;1,7315620240885e-27
"PLP2";5,29241871048108e-32;0,0989991856584953;0,695;0,652;1,77497138712114e-27
"PAM16";7,42179762814663e-32;-0,0514809163985441;0,123;0,17;2,48912248852782e-27
"CD200";8,12249818369871e-32;0,0644282368815143;0,196;0,144;2,72412344084888e-27
"PIM3";1,94294218108233e-31;0,0918730097095715;0,689;0,638;6,51623948691391e-27
"TMBIM4";1,99776701316796e-31;0,0780694206552259;0,49;0,423;6,70011100876272e-27
"H3F3A";2,51446586387029e-31;0,0589739174722927;0,99;0,989;8,43301561424817e-27
"SHMT2";3,41911564308369e-31;-0,0785321884550134;0,696;0,732;1,14670300437741e-26
"RGL4";3,5781181798752e-31;-0,0624065715774198;0,137;0,186;1,20002927516655e-26
"NCAPD2";3,62325198804949e-31;-0,0815201462397389;0,494;0,551;1,21516625175204e-26
"UBALD2";3,80019948202613e-31;-0,0901330431837764;0,638;0,683;1,27451090228192e-26
"COPS9";4,16911428819799e-31;0,0666249421303304;0,835;0,819;1,39823754997584e-26
"LBH";4,38241612414062e-31;0,0770275558166171;0,279;0,221;1,46977471971428e-26
"SRSF3";4,85913313691532e-31;0,054892316647273;0,977;0,977;1,62965607145866e-26
"PGAM1";5,89991150117346e-31;-0,0523774316886398;0,972;0,984;1,97871231926356e-26
"CD69";6,02451635137211e-31;0,106870075311695;0,357;0,296;2,02050229392318e-26
"NFKBIA";8,47929986237436e-31;0,133459609789596;0,715;0,665;2,84378758784311e-26
"SRSF2";2,35185682812476e-30;0,0649957928688532;0,947;0,935;7,88765743016483e-26
"APRT";2,46935656115313e-30;0,0635766799980102;0,989;0,984;8,28172803479537e-26
"RPL36A";6,31894103137443e-30;0,0676326708329196;0,879;0,861;2,11924644310236e-25
"FKBP1A";7,5505739052004e-30;0,0723286432782937;0,836;0,807;2,53231147632611e-25
"MT-ND6";8,40547636576564e-30;-0,0882417459637358;0,661;0,723;2,81902866355048e-25
"IL7R";8,48080538995023e-30;-0,122143030600378;0,395;0,451;2,84429251168151e-25
"RPL17";8,89356781451173e-30;-0,0801029687595264;0,675;0,701;2,98272477363094e-25
"NAA38";1,69491098441087e-29;-0,0757966795889397;0,727;0,769;5,68439245951718e-25
"HSPB11";1,74937552974086e-29;0,0822349125841959;0,685;0,633;5,8670556516449e-25
"BCL2L1";3,17555530520753e-29;0,092620727180124;0,548;0,494;1,0650177382605e-24
"AC004148.2";3,81506719354827e-29;0,0511552163775124;0,252;0,194;1,27949723537222e-24
"CYTOR";5,01871773893946e-29;0,0808518690482192;0,745;0,708;1,68317755528552e-24
"EEF2";6,69817196882149e-29;-0,0555000944317654;0,986;0,99;2,24643291490335e-24
"CENPF";7,377763292313e-29;-0,0909436504676384;0,647;0,705;2,47435425297593e-24
"INSIG1";8,18821461020796e-29;-0,0555608060989637;0,13;0,177;2,74616341597154e-24
"POLR2K";9,9658099782323e-29;0,072978968406888;0,79;0,756;3,34233335049955e-24
"CD3D";1,45295414614309e-28;0,0729563771528905;0,96;0,954;4,87291761533471e-24
"IFNG";1,73555647276521e-28;-0,178270687136478;0,147;0,196;5,82070929835997e-24
"PPIB";1,7359480118956e-28;0,0600537903877036;0,959;0,955;5,82202244229547e-24
"RAB11FIP1";2,1562426596825e-28;0,0910135678150382;0,585;0,532;7,23160663204316e-24
"USP7";2,4361524034248e-28;-0,0839067288558647;0,529;0,577;8,1703679306061e-24
"SERPINB1";7,83445799096649e-28;-0,0864914831312735;0,778;0,8;2,62752052101034e-23
"CACYBP";1,11681419892936e-27;-0,0636090742100122;0,924;0,941;3,74557146036928e-23
"MALAT1";1,6654209816314e-27;0,158621503810023;0,998;0,998;5,58548888819539e-23
"CXCR4";2,19141916549531e-27;0,0975023405468786;0,265;0,213;7,34958159723818e-23
"ZRANB2";2,41792330805224e-27;-0,0767403399480797;0,762;0,801;8,10923119054561e-23
"LINC01943";3,95178290520486e-27;0,113988163308264;0,304;0,249;1,32534895074761e-22
"SEPT7";4,09370800802026e-27;0,0646275291176492;0,928;0,918;1,37294779172984e-22
"MAPK1";4,36570244930533e-27;0,0737138141216504;0,456;0,397;1,46416928744802e-22
"NDUFC2";5,1475340451005e-27;0,0691645882944345;0,848;0,814;1,72637996804581e-22
"MRPS26";8,69877432947218e-27;-0,0789921124450885;0,829;0,84;2,91739493461838e-22
"SNHG19";1,00894800521997e-26;-0,087578360168018;0,303;0,354;3,38380981990673e-22
"EEF1D";1,53766519259654e-26;-0,0521622545597622;0,978;0,983;5,15702152293028e-22
"TXN";2,17052104045148e-26;0,0921636392628256;0,998;0,996;7,27949346546617e-22
"KDM6B";3,05326528668225e-26;0,0708183210237669;0,312;0,254;1,02400411184749e-21
"CCND3";3,50101310758007e-26;-0,0710380084612021;0,753;0,784;1,1741697760202e-21
"TRAP1";3,66382955485948e-26;-0,0710178992957269;0,669;0,704;1,22877515610877e-21
"SLA";3,6695411847534e-26;0,0981816026987377;0,576;0,526;1,2306907225426e-21
"HMMR";5,15521526143926e-26;-0,0845569721919531;0,556;0,612;1,7289560943815e-21
"HLA-E";9,17145109661899e-26;0,0879439289315056;0,887;0,867;3,07592126878408e-21
"RAB5IF";1,02798239671034e-25;0,0699780984612365;0,588;0,534;3,44764736208715e-21
"ASB2";2,64858824088006e-25;-0,0575276652265216;0,147;0,192;8,88283524226354e-21
"SUSD3";3,49215133185362e-25;-0,0609480982702995;0,278;0,33;1,17119771367707e-20
"TESPA1";5,4452300107497e-25;0,0633323117170906;0,384;0,328;1,82622124100523e-20
"EVI5";7,51153787263905e-25;-0,0743169757857255;0,581;0,63;2,51921957172568e-20
"IL6ST";8,42212066109045e-25;0,059929820704682;0,295;0,24;2,82461082731651e-20
"MARS";9,29615870849602e-25;-0,0787660613748296;0,513;0,555;3,11774570765539e-20
"TOMM20";9,56190778655938e-25;-0,0617638544378283;0,896;0,911;3,20687263345628e-20
"TMEM208";9,94149630969668e-25;0,0696154539047266;0,738;0,699;3,33417903234607e-20
"EPRS";1,28832537389732e-24;-0,0628139153472878;0,862;0,883;4,32078563897682e-20
"CCNA2";1,52385812677282e-24;-0,0688209131973005;0,552;0,605;5,11071538557067e-20
"MCM6";1,53837845489412e-24;-0,0666970499634298;0,773;0,8;5,15941366202388e-20
"CIRBP";1,86292569574746e-24;0,0746908734159236;0,793;0,759;6,24788019839784e-20
"KIF3A";2,65368400494696e-24;0,0637694151457636;0,297;0,244;8,89992541579111e-20
"MYC";3,46338131369872e-24;0,0868063485712499;0,682;0,644;1,16154882498828e-19
"BRK1";3,6567977855973e-24;0,0676093807489645;0,782;0,748;1,22641684133362e-19
"IL32";4,24338463961326e-24;-0,0765027059944345;0,907;0,918;1,42314634043349e-19
"TPX2";5,00187965061484e-24;-0,0723262723027311;0,613;0,667;1,67753039722321e-19
"ZWINT";8,91742288985617e-24;0,0785621708448441;0,597;0,556;2,99072528879996e-19
"ATP5MD";9,23706542366103e-24;0,0504776159450719;0,921;0,918;3,09792700178744e-19
"COX7B";1,02509751092631e-23;0,0545590250316508;0,933;0,929;3,43797203214464e-19
"MRPL20";1,10557028289487e-23;0,0568347051578355;0,932;0,926;3,70786161477283e-19
"GFI1";1,77323017799886e-23;0,0544023548584897;0,238;0,189;5,94705937097259e-19
"OXLD1";2,87619518173693e-23;-0,0640430072918383;0,408;0,457;9,6461834005093e-19
"MYL12A";2,93852699451495e-23;0,0647498139648888;0,946;0,935;9,85523183420425e-19
"SCD";2,97395896086928e-23;-0,0683420689328153;0,241;0,289;9,9740635629634e-19
"ATP5PF";4,05676279053167e-23;0,0517565707573575;0,966;0,962;1,36055710468851e-18
"FYN";4,18399954875268e-23;0,0820331184840439;0,689;0,657;1,40322976866067e-18
"SUPT4H1";4,30093390489122e-23;0,0694015192631054;0,651;0,601;1,44244721302242e-18
"PARP14";4,67541254298525e-23;0,0757874802419665;0,444;0,389;1,56803985866639e-18
"ASAP1";6,45283431744486e-23;0,0538164068506597;0,347;0,291;2,16415157338466e-18
"ANKRD11";6,78824772378476e-23;-0,0716620018740068;0,769;0,793;2,27664252160293e-18
"SEPT9";8,51893132039212e-23;-0,0684439564812325;0,611;0,652;2,85707918623311e-18
"PCK2";8,59582459230723e-23;-0,0604775894063797;0,29;0,338;2,882867651768e-18
"FAM241A";8,77984869676171e-23;0,0643098519008137;0,444;0,388;2,94458565591994e-18
"HSPA4";9,5604429976856e-23;-0,0683261826609531;0,823;0,845;3,2063813725638e-18
"NPC2";2,38826282304229e-22;0,0624047566773026;0,215;0,17;8,00975585591923e-18
"ATF4";2,99826595989612e-22;-0,0693374372470295;0,761;0,786;1,00555843762996e-17
"MANF";3,85295614720424e-22;0,0731777263764228;0,846;0,827;1,29220443264936e-17
"FYB1";4,74228892326164e-22;-0,062931742184863;0,516;0,565;1,59046885908349e-17
"SESN3";7,68909063236086e-22;0,0560044058100247;0,116;0,082;2,57876721628118e-17
"BIRC5";8,81304999838007e-22;-0,0609468601322241;0,623;0,681;2,95572070845671e-17
"CD52";1,1153902754228e-21;0,0981806644086348;0,643;0,612;3,740795905713e-17
"SNRNP70";1,23145616371603e-21;-0,0591485972768366;0,821;0,844;4,13005768187082e-17
"ATP6V1G1";2,2831074800521e-21;0,0754548589763181;0,594;0,547;7,65708586659874e-17
"C12orf57";2,6201080216841e-21;0,0745866709481842;0,802;0,773;8,78731828312413e-17
"SELENOS";2,62621718319625e-21;0,0646990946337319;0,508;0,456;8,80780718900357e-17
"ZBED2";2,88474879113691e-21;-0,0543075684543046;0,685;0,742;9,67487049571497e-17
"U2SURP";3,24986645179565e-21;-0,0589826519688961;0,845;0,863;1,08994021060322e-16
"ATP5PO";3,90403306723095e-21;0,0689265104040808;0,83;0,8;1,30933461008792e-16
"BAX";4,84917563930184e-21;0,0740189883514916;0,739;0,699;1,62631652590905e-16
"YWHAQ";7,22592618016762e-21;0,0609766271709653;0,887;0,88;2,42343112230462e-16
"SMDT1";7,46347786816413e-21;0,0731800836220047;0,588;0,537;2,50310120742488e-16
"AURKB";7,70562878821985e-21;-0,0635689887020814;0,472;0,522;2,58431378299317e-16
"TCOF1";7,97717797315332e-21;-0,0717089451601312;0,673;0,706;2,67538594863616e-16
"BLOC1S1";8,96581397124608e-21;0,0670501746297043;0,637;0,589;3,00695468967651e-16
"TYMP";9,83184083063361e-21;0,0805331302460002;0,272;0,226;3,2974027777779e-16
"HMGA1";9,96339820502985e-21;-0,0553480426392654;0,936;0,955;3,34152449000291e-16
"GRK2";1,03441133093374e-20;-0,0713514000515068;0,563;0,595;3,46920872168556e-16
"CCNB1";1,10511668545697e-20;-0,0666155308339096;0,582;0,635;3,70634033968559e-16
"SARS";1,34031375436099e-20;-0,0668288980396059;0,63;0,661;4,49514426937588e-16
"SLC7A5";1,65335883886907e-20;-0,0679417435950466;0,641;0,675;5,54503487379909e-16
"ECHS1";2,05603444982975e-20;0,0644100760244775;0,689;0,65;6,89552833783902e-16
"MYL6";2,30730332465972e-20;0,0527323829211843;0,994;0,994;7,73823389024376e-16
"TRIR";2,54468192957417e-20;0,0566049428932436;0,883;0,863;8,53435425540584e-16
"IFITM1";2,61554472719972e-20;-0,0552973818874354;0,194;0,234;8,77201390608244e-16
"ORMDL1";2,92178466243515e-20;0,0636640287894649;0,622;0,575;9,79908140087499e-16
"SEC11C";2,94803829870135e-20;0,0681231135480768;0,757;0,719;9,88713084618458e-16
"ACTR2";4,14205731174769e-20;-0,0605976820144063;0,845;0,856;1,38916318121394e-15
"PIM1";4,77323510378195e-20;-0,0661016193943024;0,421;0,466;1,60084758910639e-15
"ZFP36L1";4,95994655081026e-20;0,0776129988855271;0,484;0,438;1,66346687421074e-15
"EEA1";5,11334368340522e-20;0,0592278473214691;0,455;0,4;1,71491320454044e-15
"OSTC";5,19058255284577e-20;0,0622631001342691;0,768;0,728;1,74081757657341e-15
"CDKN3";5,37177945434689e-20;-0,0601139486033434;0,589;0,632;1,80158739339886e-15
"JTB";7,83348016708536e-20;0,054191903720314;0,914;0,903;2,62719257843709e-15
"MRPS18B";9,0658860623319e-20;-0,0591558896949459;0,635;0,667;3,04051686758487e-15
"CDCA7";9,72780541865842e-20;-0,0698109900627222;0,415;0,456;3,26251138130966e-15
"CEP55";1,06378674078811e-19;-0,0618698564878684;0,481;0,531;3,56772797125516e-15
"SYNE2";1,1506930268684e-19;0,0628299502203943;0,233;0,19;3,85919427351125e-15
"CNPY2";1,35881713855452e-19;0,0609121247562818;0,645;0,598;4,55720091928416e-15
"RRP7A";1,47172167335062e-19;-0,0636283236751218;0,752;0,778;4,9358601480833e-15
"ARF4";1,8365441537072e-19;0,059456516525202;0,543;0,495;6,15940178270322e-15
"VARS";1,97236056839532e-19;-0,0669352334063181;0,534;0,566;6,61490287428423e-15
"SPCS1";2,0465122347368e-19;0,0530660515880428;0,906;0,884;6,86359273286029e-15
"KLF13";2,15335184846352e-19;-0,0633014745725864;0,529;0,565;7,22191142937694e-15
"TMCO1";2,28225420331222e-19;0,0608415759736161;0,639;0,601;7,65422414706853e-15
"AURKA";2,37883917616822e-19;-0,0738968764254145;0,409;0,455;7,97815082903296e-15
"TSHZ2";4,48899700846984e-19;-0,061233631132272;0,253;0,3;1,50551981670061e-14
"RBM39";5,36037683050302e-19;0,0552908609623726;0,882;0,874;1,7977631814141e-14
"PPP1CA";5,66509884656669e-19;0,0556038138349735;0,91;0,893;1,89996085116153e-14
"ALG5";5,91839134488438e-19;0,0578113890012093;0,468;0,419;1,98491008924732e-14
"KLF6";7,34250935773e-19;0,0669230695489466;0,328;0,281;2,46253078839549e-14
"GARS";7,93819700639464e-19;-0,0646101291422958;0,785;0,807;2,66231251200464e-14
"MORF4L2";9,1417946444998e-19;-0,0642762954565501;0,556;0,594;3,06597508787234e-14
"PEPD";1,11335793344417e-18;0,0501369799300911;0,266;0,221;3,73397983718505e-14
"SELENOT";1,16058953512541e-18;0,0567149336870835;0,578;0,529;3,89238518290362e-14
"PSMD12";1,73993735512501e-18;-0,054002584668563;0,812;0,836;5,83540190161825e-14
"SPCS2";2,0040265713994e-18;0,0567445419614214;0,793;0,774;6,7211043151593e-14
"ANKZF1";2,26254231889495e-18;-0,0532210170352523;0,257;0,299;7,5881144291099e-14
"BTG3";2,38586976117676e-18;0,058496613138377;0,461;0,414;8,00173000503462e-14
"CCT4";2,73829885512398e-18;-0,0511060170909856;0,937;0,952;9,1837067003148e-14
"DNPH1";3,29739673230569e-18;0,0682493580641418;0,782;0,75;1,10588091608068e-13
"PRRC2A";4,63754716229672e-18;-0,060773478017059;0,499;0,54;1,55534056729107e-13
"SIVA1";7,38816197063872e-18;0,0564882189378302;0,897;0,891;2,47784176171281e-13
"ITM2B";7,62736728292406e-18;0,0654311527805685;0,511;0,464;2,55806643934707e-13
"PSMB2";7,90425594670388e-18;0,0554055353540175;0,866;0,839;2,65092935940555e-13
"DHFR";9,77762883041935e-18;-0,0533344958560769;0,744;0,783;3,27922115714604e-13
"RRP1B";1,10013871469586e-17;-0,0580235419339825;0,776;0,802;3,68964522134699e-13
"TNFRSF14";1,27317025709658e-17;0,0576104628784608;0,358;0,31;4,2699584082505e-13
"PLK1";1,30368861373583e-17;-0,0593629387002538;0,303;0,348;4,37231087274721e-13
"STMP1";1,38966087963521e-17;0,0520917546810243;0,547;0,501;4,66064465812056e-13
"IARS2";1,7426346596883e-17;-0,0627941704556773;0,609;0,646;5,84444812166261e-13
"TRNAU1AP";1,78444407663632e-17;0,052408816190377;0,39;0,342;5,98466854422290e-13
"PTGIR";2,41967563750868e-17;0,0509176037633356;0,223;0,182;8,11510815307661e-13
"CALM3";2,43301242912117e-17;0,051286882040706;0,919;0,916;8,1598370847866e-13
"DDX24";2,68752370303692e-17;-0,0563967388782056;0,92;0,932;9,01341699524521e-13
"CDK4";2,71524522207709e-17;0,0566423164690346;0,798;0,772;9,10638942580214e-13
"PHF5A";2,94739812518673e-17;0,0545156566349441;0,585;0,54;9,88498383225127e-13
"HRAS";3,59830509898644e-17;0,0565149419503412;0,562;0,514;1,20679956409807e-12
"SLIRP";4,01663656318552e-17;-0,0591946522443023;0,908;0,929;1,34709957056116e-12
"HIST1H4C";4,31826049994775e-17;-0,0773484258304076;0,935;0,948;1,44825820647247e-12
"TEX30";4,5026174578643e-17;0,0585401089435538;0,489;0,443;1,51008784301853e-12
"POLR3G";4,50341052060089e-17;-0,0648180335174267;0,275;0,314;1,51035382039913e-12
"EDF1";5,18555562914422e-17;0,0524306223441613;0,951;0,941;1,73913164690239e-12
"PLCG2";5,19251240429964e-17;-0,117908646999583;0,563;0,59;1,74146481015401e-12
"PNN";5,56189441707321e-17;-0,0569536690641304;0,9;0,915;1,86534814959801e-12
"TRIM28";6,41575431064707e-17;-0,0617602020177795;0,744;0,764;2,15171568070482e-12
"TMEM256";9,48132470478442e-17;0,0526136286813366;0,396;0,347;3,1798466794906e-12
"LONP1";9,6889429481982e-17;-0,0632157914614181;0,558;0,588;3,24947768596671e-12
"ISG20";1,03978523363112e-16;0,0999857329836715;0,327;0,288;3,48723171655206e-12
"RPA2";1,0524436661597e-16;0,0539252626393185;0,588;0,546;3,5296855675664e-12
"TMEM165";1,17194208391045e-16;0,0504585361427;0,535;0,488;3,93045936101888e-12
"TAP2";1,19475657709997e-16;0,0549591442078065;0,453;0,405;4,00697460827787e-12
"CD320";1,50306163732833e-16;0,0617649069483915;0,682;0,646;5,04096811927174e-12
"FAM50A";1,56248963302319e-16;0,0576888157393578;0,483;0,435;5,24027773123318e-12
"GADD45B";2,10203793216383e-16;0,081313049711865;0,265;0,226;7,04981481689106e-12
"HSD17B10";2,29391443242646e-16;0,0573455213192822;0,63;0,591;7,69333022347186e-12
"MTHFD2";3,20119723190641e-16;-0,05592357113371;0,827;0,841;1,07361752763677e-11
"CRELD2";3,30016333022568e-16;0,0567106133874398;0,437;0,391;1,10680877769109e-11
"ETHE1";4,37090234591979e-16;0,0621263707320735;0,493;0,447;1,46591322877458e-11
"UBC";4,6152994288186e-16;0,0623097294382224;0,933;0,921;1,54787912243718e-11
"EIF1B";5,64943888057304e-16;0,0613111422853753;0,574;0,531;1,89470881176659e-11
"GBP4";6,8569845047916e-16;0,0595423199859792;0,227;0,189;2,29969546321701e-11
"MIR4435-2HG";7,44448381419778e-16;0,0603730918070622;0,339;0,297;2,49673098160565e-11
"AIF1";8,39284665490098e-16;-0,0691417476493311;0,544;0,577;2,81479291112069e-11
"ORAI1";8,48198076968423e-16;0,0503406288889335;0,395;0,349;2,8446867105367e-11
"C19orf70";8,97515264019283e-16;0,0630432126714933;0,831;0,816;3,01008669246787e-11
"TNFAIP8";9,99840456412163e-16;0,0634354873050098;0,764;0,746;3,35326492271511e-11
"SNHG15";1,23782214272169e-15;-0,0608448894037711;0,704;0,728;4,15140790226001e-11
"P4HB";1,58420892480421e-15;0,0577556111434476;0,752;0,723;5,31311989200837e-11
"REEP5";1,63182938159478e-15;0,0561950946312064;0,71;0,67;5,47282937999257e-11
"GABPB1-AS1";1,81661095380827e-15;-0,0639654943486008;0,487;0,523;6,09254981688218e-11
"AUP1";1,94854839732713e-15;0,0593147417608164;0,571;0,532;6,53504161495573e-11
"IFRD2";2,58719029452396e-15;0,0540979866483805;0,653;0,613;8,67691880977446e-11
"IAH1";3,05606828023887e-15;0,0546350779435683;0,567;0,526;1,02494417982651e-10
"RAB7A";3,0809031956583e-15;0,0570631108198998;0,72;0,691;1,03327331375988e-10
"DUSP2";3,15008697122822e-15;0,0910315078258761;0,696;0,663;1,05647616841052e-10
"NDFIP2";3,30729361002999e-15;0,0583405262328283;0,606;0,569;1,10920013093186e-10
"HLA-F";3,58716787798877e-15;0,0613436369273318;0,377;0,335;1,20306436291988e-10
"TESC";3,96811012904123e-15;0,0637578666837563;0,39;0,348;1,33082477507785e-10
"PTPN11";4,85390110930505e-15;-0,0623793542010206;0,63;0,656;1,62790135403873e-10
"GLO1";5,3399220361855e-15;-0,0642773594941788;0,68;0,708;1,79090305249589e-10
"CDC20";5,8391939363247e-15;-0,0590165736085457;0,526;0,566;1,95834886236458e-10
"LAMTOR1";6,43546704957107e-15;0,052905589060207;0,702;0,665;2,15832693908515e-10
"SNHG25";6,96431840486698e-15;-0,0651104692167587;0,412;0,445;2,33569310662429e-10
"PPP6R1";8,11843289561031e-15;-0,0534451545665322;0,704;0,73;2,72276002452979e-10
"BACH2";8,85618435089075e-15;0,0578944016077144;0,4;0,357;2,97018710760174e-10
"ID2";1,01797584070223e-14;0,0840339308509427;0,519;0,478;3,41408737454713e-10
"TPRG1";1,15749526948198e-14;-0,0654169769592156;0,169;0,204;3,88200763478868e-10
"TXNRD1";1,26232632672957e-14;-0,0557942034546822;0,734;0,756;4,23359003458562e-10
"ARPC1B";1,54218168202785e-14;0,0570091646568345;0,806;0,777;5,17216892518501e-10
"TOMM5";2,15242389127482e-14;-0,0585799509925808;0,655;0,682;7,21879924655749e-10
"PDIA3";2,18125184551105e-14;0,0529827878127007;0,828;0,814;7,31548243947495e-10
"AARS";2,54435042702495e-14;-0,052426743298124;0,393;0,43;8,53324246215627e-10
"GALM";2,57299865285948e-14;-0,0502404142780492;0,328;0,369;8,62932288196012e-10
"BAG1";3,7282864809128e-14;0,0561861113146918;0,697;0,672;1,25039271996854e-09
"STK39";4,03082695518543e-14;-0,0532633803132802;0,288;0,322;1,35185874423009e-09
"CRIP1";5,91824759740748e-14;-0,0574948313895317;0,212;0,246;1,98486187921852e-09
"ENY2";6,48658423854616e-14;0,0504395071728394;0,833;0,815;2,17547062192361e-09
"NTMT1";7,39606837510786e-14;-0,0501362917301527;0,716;0,739;2,48049341164367e-09
"FAM207A";7,61228659335536e-14;-0,0500183220586238;0,75;0,771;2,55300867767952e-09
"ITPR2";7,62260187857636e-14;0,0524110401881485;0,365;0,325;2,55646821803694e-09
"KIF2A";1,03785579522423e-13;0,0593036610848432;0,824;0,808;3,48076076602301e-09
"RRS1";1,03975488531683e-13;0,060711837528201;0,562;0,525;3,4871299343756e-09
"HDAC1";1,30511358555683e-13;0,0546982691974671;0,692;0,665;4,3770899432405e-09
"RUVBL2";1,43581064800668e-13;-0,0529643682084588;0,527;0,557;4,81542175128479e-09
"LPIN2";1,44451757989661e-13;0,0701553985069551;0,489;0,455;4,84462305945726e-09
"TARS";1,4626532792391e-13;-0,0534157302893301;0,741;0,766;4,9054465679121e-09
"TBCB";1,73716772513862e-13;0,050230494409753;0,559;0,515;5,82611311656991e-09
"URI1";2,33734614451785e-13;-0,0621746095859129;0,546;0,574;7,83899149948397e-09
"COPE";2,35818981073962e-13;0,0526061987980959;0,829;0,801;7,90889698725852e-09
"HK1";2,47859907895472e-13;-0,0539123119277048;0,625;0,646;8,31272559099833e-09
"BCL2A1";3,04972650293735e-13;0,0616097388933127;0,571;0,531;1,02281727455513e-08
"FXR1";3,59067544646418e-13;-0,0541361367787818;0,658;0,684;1,20424073123516e-08
"KDELR2";3,78720761309298e-13;0,0511699760704983;0,686;0,658;1,27015368927912e-08
"TRAF3IP3";4,00101153626104e-13;0,0519762454126956;0,572;0,534;1,34185924903123e-08
"LYST";4,04008847739839e-13;0,059242857788654;0,459;0,42;1,35496487354987e-08
"ARPC4";4,04161892488838e-13;0,0509916432006698;0,806;0,786;1,35547815502907e-08
"RABAC1";4,28590606172055e-13;0,0761813148769366;0,613;0,581;1,43740717497984e-08
"DDT";4,9108752145455e-13;0,0559020362458478;0,744;0,715;1,64700932945427e-08
"PPID";7,10729677990719e-13;-0,0524058669744966;0,658;0,675;2,38364519404527e-08
"CD40LG";9,29877681936713e-13;0,0785299555793876;0,437;0,401;3,11862376967935e-08
"PTPN7";9,57885216697003e-13;0,0514250234481117;0,767;0,752;3,21255543975841e-08
"IFITM2";1,10790002044911e-12;0,0690177884337446;0,854;0,843;3,71567508858222e-08
"CD247";1,20190737122022e-12;0,0641147272009074;0,466;0,43;4,03095694159837e-08
"RAB8B";1,31689703403852e-12;0,0547772560778715;0,476;0,441;4,41660927275839e-08
"LITAF";1,39516760980247e-12;0,0547593886276131;0,487;0,45;4,67911312975551e-08
"TOP2A";1,50505069751829e-12;-0,0575849372819601;0,602;0,642;5,04763902933685e-08
"TRBC2";1,65611697816366e-12;0,0831342921421405;0,716;0,695;5,55428512136529e-08
"CYLD";1,84304871624008e-12;0,051792365957306;0,451;0,412;6,18121678452598e-08
"MBNL1";1,98256708183193e-12;-0,0509704121029166;0,757;0,776;6,64913347904791e-08
"DFFA";2,12120730950975e-12;-0,0547244812413552;0,575;0,599;7,11410507463381e-08
"CD2BP2";2,9057009382793e-12;0,0523969658754854;0,534;0,494;9,74513980680113e-08
"EVL";3,03374054733835e-12;-0,054665872399302;0,561;0,588;1,01745590476634e-07
"TNFSF10";3,17601238338247e-12;0,0648894751867681;0,339;0,302;1,06517103313881e-07
"SEPHS1";3,46709951257854e-12;-0,0549786026744501;0,381;0,411;1,16279583452859e-07
"WDR83OS";3,91726027560487e-12;0,0521449103868612;0,752;0,721;1,31377075123236e-07
"POP5";4,1483573906534e-12;0,0521440070249695;0,56;0,524;1,39127610167734e-07
"LMAN2";4,6633797341363e-12;0,0507823854483469;0,663;0,624;1,56400429523463e-07
"ENSA";7,10124798702447e-12;0,0530097655955114;0,723;0,695;2,38161654988827e-07
"FAM111B";8,32335814834036e-12;0,0518013968642789;0,265;0,23;2,79148785579039e-07
"RAB8A";1,04873726394456e-11;0,0511048653141086;0,701;0,673;3,51725503581727e-07
"XIST";1,12193739676976e-11;0,0793976158682669;0,238;0,207;3,76275364128643e-07
"MACF1";1,17012167413296e-11;-0,0562291327553597;0,575;0,599;3,92435407070712e-07
"ATP5PD";1,80042344724284e-11;0,0525926969630843;0,78;0,758;6,03826015736302e-07
"MYDGF";2,57050924946734e-11;0,050591181382035;0,782;0,762;8,62097392086357e-07
"TRAPPC1";2,79428406019708e-11;0,0512839096879468;0,746;0,72;9,37146988108897e-07
"STK4";3,03680822842725e-11;0,0509681589621861;0,741;0,719;1,01848474364993e-06
"SLC2A3";3,04468649290292e-11;-0,05034007136038;0,267;0,299;1,02112695598978e-06
"NSD2";5,16900018591564e-11;-0,0510210110331153;0,511;0,539;1,73357928235239e-06
"CSE1L";7,07726669162735e-11;-0,0525577204943932;0,563;0,588;2,37357370303798e-06
"COMMD6";1,34490038511823e-10;0,050708963870448;0,756;0,741;4,51052691160953e-06
"IER2";7,5307611027845e-10;0,0515204951392626;0,619;0,586;2,52566665865186e-05
"UBE2M";7,83662761153035e-10;-0,0632476508778723;0,744;0,751;2,62824816835505e-05
"CDK2AP2";2,08418420999336e-09;0,0508657689938805;0,633;0,606;6,98993700347573e-05
"TNF";2,38292806930377e-09;0,0670393585355267;0,55;0,518;7,99186415883097e-05
"FUNDC2";2,43612690594064e-09;0,0500643059374772;0,554;0,524;8,17028241714372e-05
"TNFRSF4";6,64717469357182e-09;0,050462428770387;0,735;0,72;0,000222932944873012
"MTRNR2L8";7,53801243404268e-09;-0,0511283004686016;0,453;0,481;0,000252809861012923
"NKG7";2,37095050459122e-08;0,0940790737501191;0,612;0,593;0,000795169380229803
"CCND2";1,18044251009821e-07;0,0650700439242784;0,914;0,909;0,00395896809036737
"CCR7";1,35351704660666e-07;0,0646061731214439;0,691;0,663;0,00453942547090942
"S100A10";3,99895635387463e-07;0,0530288665627709;0,715;0,689;0,0134116998196247
"CCL3";5,65460167509001e-07;0,0906661226728642;0,44;0,409;0,0189644030979169
"VIM";6,22481037886754e-07;0,100256711492229;0,61;0,595;0,020876769048646
"IL17F";7,39152845869888e-07;-0,0994210552690337;0,086;0,103;0,0247897081447843
"MT1E";1,93422645748617e-06;0,0707596536834187;0,447;0,423;0,0648700869311712
"CD27";4,56638276645882e-06;0,0595716498762265;0,547;0,531;0,153147345221496
"MIR155HG";0,0284408385799276;0,0824659117202722;0,779;0,772;1
