"";"p_val";"avg_logFC";"pct.1";"pct.2";"p_val_adj"
"MT-ND4";5,210255413747e-57;-0,214195976105043;0,997;0,995;1,74741546066247e-52
"MT-ATP6";3,65371904863757e-35;-0,1583847834733;0,997;0,996;1,22538429453207e-30
"FTL";1,26996059831731e-33;0,240086124338005;1;1;4,2591938546366e-29
"MT-ND3";5,92819208599156e-33;-0,191019213507381;0,989;0,989;1,98819706179985e-28
"PFN1";4,67358776731107e-29;0,114175467029092;0,999;0,999;1,56742786540079e-24
"B2M";5,714323869045e-28;0,158050226249364;0,999;1;1,91646993920031e-23
"MT-ND4L";1,87203566191429e-27;-0,210604606085978;0,635;0,756;6,27843320292816e-23
"HLA-B";1,42667062924216e-26;0,168921124637724;0,992;0,989;4,78476795635234e-22
"MT-CO3";2,89672744672573e-26;-0,126082905267345;0,997;0,995;9,71504451082874e-22
"TXN";2,41409069207931e-25;0,187972243796803;0,995;0,998;8,09637736309558e-21
"LTB";1,40187836894856e-24;0,297095239499248;0,813;0,744;4,70161967377968e-20
"MT-ND2";2,32802626936912e-22;-0,174673185913965;0,981;0,99;7,80773450221015e-18
"MT-CYB";2,80087741833184e-21;-0,118167461872542;0,995;0,994;9,39358268560133e-17
"SELENOW";1,00714062166591e-20;-0,147945810452888;0,812;0,881;3,37774821694311e-16
"PPIA";1,08697372333161e-20;0,0940711607518034;0,997;0,999;3,64549247330957e-16
"ATP6V0E1";2,03244224072788e-20;0,168705767004188;0,85;0,8;6,81640478695315e-16
"CALM1";2,16622237385506e-20;0,143839458877799;0,994;0,994;7,26507659743511e-16
"SUB1";1,66926605238609e-18;0,104315758031112;0,981;0,985;5,59838448649247e-14
"MT-ND5";2,48945122960859e-18;-0,17119125066293;0,957;0,977;8,34912153386129e-14
"CCND2";7,12563113022057e-18;0,201251716090314;0,904;0,872;2,38979416845338e-13
"RPS2";1,66766216029329e-17;-0,0546608212915523;1;1;5,59300535319164e-13
"SOCS1";8,39065510401773e-17;0,189435112245227;0,753;0,7;2,81405790878547e-12
"RPLP0";3,64487861425881e-16;0,0580575034860962;1;1;1,22241938965012e-11
"MT-CO2";1,9476278777266e-15;-0,0890160779799496;0,999;0,996;6,53195437631946e-11
"LMNA";1,9695906319158e-15;-0,206206245522196;0,514;0,617;6,60561306131921e-11
"RPL12";3,63565562092233e-15;-0,0573380479569696;0,999;1;1,21932618214493e-10
"LTA";1,51574844533285e-14;0,207546166490017;0,943;0,934;5,08351713595731e-10
"CXCR4";1,86547412060543e-14;0,215479632908067;0,376;0,282;6,25642710568648e-10
"CSTB";5,41031483833935e-14;0,159286337196208;0,819;0,787;1,81451139048225e-09
"LINC01943";9,21661543381437e-14;0,208340174044058;0,553;0,47;3,09106848419266e-09
"RPL36";1,27734740192908e-13;-0,0703562971432916;1;1;4,28396771658973e-09
"RPL29";3,84300801227419e-13;-0,05103003879174;1;1;1,28886802715652e-08
"TPT1";3,9270827642652e-13;0,0693324600953571;1;1;1,31706501747926e-08
"MAF";8,23530025057455e-13;0,202807021776747;0,586;0,503;2,76195499803769e-08
"RPL22L1";9,09961361956631e-13;-0,0999452201844226;0,948;0,973;3,05182841573015e-08
"PSMA7";1,01801914728755e-12;0,0799443047136865;0,993;0,992;3,41423261617299e-08
"HSPD1";1,0933708786631e-12;-0,0787394373179358;0,99;0,991;3,6669472528603e-08
"FTH1";2,08282331700694e-12;0,114020427336475;0,992;0,992;6,98537284057787e-08
"HMGA1";2,08549960395868e-12;-0,115032058757722;0,864;0,908;6,99434857175663e-08
"SERF2";3,62033918733929e-12;0,0844144146659653;0,993;0,993;1,21418935664985e-07
"HINT1";3,65199377640685e-12;0,0796815738264396;0,991;0,993;1,22480567273133e-07
"SLC25A5";3,91407725749318e-12;0,0904383322387075;0,963;0,966;1,31270323061806e-07
"MT-ND1";5,3861538369106e-12;-0,117736444061483;0,988;0,994;1,80640827382308e-07
"RPSA";6,37581149871884e-12;-0,0519316181863521;0,999;1;2,13831966044032e-07
"MIF";8,40052171784018e-12;-0,130490531099739;0,917;0,943;2,81736697372924e-07
"EPRS";1,11937978635987e-11;-0,107937014523972;0,807;0,858;3,75417592749373e-07
"SNHG25";1,30443231353395e-11;-0,101354138271029;0,356;0,452;4,37480509313018e-07
"RPL10";1,51350368796268e-11;0,0550289065812102;1;1;5,07598866868923e-07
"EIF1";2,25491640659698e-11;0,0868843867107727;0,998;0,999;7,56253864444495e-07
"EEF2";4,00012800213348e-11;-0,0808734790511347;0,982;0,985;1,34156292935553e-06
"HNRNPC";4,03755694408313e-11;-0,0767841739262782;0,963;0,977;1,3541158479066e-06
"PSME1";4,23197928815319e-11;0,117567843763685;0,913;0,904;1,41932121366082e-06
"CCL4";5,03578621800715e-11;0,364566672593859;0,461;0,377;1,68890198179524e-06
"CFL1";6,75160520731416e-11;0,0713254548992204;0,993;0,992;2,26435335442902e-06
"APOBEC3C";6,82229341815094e-11;-0,128095009477231;0,341;0,427;2,28806076657946e-06
"EIF4EBP1";6,97386912768091e-11;-0,116155615048434;0,605;0,681;2,33889622804162e-06
"H3F3A";8,3233307271699e-11;0,0833982849417274;0,986;0,985;2,79147865927824e-06
"ATP5MG";8,83495278862591e-11;0,0865373170410373;0,977;0,978;2,96306646624936e-06
"NPC2";8,89943545113734e-11;0,147034298266803;0,281;0,203;2,98469266160244e-06
"SNHG8";9,90412484644559e-11;-0,101439869103148;0,778;0,826;3,32164539100092e-06
"MYO1G";1,24489504763322e-10;-0,109467930558566;0,599;0,678;4,1751290107523e-06
"RPS10";1,42401815749019e-10;0,097894717911184;0,948;0,943;4,7758720965906e-06
"PNN";1,51313938321677e-10;-0,116755722117113;0,83;0,885;5,0747668634324e-06
"CENPV";2,26141141912899e-10;-0,11544569604118;0,465;0,546;7,58432161747482e-06
"MALAT1";2,71740394796988e-10;0,157161074431871;0,998;0,998;9,11362936070137e-06
"MT-ND6";3,30626863012831e-10;-0,0782570037444361;0,617;0,723;1,10885637317243e-05
"MT-ATP8";3,70218048607821e-10;-0,102180332414833;0,341;0,431;1,24163729142091e-05
"RPL37A";3,87271932481816e-10;-0,0611805630020892;0,999;1;1,29883260715751e-05
"BATF3";4,06615252536141e-10;-0,149439499766859;0,603;0,684;1,36370623395571e-05
"COX6A1";6,19057740073466e-10;0,087728354549824;0,944;0,947;2,07619584865839e-05
"NDUFA4";6,6796227021269e-10;0,0967762280101225;0,984;0,979;2,24021186183932e-05
"MT-CO1";7,52827519260411e-10;-0,0650409296874335;0,998;0,998;2,52483293409557e-05
"LGALS3";9,87236652113822e-10;0,172492613596479;0,229;0,162;3,31099428385934e-05
"COX6C";1,09344349109899e-09;0,092642706597275;0,945;0,949;3,66719078044778e-05
"MYL6";1,18990109185867e-09;0,0769994820416784;0,996;0,992;3,9906902818756e-05
"UXT";1,20838767020293e-09;0,111742304397508;0,801;0,778;4,05269056832658e-05
"TUBA1B";1,37798978747773e-09;0,0647265114719069;0,993;0,993;4,6215021492428e-05
"RPL38";1,6538141546946e-09;-0,0660579259461112;0,997;0,998;5,54656191201475e-05
"UBE2S";2,03933325078668e-09;-0,0990324498273318;0,888;0,925;6,83951585648838e-05
"PSAT1";2,20059160058548e-09;-0,108516883862487;0,374;0,461;7,38034411004359e-05
"SEC61B";2,49253346908633e-09;0,0865938918209532;0,956;0,946;8,35945874862175e-05
"MYL12B";4,12327899106209e-09;0,0950711922852687;0,947;0,949;0,00013828653080224
"SPTBN1";4,24546489069045e-09;-0,0869411537080362;0,376;0,46;0,000142384401503976
"SPINT2";5,12100743047427e-09;0,109128721216368;0,341;0,266;0,000171748347203246
"SQLE";6,02315939126404e-09;-0,0795434352678377;0,344;0,428;0,000202004719664213
"CAVIN3";6,30096822823074e-09;-0,0985596686209872;0,113;0,174;0,000211321872438403
"RPL35";6,73597630701724e-09;-0,0539228856129559;1;1;0,000225911173384744
"AC017002.3";7,10024527035484e-09;0,126955469568809;0,22;0,155;0,000238128025877161
"CTSC";7,55628441271756e-09;0,166873866902011;0,626;0,573;0,000253422666633721
"MTRNR2L8";7,60642553571193e-09;-0,0962993645066273;0,394;0,487;0,000255104299616707
"RPS26";8,17396394933582e-09;0,0740568668994337;0,998;0,996;0,000274138402932825
"PTTG1";9,24074038572502e-09;-0,0940790815616166;0,689;0,748;0,000309915951056446
"GZMB";1,00120785851414e-08;-0,102166252745559;0,849;0,906;0,000335785091588473
"COX7A2";1,09474766236644e-08;0,0871676838972055;0,961;0,962;0,000367156471004456
"HSPA4";1,59159931306501e-08;-0,0966551088836491;0,773;0,818;0,000533790577615743
"MRPS26";2,11900620872746e-08;-0,0880058473415426;0,762;0,813;0,000710672302283017
"SNHG19";2,14556408255483e-08;-0,108013712417542;0,239;0,309;0,00071957928200724
"UBE2M";2,71241200037666e-08;-0,106439399740161;0,763;0,809;0,000909688736686326
"PSME2";2,72836144810507e-08;0,0874165516483014;0,938;0,942;0,00091503786246548
"ATP5F1E";2,80280185218377e-08;0,0917285832792691;0,991;0,994;0,000940003685185394
"C9orf16";2,97070292946881e-08;0,0973201687620784;0,852;0,841;0,000996314348485249
"MAL";2,99810197169986e-08;0,0934635563854185;0,19;0,131;0,0010055034392687
"CENPF";3,28245940540215e-08;-0,1005092443331;0,587;0,669;0,00110087123538377
"LDLR";4,29385317096541e-08;-0,053852063317559;0,093;0,147;0,00144007247647838
"CCNB1";4,57238597958251e-08;-0,0998567303107755;0,542;0,618;0,00153348680983238
"PTPN6";5,04863699072685e-08;-0,0783188129486657;0,431;0,505;0,00169321187394997
"LGALS1";5,16960068114725e-08;-0,260778681423786;0,279;0,352;0,00173378067644316
"SNX9";5,24417219504762e-08;0,119244175660401;0,388;0,318;0,00175879047077507
"TYMP";5,24900738574159e-08;0,142449517574238;0,462;0,392;0,00176041209703001
"TCEA1";5,65691859606326e-08;-0,0883376335719499;0,802;0,853;0,0018972173587477
"DUSP2";5,90396066811597e-08;0,160354207080398;0,717;0,671;0,00198007032887273
"CALM2";6,91966978497333e-08;0,0906510965350436;0,922;0,91;0,00232071885248436
"ASB2";7,1842977704429e-08;-0,0877839113489797;0,304;0,375;0,00240946978625114
"ATP6V0B";7,29076757709859e-08;0,104282299418895;0,841;0,825;0,00244517763000733
"C12orf75";7,57116375856485e-08;-0,0766993210878446;0,302;0,379;0,00253921690134748
"HOPX";7,87016302978501e-08;-0,0840873768223673;0,326;0,406;0,0026394952769293
"U2SURP";7,91209259350217e-08;-0,0875176479131468;0,801;0,838;0,00265355761400876
"TALDO1";8,04572959326709e-08;0,0995534790361265;0,855;0,842;0,00269837679098992
"GPX4";8,62638308823785e-08;0,0979840815260486;0,902;0,893;0,00289311636013321
"KDM1A";8,90533384668403e-08;-0,0785889114294896;0,397;0,472;0,00298667086550089
"NAA38";1,12956980075468e-07;-0,0839203969881533;0,706;0,766;0,00378835119777105
"HMGB2";1,15964873368617e-07;-0,0769403014334813;0,888;0,942;0,00388922992303667
"ANP32E";1,25866735520686e-07;-0,0807849695352589;0,872;0,906;0,00422131857589278
"ACTB";1,31838611665175e-07;0,0504303505400605;1;1;0,00442160335802665
"GNL3";1,71148121369284e-07;-0,0859761136509298;0,812;0,854;0,00573996569448305
"NAMPT";1,8439789849213e-07;-0,127686742817206;0,867;0,897;0,00618433671962904
"ACTG1";1,86141538746538e-07;0,0622799418282858;0,999;0,998;0,00624281492648139
"CORO1B";2,10381594380094e-07;-0,0863025472479546;0,879;0,921;0,0070557779123196
"RBM28";2,56057098977659e-07;-0,0867595808199404;0,532;0,598;0,00858764298551273
"TMPO";3,02152828265371e-07;-0,0770005481046507;0,837;0,886;0,010133601554364
"TRIM28";3,09848076662521e-07;-0,089904262581014;0,676;0,728;0,0103916847951076
"TPX2";3,42325230819756e-07;-0,0956540574423299;0,575;0,645;0,011480903591233
"CD63";4,48012560327128e-07;0,114279507078471;0,787;0,762;0,0150254452482512
"CSNK2B";4,66239699916394e-07;0,111106562551526;0,729;0,712;0,015636747055796
"COPE";5,0435188335305e-07;0,0986028559921521;0,822;0,788;0,0169149534638946
"DDIT4";5,56756373697435e-07;-0,0922060336608834;0,78;0,834;0,0186724952610646
"STK26";5,71989380009188e-07;-0,0765723184354258;0,374;0,445;0,0191833798267482
"NCL";5,86773708189947e-07;-0,0689244898766335;0,988;0,994;0,0196792166252745
"CDC20";6,22413674993432e-07;-0,0853748415063619;0,476;0,546;0,0208745098319297
"TMSB10";6,73352603715065e-07;0,0877225294362494;0,998;1;0,0225828996233959
"PPP5C";7,81993776084817e-07;-0,0615419585593638;0,414;0,492;0,0262265072623326
"PPP6R1";7,92011882574028e-07;-0,0744066704770356;0,638;0,692;0,0265624945177678
"ARPC4";1,17466652233372e-06;0,0923615857682354;0,797;0,771;0,0393959658260284
"HNRNPU";1,28676698212313e-06;-0,0655073610957864;0,958;0,972;0,0431555910464455
"GOT2";1,69595468668754e-06;-0,0725290377075544;0,514;0,574;0,0568789282821267
"LTN1";1,76436910278821e-06;-0,0755491243492957;0,304;0,366;0,0591734109693109
"MORF4L2";1,81698716348467e-06;-0,072979132233239;0,502;0,562;0,0609381154889489
"NME3";1,8538039495029e-06;-0,075168648742703;0,352;0,419;0,0621728768584282
"BATF";2,04750533551796e-06;0,104765634772972;0,916;0,911;0,0686692339426013
"EPB41L4A-AS1";2,41354330899523e-06;-0,0708743602222085;0,284;0,347;0,0809454154970821
"ANXA5";2,4824895478729e-06;0,117726169848817;0,501;0,455;0,0832577344565612
"TNIP1";2,50720205244782e-06;-0,0679681734912718;0,571;0,634;0,084086542434995
"SQSTM1";2,55421028508221e-06;0,120223022549171;0,592;0,555;0,0856631045410872
"LBH";2,63059153560546e-06;0,0660781982435621;0,294;0,234;0,0882247789211359
"PSMB3";2,65810167205788e-06;0,0631209897477902;0,929;0,932;0,0891474138774773
"SH3BGRL3";2,9352040288604e-06;0,0929751075031375;0,981;0,979;0,0984408727199201
"VDAC1";2,97645873578727e-06;-0,0627029733843369;0,946;0,959;0,0998244730808336
"TOMM20";3,19931823069027e-06;-0,077169383284903;0,852;0,896;0,10729873482089
"MRPS36";3,70860485789518e-06;0,0893453094831103;0,675;0,639;0,124379189724089
"SRP14";3,79016314663881e-06;0,0638564860024124;0,977;0,985;0,127114491611972
"UBALD2";3,96343053635716e-06;-0,0886692967516036;0,626;0,691;0,132925533328346
"CFLAR";4,40495520978332e-06;0,105209216025482;0,836;0,824;0,147733387825713
"FKBP4";4,71553057338044e-06;-0,0632246693392446;0,678;0,733;0,158149464370033
"SRGN";4,91902430428174e-06;0,140509146367312;0,948;0,947;0,164974237117001
"HMMR";5,16215038110313e-06;-0,0974583536459623;0,54;0,6;0,173128199481437
"RNASEH2C";5,18780205501848e-06;0,082280818295045;0,843;0,832;0,17398850532121
"G0S2";5,97896501196887e-06;-0,11900401845751;0,102;0,146;0,200522528571412
"URI1";6,81413412325902e-06;-0,0602510016670783;0,543;0,606;0,228532430225861
"PAPOLA";7,4807975191746e-06;-0,0673691690039926;0,714;0,758;0,250890987198078
"NAPSA";7,56010160973397e-06;-0,0846910322156012;0,273;0,337;0,253550687787258
"TNF";7,62791407893045e-06;0,185600078049381;0,613;0,577;0,255824982379169
"SNRNP200";8,87606368090975e-06;-0,0643357885353627;0,624;0,677;0,297685423730351
"ITGB2";9,09658899904386e-06;-0,0612410902163089;0,486;0,552;0,305081401849933
"RAB11FIP1";1,01327089185341e-05;0,121936773406026;0,621;0,587;0,339830791709795
"RB1CC1";1,03468067320557e-05;-0,0506703956870692;0,338;0,405;0,347011204179684
"ANKRD11";1,13147499684428e-05;-0,0735989647004121;0,736;0,788;0,379474084441634
"HLA-C";1,13809364822728e-05;0,0938851215002927;0,954;0,95;0,381693847742466
"TRIR";1,16992102276758e-05;0,0655169414204364;0,862;0,86;0,392368112615791
"HIC1";1,17722078974103e-05;-0,0656991001279829;0,232;0,289;0,394816308463346
"ATP5PO";1,19697023637138e-05;0,0704194110936089;0,809;0,789;0,401439877874233
"PHGDH";1,20726749923952e-05;-0,071593915414927;0,29;0,351;0,404893373894949
"CDK2AP2";1,25402587496013e-05;0,10487878435203;0,668;0,631;0,420575197944127
"PELP1";1,25951489088949e-05;-0,0739561807246357;0,51;0,566;0,422416104106517
"PSMC2";1,27039487348164e-05;0,0914502471359493;0,578;0,525;0,426065032668271
"RAC1";1,31227071726451e-05;0,0656913113872737;0,888;0,887;0,440109353156172
"NDUFB2";1,36338467747658e-05;0,0731000007875253;0,896;0,912;0,457251953132095
"CAPRIN1";1,43422592835903e-05;-0,0706047329101896;0,671;0,726;0,48101069185305
"ASNS";1,54235719161246e-05;-0,0742369970797676;0,399;0,458;0,517275754922987
"CCT4";1,54369914925888e-05;-0,0540362373672976;0,904;0,923;0,517725820678443
"PES1";1,61596883230933e-05;-0,0696178616868037;0,46;0,514;0,541963626979904
"RAB5IF";1,73685460157959e-05;0,0809568078196319;0,601;0,555;0,582506296277764
"KNOP1";1,87554213103994e-05;-0,0503048518053766;0,499;0,562;0,629019319908174
"PPP1R14B";1,88833613426056e-05;-0,0695638657288664;0,905;0,919;0,633310172708306
"GGCT";1,9498858738985e-05;-0,0695566664861753;0,645;0,698;0,653952724388078
"SELENOT";1,98702539978699e-05;0,0896050198603441;0,592;0,557;0,66640857858056
"SEPT7";1,994265842045e-05;0,0657575622494766;0,919;0,91;0,668836878105051
"TAF15";2,08446494240986e-05;-0,0697856203078598;0,631;0,681;0,699087852385419
"PLP2";2,11326788406875e-05;0,108474592482601;0,713;0,692;0,708747782958977
"JPT1";2,11969918457913e-05;-0,0583888569310524;0,889;0,921;0,710904712524149
"SLC25A17";2,12302659508748e-05;-0,0633891101559835;0,237;0,289;0,712020659460438
"DAZAP1";2,12440354835666e-05;-0,0699551999401401;0,603;0,663;0,712482462047856
"FKBP1A";2,16047407699282e-05;0,0722324971440169;0,812;0,789;0,724579795941851
"CALR";2,22723232982651e-05;0,0802968089012237;0,937;0,936;0,746969178777214
"NDUFA6";2,24587898050313e-05;0,07500728107696;0,778;0,776;0,753222892481138
"TRAP1";2,2737751887327e-05;-0,055792699018132;0,616;0,672;0,762578722797173
"YBX3";2,29925585992358e-05;-0,0775349874242564;0,519;0,578;0,771124430301171
"HDLBP";2,36456441475276e-05;-0,0502294393032635;0,617;0,671;0,793027613419781
"OXA1L";2,41762098352642e-05;-0,0553838713019667;0,422;0,489;0,81082172545509
"PRR11";2,457427159773e-05;-0,0592644746120961;0,246;0,302;0,824171920844667
"KIF2A";2,4792629873048e-05;0,0758188642748547;0,807;0,798;0,831495220682283
"LONP1";2,47953382654619e-05;-0,0725782152031943;0,499;0,558;0,831586054747063
"RSRC2";2,56119750988802e-05;-0,0675954458348985;0,679;0,737;0,858974420866245
"NASP";2,70429709893067e-05;-0,058053740413039;0,93;0,952;0,906967161039366
"HK1";2,72191636371087e-05;-0,0632698524469726;0,57;0,631;0,912876310061353
"BRCA1";3,02017388703784e-05;-0,0631624260722037;0,515;0,578;1
"NDUFS1";3,08250847631538e-05;-0,0682966989140988;0,406;0,459;1
"MBP";3,16406787013252e-05;-0,0546116381266276;0,292;0,352;1
"HLA-E";3,34257832943866e-05;0,0867677541195049;0,877;0,882;1
"TAF1D";3,41954625668111e-05;-0,0570349525458009;0,786;0,829;1
"H2AFZ";3,50775349479493e-05;-0,0531899718386359;0,981;0,994;1
"DCUN1D5";3,52007994622804e-05;-0,0594564891739583;0,694;0,755;1
"CUEDC2";3,53463201770443e-05;-0,0568114024491168;0,409;0,473;1
"SUMO2";3,70146718168834e-05;0,0531793457250442;0,964;0,962;1
"PEPD";3,76556085844651e-05;0,0644967256406773;0,253;0,203;1
"BAX";3,82514101230139e-05;0,0824028925054;0,714;0,694;1
"DNPH1";3,8662142681494e-05;0,084898572112992;0,755;0,743;1
"NSD2";3,91533140780203e-05;-0,0638550348259822;0,462;0,518;1
"NUDCD2";3,9852584418186e-05;-0,058635125441396;0,567;0,623;1
"UBC";4,33855463519112e-05;0,071110143688391;0,933;0,926;1
"ZRANB2";4,40379543771282e-05;-0,0640756688854899;0,706;0,757;1
"IARS";4,4063020193492e-05;-0,0598360451755164;0,663;0,711;1
"PRRC2A";4,43780333639695e-05;-0,0682104184284497;0,474;0,527;1
"RASSF1";4,45577401728863e-05;0,0530142045655409;0,211;0,166;1
"GIMAP4";4,65134024710838e-05;-0,0697788977432946;0,265;0,319;1
"EVI5";4,8219351035345e-05;-0,0666872372946051;0,483;0,55;1
"FHOD1";4,8529610166785e-05;-0,0533581963340396;0,171;0,218;1
"ASPM";4,9292483323796e-05;-0,0518766517669321;0,463;0,53;1
"PTPN11";4,9393546196481e-05;-0,0607523135662732;0,59;0,646;1
"M6PR";5,00909303070288e-05;0,080984889346151;0,6;0,56;1
"PMPCA";5,03628560361533e-05;-0,0617933537049791;0,465;0,521;1
"CD81";5,1457680012487e-05;-0,0528157005015839;0,67;0,719;1
"CALD1";5,56455200237763e-05;-0,056772707487685;0,129;0,172;1
"BRD9";5,66408631844283e-05;-0,0670983517517789;0,418;0,472;1
"PSMA1";6,11844498380924e-05;0,0682650946382277;0,868;0,86;1
"IRF1";6,26537481039185e-05;0,134332161532353;0,495;0,447;1
"TRMT112";6,36002609692262e-05;0,0670510008757068;0,851;0,866;1
"PLK1";6,47072699770127e-05;-0,0527980376232853;0,259;0,316;1
"CST7";6,71539374147491e-05;-0,0519840370011738;0,177;0,225;1
"CHCHD10";6,73194537704091e-05;-0,0625069098419131;0,817;0,856;1
"PRPF8";6,79896153797087e-05;-0,0542551200381973;0,641;0,688;1
"SF3A1";6,94359246334846e-05;-0,053392173389841;0,479;0,544;1
"GSTP1";7,11116270509943e-05;0,0687680105165203;0,931;0,927;1
"ARID5A";7,23055096495716e-05;0,0953854788465733;0,551;0,507;1
"CTNNA1";7,27089890760216e-05;-0,0509018779739709;0,178;0,226;1
"CLPX";7,40810316567101e-05;-0,0551477941861965;0,334;0,392;1
"CRIP1";7,41626539992255e-05;-0,0684492189704608;0,246;0,296;1
"KIF20B";7,62811791193298e-05;-0,0655462507011052;0,557;0,605;1
"WSB2";7,70209961537031e-05;0,074882381706642;0,315;0,267;1
"MCM6";7,81054558235812e-05;-0,0525629260825757;0,732;0,786;1
"NFKBIA";8,53778330882963e-05;0,0955109470875011;0,773;0,753;1
"CIB1";8,65494975618916e-05;0,0569792019290041;0,895;0,904;1
"CD27";8,71809619689368e-05;-0,0598236908823203;0,328;0,387;1
"PHPT1";8,81324176028413e-05;0,0940906161831434;0,741;0,726;1
"MTA1";8,86980761450524e-05;-0,0509539237866835;0,273;0,324;1
"EVL";8,8952240887362e-05;-0,0569252297600865;0,469;0,527;1
"ZBTB32";9,52200063701036e-05;-0,0616783662865709;0,488;0,545;1
"CYLD";9,73280919972438e-05;0,0955449173316334;0,46;0,415;1
"ETFB";0,000110017263848594;-0,0541995028434292;0,789;0,842;1
"IFNG";0,000112692402144357;-0,0641516624331346;0,274;0,33;1
"HLA-F";0,000115076553427918;0,105350743312716;0,412;0,366;1
"ORMDL2";0,000116204990672518;0,0751637175446739;0,396;0,346;1
"XRCC6";0,000120708923841366;-0,0550734959470687;0,86;0,894;1
"NAPA";0,00012103191839277;0,070827954890095;0,389;0,338;1
"KHDRBS1";0,000126127154720706;-0,0614299147076447;0,834;0,865;1
"CS";0,000129917043391349;-0,0500369471455329;0,452;0,508;1
"GABPB1-AS1";0,000134442505855018;-0,0502069854424316;0,457;0,511;1
"BIRC5";0,000137169399121635;-0,0514689726626627;0,588;0,661;1
"YARS";0,000139213095287532;-0,0644723189608469;0,572;0,625;1
"SLIRP";0,000139613078287622;-0,0613491242334274;0,871;0,9;1
"SRRT";0,00014356188591357;-0,0631881178495528;0,572;0,629;1
"CCNA2";0,000143877415387762;-0,0586436865512889;0,506;0,554;1
"ODC1";0,000144406238026014;0,0810112564687411;0,888;0,893;1
"MGST3";0,000145321784870153;0,0946676849845429;0,51;0,469;1
"PSMB2";0,000146809858585262;0,066639857783205;0,843;0,847;1
"NAGK";0,000157652808399612;0,0629162076067194;0,205;0,164;1
"MCOLN2";0,000158448701688209;-0,0657145606939731;0,262;0,311;1
"NUDC";0,000160532132275083;-0,0517983979719823;0,911;0,926;1
"DLGAP5";0,000163174647549738;-0,0738597556392676;0,43;0,484;1
"NDUFB11";0,000166348100345848;0,0634868565834179;0,853;0,84;1
"CENPE";0,000169942132051504;-0,0555407098103508;0,403;0,46;1
"TNFRSF14";0,000170957892786211;0,0746488206819442;0,348;0,303;1
"PHF6";0,000171235873099844;-0,0515331443502199;0,416;0,477;1
"PDXK";0,000185490845100192;-0,0568116676811469;0,592;0,652;1
"TPRG1";0,000185615789435843;-0,0551392713167546;0,085;0,12;1
"TMBIM4";0,000191573212820042;0,0839918189718294;0,482;0,442;1
"CREM";0,000201689695285255;0,0895845892830347;0,775;0,76;1
"PLCG2";0,000202321146317069;-0,089218868423228;0,436;0,477;1
"TNFRSF18";0,000208137038953196;0,137889762219565;0,778;0,764;1
"VKORC1";0,000209499615241817;0,0839730264101156;0,474;0,434;1
"PPIB";0,000214315669582762;0,0623717089243716;0,931;0,947;1
"CLUH";0,000214409035489414;-0,0554923665418868;0,262;0,308;1
"WARS";0,000214778882577115;-0,056603886293412;0,744;0,773;1
"TARS";0,000215992097220368;-0,0551788411728643;0,679;0,73;1
"PRKDC";0,000219752684161354;-0,0513173777158265;0,901;0,931;1
"EWSR1";0,000235446274664072;-0,0564915292622195;0,673;0,73;1
"CCNI";0,000246015403328649;0,0624579758396722;0,884;0,885;1
"CEBPZ";0,00026047657625965;-0,0566904785505817;0,665;0,704;1
"MLX";0,000268164041998944;0,076597583562134;0,51;0,47;1
"RPP25L";0,000268413689329138;-0,0545607060866034;0,306;0,354;1
"RAP1A";0,00027613113491402;0,0816917369768242;0,75;0,735;1
"PGK1";0,000278365991168489;0,0608525883678872;0,931;0,94;1
"AIP";0,000279186517222224;0,0719144758114777;0,694;0,668;1
"RUNX3";0,000288882022765365;-0,0550872889887773;0,646;0,68;1
"VDR";0,000291503869823319;-0,0611086635939706;0,477;0,533;1
"ATP1A1";0,000310208673375738;-0,0610221108088571;0,579;0,619;1
"BRK1";0,000315376615627879;0,0797741474842099;0,752;0,746;1
"CLEC2D";0,000327277711702851;0,0811555463713471;0,673;0,645;1
"NDUFA9";0,000331630452576331;0,0789802921975078;0,513;0,487;1
"NARS";0,000333802204099551;-0,0501048464176597;0,587;0,64;1
"HSD17B10";0,000334926298997304;0,0751333368179312;0,607;0,573;1
"RPL36A";0,000338751445278355;0,0675842832355511;0,84;0,845;1
"KIF3A";0,000339965633915442;0,069474547113086;0,283;0,242;1
"UBE2N";0,000340649618837823;0,0627767415975231;0,815;0,8;1
"ORMDL1";0,000361969955411018;0,0658174734633057;0,598;0,564;1
"DRAP1";0,000362759060988529;0,077749232833112;0,773;0,766;1
"HLA-A";0,000366181010011587;0,0642716114452444;0,995;0,994;1
"IARS2";0,000367356992439232;-0,0623061959647337;0,579;0,63;1
"MLST8";0,000374790140035014;-0,0534494554556543;0,315;0,36;1
"MRPL24";0,000379063599337997;0,0760998407299726;0,467;0,428;1
"CDK6";0,000379750167942239;-0,054514983590229;0,702;0,749;1
"HIST1H1B";0,000385269162049668;-0,0721264123643122;0,562;0,618;1
"PLRG1";0,000395493425947868;-0,0550066199633099;0,406;0,458;1
"ZBTB38";0,000408727758907547;0,0965569842358801;0,402;0,368;1
"CDKN3";0,000409243491391534;-0,0584238823164592;0,544;0,586;1
"INTS1";0,00041397601464445;-0,0518219991019987;0,254;0,3;1
"SMDT1";0,000426864952331017;0,0757430000856498;0,55;0,516;1
"CD164";0,000433674514549684;0,0757392628430906;0,594;0,559;1
"CAPZB";0,000434993289989269;0,078603738713327;0,766;0,733;1
"SEC11C";0,000435329876948899;0,0765648069848255;0,845;0,834;1
"DUSP11";0,000435359305925065;0,0566400745125413;0,265;0,223;1
"ARMH1";0,000442021072835665;-0,0513958846251455;0,187;0,229;1
"DHX15";0,000442920086491454;-0,0560258034361965;0,544;0,598;1
"CYBC1";0,000451140002627643;-0,0645432348377473;0,454;0,5;1
"LLPH";0,000465149236085837;-0,0590899734299106;0,539;0,593;1
"MYL12A";0,000475665495505472;0,062872955558434;0,933;0,931;1
"DNAJA1";0,000476664524463012;0,0523488303042252;0,912;0,912;1
"BIRC3";0,000501909071583282;-0,083057494767632;0,523;0,566;1
"SRP72";0,000503755222906109;-0,054402037159573;0,759;0,802;1
"CYP1B1";0,000524798574453504;-0,108870653934025;0,187;0,227;1
"EIF4G1";0,000541255057809107;-0,0564308591068381;0,818;0,858;1
"NSD1";0,000550132204929119;-0,0501774215442262;0,453;0,505;1
"GPSM3";0,000550966202623468;-0,0517278340493396;0,444;0,487;1
"LMAN2";0,00055319981044288;0,0693680355453883;0,657;0,63;1
"GIT1";0,000561060038122803;-0,0581982883164162;0,305;0,346;1
"CARD8";0,000573843469109438;-0,0583319429701133;0,351;0,396;1
"PPDPF";0,000574760245398836;0,0701939491193395;0,782;0,772;1
"TMED9";0,000575394407883489;0,0733322152384297;0,644;0,611;1
"FAM111B";0,000575818641363122;0,0835436834139876;0,267;0,227;1
"COMT";0,000582732164162183;-0,0569307394923839;0,459;0,504;1
"SLC16A1";0,000590296482553918;-0,0541110320823607;0,335;0,384;1
"IPO5";0,000597121396259041;-0,0607241739044613;0,644;0,69;1
"CBFB";0,000612837979037538;0,0612089405756628;0,352;0,306;1
"HERPUD1";0,000614110085980438;0,0854571879888817;0,549;0,516;1
"REEP5";0,000616270105709425;0,0780330412666614;0,712;0,691;1
"ETHE1";0,000633642031504605;0,0804619311551864;0,498;0,456;1
"TRAM1";0,000635822249646102;0,0647705782045988;0,435;0,386;1
"P4HB";0,000666079455158431;0,0809798874191917;0,727;0,725;1
"MINOS1";0,000670605436473901;0,0687007519161127;0,73;0,722;1
"AGFG1";0,000676570176486761;-0,0699195357234145;0,471;0,521;1
"CDV3";0,000691338045006987;-0,0586973615436046;0,835;0,853;1
"CD47";0,000698277930946216;0,08522812715773;0,573;0,541;1
"RDH11";0,000716589084447377;-0,0502536516833096;0,282;0,325;1
"PSMG4";0,000769327047604812;-0,0632159848713058;0,451;0,489;1
"LBR";0,00077102004777243;-0,0742505455693094;0,598;0,638;1
"JTB";0,000778313282972814;0,0557065531556276;0,902;0,894;1
"PSMB1";0,000780191539361207;0,0500558564046594;0,957;0,96;1
"PRDM1";0,000780599540631003;0,0729042306169108;0,351;0,308;1
"TRBC1";0,000781068722011862;-0,0606395973263039;0,457;0,51;1
"RPA2";0,000813056215705032;0,0654408554230569;0,567;0,536;1
"AURKA";0,000856853360113512;-0,0675573997208461;0,403;0,445;1
"SYNE2";0,000885839695261115;0,0830107563214996;0,281;0,244;1
"YWHAQ";0,000896262250115186;0,0589195357243055;0,876;0,88;1
"UBA1";0,000908877775690955;-0,0543944585554688;0,488;0,535;1
"COA6";0,000934074942924511;-0,0501474116979472;0,689;0,741;1
"DIS3";0,000937756320721427;-0,0510245903126527;0,493;0,54;1
"UQCC2";0,000941367185369358;-0,052209401900071;0,747;0,795;1
"MOB3A";0,000943172784718324;-0,0605880002622571;0,31;0,352;1
"DESI1";0,000943292050679879;0,0590876314585893;0,728;0,724;1
"VARS";0,000968944249896158;-0,0514330505001498;0,49;0,526;1
"FOXP1";0,000971107308121708;0,0814976651070104;0,589;0,557;1
"H2AFJ";0,000978436043841155;-0,0626175121472635;0,303;0,347;1
"SNHG9";0,0009824108275215;-0,0536634508680722;0,253;0,295;1
"TERF2IP";0,00102140305236549;0,0631346782976347;0,734;0,709;1
"OST4";0,00104452875798466;0,0594699958025711;0,92;0,923;1
"ZFC3H1";0,0010560567534579;-0,0515148865498422;0,33;0,374;1
"NKTR";0,00107108213400002;-0,0546473248046491;0,539;0,592;1
"PRDX4";0,00108665316627607;0,0563335313515838;0,695;0,679;1
"CUTA";0,00113981738108854;0,0714102864175196;0,643;0,618;1
"XPO1";0,00114627565063427;-0,0561232500658706;0,726;0,759;1
"NBN";0,00114640251900487;0,0543236710140435;0,392;0,347;1
"ADK";0,00114969028098164;0,0689635208684742;0,496;0,46;1
"CCND3";0,00116777891337772;-0,056380535769508;0,707;0,742;1
"LRPPRC";0,00119153758410111;-0,0548689769487953;0,687;0,724;1
"TTF1";0,00120074781061968;-0,0509211750015387;0,416;0,461;1
"NDUFC2";0,00121411435861038;0,0666518150955677;0,818;0,815;1
"TACC3";0,00122577476114339;-0,056551311298959;0,513;0,562;1
"CSE1L";0,00124225592966374;-0,0522394835143006;0,503;0,549;1
"MAK16";0,00131504984588941;-0,055163262841476;0,47;0,512;1
"CCDC43";0,00131561049597342;-0,0504992832649812;0,326;0,37;1
"CD44";0,00131618227630458;0,0637916107800922;0,717;0,692;1
"SPCS1";0,00138502464225761;0,0532780263047301;0,876;0,876;1
"TDG";0,00140697549477862;-0,0528160460216717;0,572;0,613;1
"HMGN2";0,0014085216998422;0,0556599983571662;0,954;0,958;1
"NAE1";0,00142099100122019;-0,0556842843914535;0,645;0,688;1
"DERL2";0,00144090014404149;0,0570373470835393;0,388;0,347;1
"AUP1";0,00145803724761019;0,0737536067958282;0,557;0,529;1
"ATP6AP2";0,00147467687962088;0,0584592077341382;0,466;0,428;1
"TRNAU1AP";0,0016054832251604;0,065136430169681;0,39;0,354;1
"INSIG1";0,00164590224333527;-0,0614518221263057;0,151;0,184;1
"DYNLRB1";0,00166301090065107;0,0681818503209465;0,711;0,694;1
"KIAA1551";0,00168062991408734;0,0825752362159995;0,393;0,362;1
"YWHAB";0,00170691419730874;0,0521874673818472;0,971;0,968;1
"LRR1";0,00177197537971757;-0,0551677393650185;0,515;0,56;1
"CD320";0,00181912402420307;0,0798604362542118;0,656;0,641;1
"EIF5";0,00184661456170018;0,0596743100531834;0,885;0,883;1
"XIST";0,00185587830640083;0,0974393815114177;0,174;0,143;1
"PHF19";0,00186302877919269;-0,0502711007313502;0,645;0,685;1
"CDCA7";0,00188805627317451;-0,0506646940973554;0,335;0,378;1
"MDH1";0,00188980497530208;0,0588217086508125;0,74;0,738;1
"SIVA1";0,00191111650423687;0,053227467041558;0,863;0,877;1
"FAM50A";0,00192499543775963;0,0552890359699727;0,509;0,472;1
"STUB1";0,00194170208116444;-0,0515390631670622;0,724;0,754;1
"TMEM134";0,00202696539362059;0,0590251746210046;0,433;0,393;1
"TCF7";0,00212402238017023;-0,0515302195532493;0,178;0,214;1
"MCM10";0,00214037604355402;-0,0534715797696464;0,451;0,494;1
"PTPN2";0,00222651816074025;0,0673691461881855;0,516;0,48;1
"TPD52L2";0,00225687351061963;-0,0500105950330834;0,314;0,353;1
"CD40LG";0,00229159146683235;0,126130220166785;0,522;0,496;1
"SLC7A5";0,00233823623586803;-0,0551066911254187;0,62;0,654;1
"EXOSC6";0,00242232531838986;-0,0516078032376505;0,36;0,4;1
"RASGRP1";0,00245278737577702;0,0874635861005625;0,503;0,478;1
"KRR1";0,0024642359023654;0,0658974094973924;0,746;0,732;1
"PDCD4";0,00248856143857084;-0,0501481020308797;0,28;0,32;1
"SELENOS";0,00253501681988679;0,0760345230407089;0,51;0,476;1
"NFKBID";0,00254879374683018;0,0677992391005425;0,256;0,223;1
"CKLF";0,00257276716760609;0,0569401660429963;0,633;0,608;1
"SATB1";0,00273653303466012;0,0601101492523308;0,8;0,798;1
"METTL5";0,00284054797225173;-0,0525242302915698;0,718;0,754;1
"TNFAIP8";0,00295581847023506;0,059086163333705;0,798;0,79;1
"NIPSNAP2";0,00297522164339179;-0,0509860709840869;0,44;0,483;1
"MRPL20";0,00308645622008019;0,0502881076959385;0,905;0,912;1
"ATP6V0D1";0,00310884739377;0,0538270602691551;0,306;0,268;1
"RRS1";0,00311467033094042;0,0912430039766953;0,536;0,511;1
"AIMP2";0,0031962554906772;0,0588476913533028;0,435;0,398;1
"COMMD6";0,0032132175410336;0,0608464478424533;0,756;0,743;1
"PLK3";0,00327142614406546;0,065925327369894;0,315;0,278;1
"HIST1H1D";0,00327815008474721;-0,0719118548198743;0,643;0,685;1
"UBL4A";0,00339151189255813;-0,0517099110416677;0,379;0,413;1
"CCR4";0,00339975850660819;0,0629501375697396;0,229;0,197;1
"S100A11";0,00346976787450787;0,0955553736987567;0,924;0,924;1
"FASN";0,00350642060987333;-0,0501450901584101;0,415;0,453;1
"SERINC1";0,00385027561228762;0,057016264096668;0,243;0,209;1
"BCL7B";0,00400337162314865;0,0599855313873279;0,312;0,279;1
"USP7";0,00409007009602135;-0,0521647025716104;0,534;0,571;1
"FXYD5";0,00415060807060747;0,0748203103910947;0,822;0,821;1
"NUCB2";0,00423709386915263;0,0572143639602515;0,215;0,183;1
"RABAC1";0,00435409138644422;0,0886153624215759;0,565;0,536;1
"SEC11A";0,00445420612760566;0,0517507411641704;0,732;0,713;1
"CHAMP1";0,00453690700782986;-0,0512431002083366;0,367;0,405;1
"NUSAP1";0,00456884319974596;-0,0518188842885026;0,579;0,623;1
"IRF2";0,00457229121527541;0,0596160228087415;0,324;0,287;1
"SELENOK";0,00481080043785063;0,063066555304632;0,691;0,668;1
"S100A10";0,00482749259638824;0,0797376093800073;0,748;0,741;1
"CENPX";0,00507117900995359;0,0591641671157421;0,79;0,791;1
"RTN3";0,00538204500605511;0,0687304712379462;0,347;0,314;1
"ASNA1";0,00549992029687506;0,0625470110236828;0,473;0,444;1
"EXOSC1";0,00559769644460358;0,0625710248988293;0,478;0,451;1
"FURIN";0,00563398232456355;-0,0509915079819203;0,554;0,585;1
"WDR83OS";0,00587471772705034;0,0642366929644569;0,739;0,736;1
"NME2";0,00591848180214223;-0,0669628715621127;0,219;0,248;1
"RNASEH2B";0,0059900261905909;0,0544578041267011;0,466;0,437;1
"GLRX2";0,00609498858503284;0,0739677104629931;0,471;0,45;1
"UBE2D3";0,0061790277284533;0,0507332328577608;0,897;0,903;1
"SUPT4H1";0,00624977203981804;0,0656647654419122;0,654;0,639;1
"LINC00513";0,00626574931776388;0,0501979278637887;0,172;0,144;1
"TBCB";0,00629456301482139;0,0598940264724191;0,559;0,533;1
"TSTD1";0,00633384786205472;0,0617207850367458;0,526;0,497;1
"DERL1";0,00637535257588052;0,0559876499377376;0,48;0,455;1
"PHLDA1";0,00677943641596979;0,0702266388428111;0,228;0,198;1
"BLVRA";0,0068932699460816;0,0594543727040022;0,242;0,211;1
"ANAPC11";0,00707826808457381;0,0633107932583123;0,857;0,86;1
"CCL3";0,00709549074225762;0,105493867759649;0,578;0,552;1
"ADD1";0,00720391580594222;-0,0533991777483933;0,395;0,431;1
"HDAC1";0,00726720094004301;0,0538252228587708;0,669;0,649;1
"SH2D1A";0,00795153672175588;0,0743487174416644;0,438;0,41;1
"ATOX1";0,00795672944500609;0,0647497961602543;0,746;0,761;1
"CASP8AP2";0,00814664573534544;-0,0560959109503438;0,425;0,459;1
"EMP3";0,00858393208920198;0,0819543075875879;0,869;0,877;1
"ARL6IP5";0,00871154552307813;0,0509727299015482;0,706;0,691;1
"CDK4";0,00936176638677718;0,0501800745770402;0,758;0,754;1
"PSMC3";0,00970771352099261;0,0586163354251885;0,784;0,798;1
"EMC3";0,0098268554581149;0,0507386143566977;0,382;0,353;1
"MESD";0,00990942593454192;0,0583203455382891;0,631;0,625;1
"KDM6B";0,00996255361112873;0,0776224657175309;0,253;0,226;1
"ELOVL1";0,010046984658222;0,0542385177603217;0,376;0,343;1
"NDFIP2";0,010108167431214;0,0739761218926165;0,526;0,505;1
"IL9";0,0103591607678434;0,263583235812513;0,11;0,087;1
"VPS29";0,0107548756349754;0,0530424153947562;0,721;0,721;1
"ACAA2";0,0108417666788523;0,0506870273423771;0,506;0,474;1
"REX1BD";0,0111916299647081;0,0555564680010074;0,654;0,643;1
"OSTF1";0,0118346996938902;0,0727911548286264;0,669;0,662;1
"NDUFA11";0,0118786341373794;0,0510687304190114;0,779;0,783;1
"CFAP20";0,0119577586096205;0,0582004783587038;0,387;0,357;1
"ZFP36L2";0,0120508885215289;0,0512754986833826;0,387;0,353;1
"DNAJC1";0,0123550008422833;0,0671682313883871;0,397;0,374;1
"TNFRSF1B";0,0125584778309901;-0,0521205523444412;0,498;0,539;1
"CHMP2A";0,0129848282803369;0,0619044230520591;0,668;0,667;1
"PSMB4";0,0130077401203272;0,0534502060222184;0,796;0,812;1
"ALG5";0,0131920566391009;0,0505861724358205;0,447;0,417;1
"NPM3";0,0138303391500083;-0,0524841023048155;0,682;0,71;1
"MANF";0,0145301195519948;0,0611464854408701;0,82;0,825;1
"ENSA";0,014576412452238;0,0613677846020849;0,719;0,715;1
"PSAP";0,0145798222569101;0,0571607789511664;0,338;0,308;1
"COPRS";0,014906921228075;0,0589302673066431;0,55;0,54;1
"MTCH2";0,0152169186393911;0,0503428545094139;0,612;0,598;1
"ZWINT";0,0153158011169064;0,0584181050221153;0,559;0,556;1
"CDR2";0,0159498529079543;0,0537310576345622;0,281;0,254;1
"ATP5PD";0,0159931576456307;0,0615022560404568;0,776;0,77;1
"ATP6V1G1";0,0163652456580292;0,0702834740289011;0,525;0,506;1
"MLLT6";0,0163798625685011;0,0634692747925917;0,432;0,407;1
"ORAI1";0,0166603255737325;0,0529707908268281;0,374;0,34;1
"GPR183";0,0167246016976444;0,0705924288055447;0,416;0,392;1
"COX20";0,0174458991485009;0,0558647478739359;0,686;0,681;1
"IL32";0,0176873504495569;0,0771758032143763;0,961;0,966;1
"BCAP29";0,0177139328775419;0,0525263176972002;0,388;0,361;1
"ATP6V1F";0,0188638165872507;0,0533425657426476;0,769;0,756;1
"CMC2";0,0191114000082115;0,0568214256957603;0,599;0,589;1
"ZFAND6";0,0195079881294484;0,0541813964150554;0,273;0,248;1
"FUNDC2";0,0206725789717625;0,0618682604901819;0,536;0,522;1
"ABLIM1";0,0212985518032767;0,0546610920973791;0,371;0,343;1
"CENPU";0,0213903770735728;0,0549468397858075;0,491;0,47;1
"ZDHHC12";0,0213910536099234;0,0515247006194953;0,592;0,579;1
"IER2";0,0234389099334992;0,0566047824064256;0,544;0,523;1
"TRIM56";0,0239535081271365;0,0560766097542969;0,364;0,34;1
"TIPIN";0,0240237773089693;0,0540994277838428;0,569;0,553;1
"IFI16";0,0241323966614191;0,0541751232581442;0,76;0,752;1
"ALOX5AP";0,0247174061334414;0,070832053785461;0,222;0,195;1
"MIR4435-2HG";0,0247569849502583;0,0779912967053287;0,271;0,248;1
"CD69";0,0249397892245345;0,0637153508090211;0,24;0,218;1
"TNFRSF9";0,0258740804450686;0,099306214182959;0,268;0,244;1
"CD151";0,0263407663846009;0,0513965975522443;0,297;0,272;1
"HAGH";0,0265575004922251;0,0519137010848009;0,396;0,367;1
"CCDC167";0,0269060964868046;0,0639219534122485;0,668;0,665;1
"SLC43A3";0,0283737856643245;0,0626406273349152;0,645;0,636;1
"CAMK2D";0,0286100576883688;0,0597046489345554;0,348;0,325;1
"SAMSN1";0,0288015655979311;0,0618304616225298;0,531;0,52;1
"TMEM70";0,029239328920029;0,0622128579926747;0,609;0,591;1
"IL17F";0,029455328247745;0,0959503056391542;0,128;0,153;1
"ANKRD12";0,0309120769082623;0,0635694419038154;0,675;0,665;1
"RASA2";0,0313006738769934;0,0557045352165975;0,326;0,3;1
"EMB";0,0334336080405245;0,0638426612435185;0,535;0,511;1
"TOMM22";0,0342079569299971;0,0511454283064661;0,783;0,794;1
"DDT";0,0357680888088837;0,0545634291788869;0,705;0,696;1
"UFC1";0,0388878844256667;0,0551442910648536;0,614;0,619;1
"POLR2G";0,0407935474902182;0,0531915683432739;0,553;0,541;1
"CIRBP";0,042725415786152;0,0543447388275464;0,753;0,762;1
"BCL2L1";0,0428438810933192;0,0628254315140727;0,49;0,468;1
"TP53BP2";0,0445583668361528;0,0584336466015197;0,347;0,323;1
"ATF5";0,0460945976293537;0,060504210156424;0,214;0,194;1
"SNRNP40";0,0464086851823681;0,0607864828665228;0,554;0,541;1
"CLIP1";0,0477534402011213;0,0523185743490834;0,52;0,496;1
"ROMO1";0,0492822354793213;0,056826502151583;0,751;0,757;1
"FOXN2";0,050481953325666;0,0543751359794038;0,214;0,194;1
"BTG2";0,0506394031503055;0,0778125321410927;0,424;0,399;1
"PHF11";0,0532617228040137;0,0557309976753541;0,318;0,297;1
"CPNE1";0,0548028544095636;0,0619780041842116;0,525;0,516;1
"HIF1A";0,054933040292983;0,0706451359737643;0,644;0,638;1
"MAP1LC3B";0,0549847451600556;0,0685953019424516;0,606;0,605;1
"WASF2";0,0653933228247987;0,0527538167151406;0,625;0,612;1
"RAB7A";0,0660953520246124;0,0516766103158854;0,667;0,67;1
"AKR7A2";0,0674690877852608;0,0540927105095596;0,378;0,363;1
"ITM2B";0,0752544815425332;0,054975360905008;0,376;0,355;1
"IAH1";0,0755659607228329;0,0524608623911091;0,524;0,521;1
"GBP4";0,0794132697783921;0,0591986835313512;0,193;0,175;1
"GATA3";0,0809615900497164;0,0677793828458978;0,333;0,32;1
"TP53";0,0829444735263576;0,0504338455754588;0,334;0,317;1
"GCHFR";0,0918326809242912;0,0599984217563992;0,476;0,466;1
"MIR155HG";0,0966277862682774;0,0885355759513398;0,761;0,771;1
"RNF19A";0,100782777837846;0,0634166744355444;0,523;0,503;1
"CD52";0,104732577917492;0,0674210935974872;0,531;0,528;1
"DYNLT1";0,106532103441773;0,0522554568604354;0,597;0,591;1
"TRBC2";0,11546334031862;0,0507705347134547;0,635;0,632;1
"ID3";0,120497608173085;0,0506506172287522;0,186;0,17;1
"AC058791.1";0,129084910078111;0,0512707386343944;0,228;0,21;1
"TNFRSF25";0,133884802823439;0,05266455887038;0,475;0,466;1
"HIST2H2AC";0,136018779347276;0,0673967583943963;0,454;0,442;1
"ZBED2";0,167250166937753;0,0681757840943065;0,768;0,788;1
"REL";0,168398858758122;0,0558307536300174;0,532;0,525;1
"TMEM256";0,190003586616271;0,0506076033447889;0,39;0,379;1
"RRAGC";0,2047024252554;0,0516902686866292;0,303;0,291;1
"CD74";0,214126881933389;0,0729019794798805;0,507;0,51;1
"CASP3";0,219655938200352;0,0507279209768842;0,36;0,348;1
"VIM";0,225163701766593;0,170767986895145;0,549;0,56;1
"GK";0,22836264280991;0,0570943477503307;0,465;0,458;1
"ISG20";0,339228629231063;0,10062164759217;0,313;0,31;1
"GPR171";0,725263758441552;0,0507814749023263;0,389;0,398;1
"CCL5";0,819878586964528;-0,0812064615312911;0,124;0,121;1
