"";"p_val";"avg_logFC";"pct.1";"pct.2";"p_val_adj"
"NKG7";2,43251062216179e-12;0,287622261805142;0,957;0,945;8,1581541246062e-08
"CCL4L2";3,35052939744104e-12;0,481500611763884;0,706;0,555;1,12370054931378e-07
"MT-ND4";3,68434415299528e-12;-0,205458753985407;0,981;0,992;1,23565534203156e-07
"CCL4";1,38051612509533e-11;0,42887869980575;0,911;0,86;4,62997498034473e-07
"B2M";1,18921490305597e-10;0,173941371351909;1;0,997;3,98838894186912e-06
"MT-CO3";2,25225800874366e-10;-0,172497132769659;0,995;0,993;7,5536229097245e-06
"SOCS1";3,67657350858545e-10;0,295836313632172;0,659;0,551;1,23304922330939e-05
"MIF";4,00114591496116e-10;-0,251107725430824;0,856;0,897;1,34190431695967e-05
"CALM1";8,52478494349876e-10;0,159714159898437;0,999;0,991;2,85904237435061e-05
"SRGN";3,23210838407756e-09;0,219814727542031;0,961;0,955;0,000108398450985193
"PPIB";4,54987729441239e-09;0,160163781581543;0,95;0,919;0,000152593784700003
"BATF3";6,87243260768405e-09;-0,350097389055994;0,424;0,538;0,000230487644796508
"PRDX1";9,27729656520555e-09;0,180336241531629;0,907;0,87;0,000311141972203864
"MT-ND4L";1,2259956316578e-08;-0,288546124555308;0,567;0,667;0,000411174414945394
"RPL37A";2,38686330738658e-08;-0,0993145033662137;0,999;0,999;0,000800506216031311
"CCDC85B";2,71154470320328e-08;-0,213784045784233;0,736;0,811;0,000909397862560316
"S100A11";9,67065069044863e-08;0,191485238130411;0,938;0,897;0,00324334282856266
"MT-ND3";1,0782521824695e-07;-0,182034522199711;0,971;0,975;0,00361624216956622
"MT-ATP6";1,10331880829293e-07;-0,143267914902779;0,992;0,992;0,00370031061925282
"DAD1";1,23350698042283e-07;0,182025863797564;0,77;0,703;0,0041369357109421
"MT-CO1";1,56749020471966e-07;-0,111965796173283;0,992;0,993;0,00525704864858879
"GZMA";2,11230131918406e-07;0,467013400766441;0,619;0,526;0,0070842361642795
"CCL3L1";2,43087917420267e-07;0,37848084763305;0,727;0,63;0,0081526825744409
"TMEM50A";3,82790203908799e-07;0,175897763933505;0,638;0,53;0,0128380178586933
"HLA-B";3,96270175786539e-07;0,171779672961439;0,986;0,977;0,0132901091555289
"MT-ND5";4,20658729510553e-07;-0,260454913812573;0,944;0,965;0,0141080524703249
"RPS2";4,9473723051129e-07;-0,0733125288779677;1;1;0,0165924972368876
"NDUFC2";5,75469684235936e-07;0,161075398049074;0,712;0,626;0,0193001022699048
"RPS19";8,20747926248652e-07;-0,081453049410706;1;0,999;0,0275262439505273
"MT-ND2";9,20664058626836e-07;-0,200286527375355;0,963;0,96;0,0308772311982268
"CCL3";1,06977023179948e-06;0,291869746595729;0,938;0,911;0,035877954034091
"PFN1";1,37450675472071e-06;0,138438221497713;0,987;0,987;0,0460982075398231
"MT-CO2";1,41880866294875e-06;-0,109646461444477;0,992;0,995;0,0475840049379751
"GNG5";1,92704525627666e-06;0,137594929081572;0,854;0,791;0,0646292438050067
"NUCKS1";2,27740455924017e-06;-0,117946672573745;0,842;0,895;0,0763795941077969
"MT-ND1";2,7425375501861e-06;-0,17561831854151;0,971;0,973;0,0919792243581414
"PPIA";2,78027674706735e-06;0,094794539369865;0,98;0,988;0,0932449215431447
"SUB1";3,35853694927677e-06;0,124539812748673;0,952;0,911;0,112638612204844
"MYO1G";3,6506613934586e-06;-0,212598226791456;0,502;0,571;0,122435881813815
"APOBEC3G";5,81705128970005e-06;0,213390054952188;0,56;0,475;0,19509226615396
"ATP6V0E1";6,40122919664175e-06;0,152077693810411;0,737;0,675;0,214684424796971
"RGS16";8,06271340460593e-06;0,23872053543696;0,389;0,301;0,270407282163674
"HOPX";8,61030076445861e-06;0,193017080459438;0,849;0,812;0,288772267038413
"MT2A";9,57870243391547e-06;-0,129275641533792;0,848;0,899;0,321250522228657
"MAF";9,96055515548926e-06;0,172588480699137;0,743;0,684;0,334057098804799
"CCL5";1,10417412669623e-05;0,242295856816336;0,907;0,895;0,370317918611382
"RPS9";1,11177494129159e-05;-0,0623366172198412;0,997;1;0,372867079810374
"TMBIM6";1,20087577467103e-05;0,134513918817992;0,856;0,816;0,40274971730917
"RPL36";1,3241565281873e-05;-0,0828757937473217;0,997;0,996;0,444095616423457
"CCR1";1,56371817475646e-05;0,17273382239738;0,363;0,264;0,524439801449822
"TRIR";1,90563312440116e-05;0,130559724631636;0,795;0,736;0,639111237261662
"MYB";2,74989528612918e-05;-0,107482853500556;0,107;0,18;0,922259881062003
"MT-CYB";2,76922979351729e-05;-0,113241139299784;0,99;0,985;0,92874428814983
"H3F3A";2,96030121584692e-05;0,102933695527249;0,972;0,965;0,992825821770739
"CD81";3,77078592115009e-05;-0,141789881948692;0,662;0,728;1
"ATP5PF";4,25507111288512e-05;0,127202464360913;0,875;0,854;1
"CALR";4,30964590032323e-05;0,129030466434721;0,943;0,911;1
"LTB";4,73240030299054e-05;0,242048208512806;0,886;0,854;1
"BCL2A1";4,80008699637047e-05;0,127332073370292;0,441;0,34;1
"OSTC";5,19628587023906e-05;0,141415779507388;0,689;0,627;1
"NUP35";5,28805819388474e-05;0,0798366832422526;0,192;0,116;1
"RPS18";5,84403188603391e-05;-0,066288119673084;1;1;1
"HIC1";6,23555521631121e-05;-0,098598300061524;0,103;0,168;1
"DDIT4";6,52889319103857e-05;-0,191748847543516;0,602;0,666;1
"MT-ND6";7,12758598621466e-05;-0,130392035021616;0,564;0,651;1
"IL17F";7,29137844402494e-05;-0,325612054922471;0,121;0,194;1
"KLRG1";7,40910009690732e-05;0,137254053052195;0,321;0,234;1
"TPT1";7,45412147487794e-05;0,0726495476853759;1;0,999;1
"NDFIP1";8,20711290299239e-05;0,166108773296779;0,521;0,449;1
"AQP3";8,35447312256302e-05;0,0726230176791937;0,116;0,059;1
"STK26";8,42931864076412e-05;-0,134708986107695;0,32;0,406;1
"CD3D";8,59882505625161e-05;0,114247894861479;0,952;0,944;1
"MESD";8,61519437585267e-05;0,131991990254414;0,671;0,597;1
"SPCS2";8,75725822714228e-05;0,138589396317863;0,784;0,754;1
"CEP170";9,66514909974867e-05;-0,0900241928167051;0,132;0,205;1
"CSE1L";0,000107573889186662;-0,147949839769045;0,394;0,473;1
"ATP1B3";0,000115184255347201;0,113250850928312;0,756;0,71;1
"RPS4X";0,000115185912768539;0,075840302172776;0,999;0,999;1
"PSMA1";0,000132859209110158;0,120142364361452;0,785;0,731;1
"OST4";0,000136107707403747;0,116315802616614;0,848;0,827;1
"CTSC";0,000143469446607269;0,164903196851832;0,789;0,76;1
"PSMB2";0,000147117422056754;0,146676504775933;0,706;0,662;1
"HMMR";0,000150243415661618;-0,145974426659295;0,408;0,499;1
"RPL21";0,000159894388225259;-0,0608787671616304;1;0,997;1
"RPS13";0,000167346946060534;0,0695589050697265;0,995;0,997;1
"EIF3E";0,000169218263820973;0,13497900305771;0,803;0,755;1
"NECAP2";0,00017185200443759;0,103033697896417;0,286;0,205;1
"ZBTB32";0,000172294050099024;-0,122424267913706;0,516;0,589;1
"IRF2BP2";0,000173423135265342;-0,122133891118416;0,25;0,324;1
"BST2";0,000180841764347818;0,145949732397168;0,681;0,619;1
"TMBIM4";0,000191127668934318;0,116127348869792;0,473;0,393;1
"SEC61B";0,00019257655116806;0,0978476419351166;0,926;0,921;1
"NDUFA4";0,000196640397440894;0,101613904404805;0,928;0,912;1
"MEA1";0,000199930819874002;0,128492416627449;0,517;0,427;1
"SSR4";0,000201527224244663;0,114827002460487;0,94;0,931;1
"USP24";0,00021781850334102;-0,0888124724108892;0,163;0,236;1
"ZFP36L1";0,000230970586807862;0,170776846380406;0,553;0,465;1
"ZNF777";0,000233377126047275;-0,0734026538323674;0,061;0,113;1
"KDELR2";0,000246620825481601;0,128923185773805;0,637;0,579;1
"PLP2";0,000250445535394738;0,117247485825929;0,761;0,699;1
"LBH";0,000268157427634744;0,126475238443733;0,482;0,398;1
"UBE2S";0,000269290803741036;-0,132273925733437;0,804;0,839;1
"GNAS";0,000300798594996704;-0,121271821196387;0,738;0,783;1
"FAM89B";0,000307605485359357;0,124883280992882;0,328;0,252;1
"RPSA";0,000321019032551184;-0,0641383563548512;0,995;0,997;1
"NDUFB3";0,00037025661710661;0,115835270764656;0,74;0,679;1
"RAB5IF";0,000390362965918357;0,126804394250663;0,526;0,454;1
"GZMH";0,000394750003555799;0,141691501145013;0,502;0,422;1
"MBNL1";0,000394838028511142;-0,145254150406497;0,666;0,711;1
"TXNDC17";0,000395898143336426;-0,128993068343602;0,714;0,774;1
"ARL2BP";0,000400702092998792;0,0736786685126043;0,281;0,2;1
"GLIPR1";0,000414655518488199;0,0963572619643899;0,325;0,242;1
"TCEA1";0,00042108478561152;-0,130105799320034;0,671;0,716;1
"MT-ATP8";0,000440664794616314;-0,151190883223011;0,307;0,386;1
"HUWE1";0,000490347827420889;-0,103879750121002;0,701;0,751;1
"SH3BP5";0,000496802198839032;-0,0821112378616141;0,132;0,196;1
"USP48";0,000538312719075224;-0,141038424949029;0,429;0,493;1
"MYL12B";0,000548715474077616;0,0902367768169938;0,869;0,863;1
"DRAP1";0,000549213296000537;0,121606045710135;0,773;0,727;1
"ETHE1";0,000553587560800273;0,150300467881414;0,414;0,341;1
"ELP1";0,000554978021972908;-0,0828981934853216;0,114;0,174;1
"CD99";0,000556414885542582;0,10994150544168;0,643;0,598;1
"MRPL20";0,000557508357934122;0,117955571862367;0,794;0,743;1
"TMEM14A";0,000564541424597383;0,0936234050424628;0,198;0,136;1
"SELENOT";0,00057989604090362;0,113499223420637;0,553;0,473;1
"LGALS1";0,00058232364167897;-0,305535323335478;0,426;0,486;1
"EIF1";0,000583898064243703;0,0770210683571602;0,999;0,987;1
"AHR";0,000592764877392645;-0,062807988736425;0,084;0,138;1
"SIPA1";0,000597478993383194;-0,086029497522238;0,219;0,29;1
"RNF213";0,00061100018934915;-0,120743993668349;0,779;0,819;1
"RPL13";0,000615642493228001;-0,0599523901856909;1;0,999;1
"TNFAIP8";0,000622820027013435;0,0951874462349314;0,787;0,756;1
"TMEM120A";0,000631800909325046;0,0889710598978122;0,175;0,116;1
"KIF20B";0,000635472711889952;-0,128649458924039;0,45;0,521;1
"ELOC";0,000639665654447743;0,100946180970523;0,789;0,735;1
"ASPM";0,000661856692708565;-0,149342558243722;0,412;0,483;1
"DUSP5";0,00067602554487971;0,0617129438844758;0,307;0,224;1
"CTSA";0,000693981531121741;0,0881127602157501;0,327;0,249;1
"CSTB";0,00072630781529154;0,130652916863968;0,668;0,63;1
"CLCN7";0,000727909352566176;-0,0571818479247426;0,064;0,112;1
"UNC119B";0,000733837773466395;-0,0610275740698404;0,064;0,112;1
"TFRC";0,000737656694223634;-0,121396421235552;0,611;0,674;1
"TRBC1";0,000743025251693016;0,125759130679168;0,474;0,401;1
"SERP1";0,000745234821971244;0,0945938279484837;0,814;0,771;1
"ARPC3";0,000757072286842047;0,106246273740103;0,877;0,862;1
"NPC2";0,000781434508402434;0,0719883747571169;0,208;0,142;1
"NDUFV2";0,000783006739419067;0,0740962189777337;0,977;0,968;1
"TCOF1";0,000795219001646013;-0,123077278221996;0,493;0,562;1
"KDELR1";0,000812541982247527;0,09316851119039;0,554;0,467;1
"ARPC1B";0,000813083551035656;0,131029688611681;0,779;0,736;1
"WSB2";0,000819240878138066;0,0829841879915071;0,31;0,236;1
"IL2RG";0,000838815202949351;0,110382521618168;0,663;0,595;1
"FNBP1";0,000847937874166284;-0,0949409233637295;0,626;0,703;1
"PRR11";0,000863220380948542;-0,0834948091053302;0,197;0,266;1
"PPID";0,000866067537101683;-0,132975172634258;0,551;0,601;1
"SNHG15";0,000874906708467699;-0,117840689627906;0,516;0,571;1
"LRRFIP1";0,000919082681456179;-0,115275134011785;0,839;0,856;1
"CHCHD10";0,000926952425405413;-0,112897856603153;0,723;0,782;1
"HMGB2";0,000942507143263935;-0,123307664815428;0,809;0,86;1
"NCK2";0,000949239382727341;-0,0777173764590083;0,122;0,18;1
"MIR4435-2HG";0,000954062148926213;0,0982388627446857;0,319;0,245;1
"RPL29";0,000971586688889662;-0,0513141240692443;1;1;1
"OGG1";0,000995892595436087;0,0779806049785182;0,227;0,16;1
"DEPDC1";0,00103667313481777;-0,0525534582802958;0,057;0,101;1
"TMEM59";0,00103982682292544;0,120238108567288;0,526;0,455;1
"RNPS1";0,00104583843591661;-0,118885458658466;0,637;0,703;1
"SMARCA2";0,00105086771721147;-0,0901659688629084;0,347;0,422;1
"SLA";0,00106104814873097;0,138537048378661;0,682;0,642;1
"CENPF";0,00106162036178561;-0,147852429403978;0,475;0,542;1
"TRMT112";0,00106628303508055;0,115617250234098;0,776;0,727;1
"CDK6";0,00107700702197421;-0,112234443555847;0,738;0,791;1
"CSF1";0,00110948210693095;0,180464731818538;0,452;0,377;1
"SELENOH";0,00111281771854789;-0,115284158274636;0,736;0,77;1
"ORMDL1";0,0011387766478675;0,0897657961351624;0,587;0,513;1
"ACTR2";0,00117251564712019;-0,0934303243687684;0,747;0,794;1
"SRI";0,0011851814481795;0,100769879901848;0,773;0,736;1
"PSMD4";0,00120086840371134;0,111217374442098;0,687;0,626;1
"HCST";0,00120691356543362;0,189581557522554;0,616;0,567;1
"MANF";0,00121028705792107;0,0979672636820701;0,818;0,796;1
"CD69";0,00121323553375564;0,142867836028247;0,325;0,25;1
"HECTD4";0,00122004498029781;-0,0591558730434502;0,075;0,124;1
"TRAPPC1";0,00124440167582194;0,120559318623244;0,675;0,619;1
"BHLHE40";0,00126478880937832;-0,165698563490218;0,545;0,603;1
"SH3BGRL3";0,00127069740405459;0,100847478656133;0,973;0,968;1
"ITM2B";0,00128621055793625;0,128423312280066;0,48;0,407;1
"TMEM70";0,0013022360210451;0,0956868273681231;0,475;0,403;1
"KCNN4";0,00130747776142019;-0,105946174292466;0,137;0,194;1
"ADK";0,00134294424466791;0,100553345161984;0,482;0,405;1
"PLCG2";0,00135521485708575;-0,26427047765113;0,36;0,419;1
"CKLF";0,00139600363599237;0,112124812588502;0,644;0,591;1
"HMGA1";0,00140368601924321;-0,146509696564274;0,59;0,634;1
"NCR3";0,00140946602810941;0,128673070797192;0,602;0,514;1
"RPS21";0,00143818288599174;0,0644093025635337;0,987;0,981;1
"MTMR4";0,00150044393413057;-0,0630148028471675;0,161;0,225;1
"SENP6";0,00150297088551025;-0,0925831192529657;0,343;0,411;1
"MGAT1";0,00150873047781751;0,104430211085162;0,408;0,332;1
"AIFM1";0,00153030014690794;-0,0635520711612312;0,276;0,348;1
"MRPS36";0,00153210106726465;0,0810423230110265;0,602;0,519;1
"ATP5F1A";0,00166180620692737;-0,0965984899388626;0,753;0,788;1
"EPAS1";0,00169878660430722;-0,111839138148922;0,102;0,154;1
"PDCD1";0,0017302682551574;0,0696556147499563;0,217;0,157;1
"ALKBH5";0,00173284674641269;-0,0546796112933131;0,285;0,361;1
"ANKRD17";0,00176016774364606;-0,0832845044394748;0,342;0,411;1
"QRSL1";0,00176110201678558;-0,0866886821035844;0,139;0,196;1
"METRNL";0,00178354563038262;-0,137106186279529;0,288;0,353;1
"EVI2A";0,00181797603407921;0,0863146602805482;0,192;0,134;1
"MRPS6";0,00181852403336957;0,129276824379669;0,679;0,64;1
"IER3";0,00182662151655826;0,120171412776322;0,731;0,684;1
"SLC25A3";0,00183278775997996;0,0940661934250391;0,917;0,904;1
"ENO1";0,00183570000763255;-0,0610768490175397;0,991;0,989;1
"YBX3";0,00190824616304026;-0,117243350038928;0,412;0,474;1
"DDX39A";0,00193659154103837;0,116820107964716;0,675;0,63;1
"PLPP5";0,00195584419018268;0,105639263658733;0,253;0,188;1
"CXCR3";0,00198747917604366;0,0927682299982287;0,127;0,081;1
"FAM102A";0,00199353891423129;0,0637937725356235;0,114;0,069;1
"MGST3";0,0021202677023471;0,0816805084300567;0,468;0,395;1
"LRRC28";0,00212562409580655;0,0501404066774686;0,117;0,071;1
"VPS25";0,00214549341396856;0,0914132385380785;0,404;0,332;1
"COMMD1";0,00215261999911141;0,106031075332246;0,385;0,324;1
"TAF1B";0,00215954884830325;0,100015187242009;0,292;0,226;1
"KHDC4";0,00216203853817963;-0,0905199156757303;0,16;0,217;1
"AC073611.1";0,00217090461737961;0,107220708520326;0,25;0,188;1
"LRRC42";0,00218423793983445;0,0524309561644344;0,161;0,108;1
"DCAF7";0,00219009729146399;-0,0971639544398712;0,435;0,506;1
"EOMES";0,0022206663037394;0,169307585820041;0,295;0,23;1
"HIVEP3";0,00224080589700244;0,0507249062268638;0,175;0,119;1
"PLK1";0,00235458968866683;-0,103554294795906;0,193;0,254;1
"NAGK";0,00237035833887873;0,054875554546028;0,172;0,116;1
"JTB";0,00238301223294413;0,0994894113865046;0,789;0,783;1
"SQLE";0,00239045765817705;-0,0951923551737675;0,319;0,389;1
"NCAPD2";0,00239588857383467;-0,0967730136668342;0,338;0,401;1
"CCNB1";0,00248365354126287;-0,119239437248775;0,407;0,467;1
"FAM208B";0,00248737216971283;-0,0837483773140713;0,241;0,305;1
"HSPB11";0,00250523180081049;0,0840746451824915;0,632;0,57;1
"HLA-E";0,00251512760714216;0,0979515692351964;0,869;0,826;1
"SERPINB9";0,00252291900950039;-0,0824577424142879;0,28;0,348;1
"CD164";0,00252887719225944;0,109962073010996;0,581;0,518;1
"CRELD2";0,00255175806913756;0,113764464045617;0,478;0,409;1
"VEGFB";0,0025740945381201;-0,115935319548867;0,248;0,306;1
"FLNA";0,00258891451001002;-0,132326420476647;0,753;0,796;1
"INPP5D";0,00261805509048977;-0,088563172934647;0,139;0,193;1
"FAM20B";0,00262494786714973;-0,108892989327881;0,139;0,189;1
"ILF3";0,00263518685532758;-0,106146335788893;0,656;0,71;1
"REEP5";0,00263858550438867;0,113121639406017;0,675;0,617;1
"PPM1M";0,00266276356219092;0,0879303870476405;0,236;0,173;1
"CMTM6";0,00266863586943773;0,101139321444384;0,687;0,635;1
"SNX10";0,00272782760532681;0,110881070425504;0,465;0,403;1
"STAT3";0,00274542321542014;-0,0842913408099573;0,487;0,542;1
"NOP10";0,00275279456498133;0,0990712539412133;0,799;0,759;1
"GNPDA2";0,00278433827142608;0,0617993921411101;0,225;0,164;1
"SIVA1";0,00283408278436433;0,0786696801178939;0,776;0,74;1
"GMPPA";0,00288414737571469;0,0557241842380131;0,25;0,185;1
"STK10";0,00289536650775919;-0,0914546604807971;0,321;0,386;1
"ARHGAP11A";0,00290132599686802;-0,111638101643295;0,296;0,354;1
"SLAMF1";0,00290763757058106;0,059209518986401;0,645;0,581;1
"PSMA7";0,00292320824779618;0,0675283931964352;0,953;0,963;1
"KMT5A";0,00296259753891879;-0,111128268711593;0,258;0,32;1
"GLMN";0,00296470756472066;0,0684216781792928;0,258;0,196;1
"CENPE";0,00297216261129402;-0,155007281517615;0,324;0,381;1
"BTF3";0,00305289903881414;0,0736226563183671;0,935;0,925;1
"VDAC1";0,00307242461801965;-0,0813535385717898;0,82;0,854;1
"ATP6V1D";0,00310984413227893;0,0891414671948075;0,296;0,236;1
"SNX9";0,00317358842529295;0,0862721954784155;0,517;0,447;1
"USP33";0,00318024268397105;-0,0857259659779005;0,179;0,236;1
"BLOC1S2";0,00319848427668032;0,109274203819544;0,417;0,354;1
"DAZAP2";0,00328511943093441;0,088848077783507;0,417;0,346;1
"RPL28";0,00329145709745613;-0,0573741435409207;1;1;1
"PLSCR1";0,0034009356752539;0,0663729476068597;0,211;0,153;1
"CLPX";0,00347445500397686;-0,105401411419215;0,262;0,32;1
"CARMIL2";0,00360242731676166;-0,0820729014371849;0,132;0,184;1
"PCMT1";0,00375810414647964;0,0940245413466432;0,601;0,545;1
"RPS15A";0,00375962785503572;0,0575086500805488;0,999;0,996;1
"FNIP2";0,00378452704823902;-0,0856298840249106;0,198;0,257;1
"BZW1";0,0038087377307584;0,0769978742686062;0,892;0,872;1
"FXR1";0,00382970235929094;-0,1098869525515;0,502;0,567;1
"TIMP1";0,00388833087097149;-0,128773556876614;0,108;0,157;1
"ZWILCH";0,0038919265066749;-0,0590145532768126;0,193;0,254;1
"NLE1";0,00391248820868457;-0,0646949346195111;0,147;0,201;1
"MRPL33";0,00391399154590815;0,067999070921466;0,74;0,707;1
"SSR3";0,00391704868166123;0,0780382227800385;0,766;0,748;1
"SNRPB";0,00392638450673515;0,0868617394177855;0,933;0,917;1
"SPTBN1";0,00393880568820664;-0,113184919449868;0,323;0,389;1
"PDIA6";0,00396701534245463;0,0923576882308306;0,855;0,828;1
"RPL35A";0,00398368439544159;-0,0629678067458195;1;0,997;1
"NUDT3";0,00401056698398304;-0,0705217500405947;0,191;0,249;1
"RHOA";0,00402652799679149;0,0737426392940002;0,831;0,814;1
"TRAC";0,00403915666780127;0,13409113493054;0,788;0,778;1
"AIF1";0,00413313802778724;-0,0897324312661477;0,111;0,157;1
"LSM1";0,00414620826487657;0,0559201619225853;0,455;0,377;1
"PAFAH1B2";0,00415975586593036;-0,0697071728400979;0,324;0,383;1
"DPM2";0,00421275128490127;0,0999121506901152;0,461;0,403;1
"METTL26";0,00423742743003853;-0,12168607067311;0,676;0,707;1
"PNN";0,00425856096343206;-0,082245256661015;0,756;0,778;1
"CAPZB";0,00429333251429353;0,0875890289461357;0,691;0,646;1
"ORMDL2";0,00430559245621616;0,0994819403100559;0,414;0,348;1
"TEX30";0,00433046761794721;0,096772014330557;0,445;0,382;1
"AC093323.1";0,00435101401422463;-0,0570857520070282;0,123;0,173;1
"PSMC2";0,00436694300361151;0,0899402254182039;0,531;0,455;1
"HK1";0,00436790984781165;-0,0993138607301194;0,555;0,606;1
"GTF2A2";0,00438195108507809;0,0940470690054818;0,69;0,647;1
"RPL37";0,00440533677189511;-0,0543854707672478;0,999;1;1
"EIF2AK2";0,0044649212138217;-0,0805563804691747;0,394;0,457;1
"LMAN2";0,00450718027450217;0,0992905592416665;0,63;0,566;1
"NCL";0,00452745886572498;-0,103318010078788;0,954;0,972;1
"PRDX6";0,00454154915173999;0,0686507254347105;0,691;0,654;1
"MRPS25";0,00461333236319681;-0,0979999147830977;0,474;0,537;1
"GRK2";0,00464278219869158;-0,082196798594586;0,445;0,503;1
"LAPTM4A";0,00469309928286685;0,0982811772531919;0,268;0,208;1
"RAC1";0,00471349634663734;0,0847656505990035;0,797;0,755;1
"SLMAP";0,00472180539560729;-0,0659005606108072;0,174;0,228;1
"TUBB4B";0,00474064819453946;0,0940256376694102;0,835;0,791;1
"EFTUD2";0,00485578677398926;-0,0809673622139099;0,348;0,409;1
"MTRNR2L1";0,00486703421017201;-0,0629737346182777;0,07;0,112;1
"XPO1";0,00489664783389658;-0,0866739993890084;0,598;0,66;1
"KRT10";0,00494378331768393;0,0681617477940246;0,619;0,57;1
"NPRL3";0,00495822942765248;-0,0690643428756805;0,23;0,289;1
"SATB1";0,0049788787485295;-0,108928880147242;0,752;0,8;1
"C12orf73";0,00501042307710844;0,0728983396688319;0,295;0,232;1
"PAG1";0,00501684077820288;-0,123768355787656;0,249;0,306;1
"CLIC1";0,005037488782918;0,0677979410357858;0,924;0,913;1
"GNLY";0,00504618734300463;-0,526473586696745;0,282;0,338;1
"STXBP5";0,00506743718387733;-0,0566113836164499;0,13;0,181;1
"RPS7";0,0050953205426887;0,0503509469303851;0,999;0,992;1
"DLGAP5";0,00516805364517003;-0,0791886608987621;0,314;0,375;1
"DDB1";0,00518358083594967;-0,0726231144081103;0,436;0,509;1
"ICAM3";0,00525438405049232;0,126588821802896;0,466;0,406;1
"H2AFX";0,00528125147262178;-0,108009994758662;0,513;0,569;1
"BRD3";0,00528674257611356;-0,0713753527641848;0,113;0,161;1
"RFC3";0,00531620573011507;-0,0749311441941759;0,337;0,399;1
"HK2";0,00537440235025434;-0,0564958743753275;0,16;0,213;1
"FEM1B";0,0054117075685003;-0,0680207682016132;0,119;0,166;1
"SAMD1";0,0054243138000795;-0,0614447497360872;0,241;0,305;1
"ST3GAL2";0,00554818733753681;-0,0522162496961828;0,078;0,12;1
"DYNLL1";0,00574808297559325;0,0779988638068325;0,839;0,806;1
"CDCA7";0,00578739969738363;-0,0568193344833279;0,144;0,196;1
"SRSF9";0,0058069050115211;0,093143008453235;0,803;0,784;1
"HP1BP3";0,00580938012386803;-0,109112157636113;0,562;0,613;1
"CAMK2D";0,00585014858102398;0,0899377339324102;0,404;0,341;1
"NUDT8";0,00597682004750044;-0,0924035908106977;0,255;0,313;1
"IQCG";0,0060846709099068;-0,249999763183359;0,344;0,401;1
"PSMD8";0,00610741895010381;0,0723679834159323;0,853;0,82;1
"RPAP3";0,00610890816118459;-0,0883787921132763;0,245;0,298;1
"DOK2";0,00613700836970309;0,0925518567093382;0,33;0,266;1
"TMPO";0,00618398817301571;-0,0854798459328661;0,74;0,772;1
"GFI1";0,00619297641999429;0,0659161670236203;0,197;0,145;1
"BMS1";0,00622105123612978;-0,08912743468532;0,492;0,545;1
"PYCARD";0,00622299938923938;0,0860140540768374;0,266;0,209;1
"GK";0,00623258253678865;-0,0771576088516625;0,161;0,212;1
"PPIH";0,00623490612053814;0,0763877997433808;0,414;0,345;1
"ENSA";0,00624730691025731;0,104629293723476;0,649;0,61;1
"QKI";0,006278349985917;-0,080295324196174;0,225;0,281;1
"EML4";0,0063435023682822;-0,101436813179332;0,348;0,401;1
"DCP1A";0,00640247029466708;-0,0778155742014973;0,24;0,298;1
"SMARCA5";0,00644385510409739;-0,0839631994990149;0,685;0,742;1
"VAV1";0,00648359620808569;-0,0567360666923101;0,201;0,258;1
"PIGV";0,00650268593050863;0,0576081439377248;0,147;0,103;1
"DOT1L";0,00653753684999295;-0,0522001651536476;0,177;0,232;1
"MSMO1";0,00664067145572445;0,0763740956227124;0,281;0,221;1
"UBALD1";0,00666562130061245;-0,0516174483044174;0,075;0,115;1
"DDX23";0,00673499369155745;-0,0785504603212784;0,402;0,458;1
"ZBTB1";0,00678034989074912;0,0691730706980111;0,238;0,178;1
"PSMA3";0,00678790785368116;0,0901563737881652;0,781;0,767;1
"SAP18";0,00689149718383425;0,0670519924001465;0,794;0,763;1
"SNRNP40";0,00695244288955631;0,0757052757033532;0,457;0,391;1
"RPS10";0,0070640672793931;0,0878038159871501;0,858;0,848;1
"NMRK1";0,00706602306661524;0,0626324818625414;0,21;0,156;1
"MYH9";0,00710129982719782;-0,101059130025129;0,742;0,808;1
"LRRC58";0,00711274374330099;-0,0822071209149978;0,352;0,419;1
"FAM32A";0,00712696645324656;0,0514343115110585;0,376;0,308;1
"SRSF11";0,0071332432484705;-0,0909334859259916;0,752;0,784;1
"KARS";0,00716309584449889;-0,103999564029309;0,502;0,562;1
"CRYZ";0,00720620018785898;-0,0676196643045311;0,093;0,136;1
"ZFAND2B";0,00722636834948724;0,0664740797183923;0,225;0,169;1
"CHD7";0,0072271366742132;-0,0822734333023071;0,182;0,233;1
"CSNK2B";0,00723983580072953;0,0914539838576061;0,652;0,619;1
"ANXA5";0,00724632367186094;0,0850232542804705;0,607;0,553;1
"SYMPK";0,0072488398013004;-0,0697086623697254;0,215;0,272;1
"PPP5C";0,00726567871633139;-0,0707317243520403;0,357;0,419;1
"TYROBP";0,00728518366946433;0,0694837488883811;0,104;0,065;1
"CAPN7";0,00747681730427454;-0,0816520638882851;0,15;0,198;1
"CSTF2";0,00747735822266468;0,0561348573319495;0,187;0,137;1
"RPL35";0,00748568429881081;-0,0520892533448274;0,996;0,999;1
"EIF2AK1";0,0075162012225031;-0,0970929086011127;0,419;0,475;1
"ABRACL";0,00763933372101907;0,0890277648109341;0,766;0,755;1
"PDXDC1";0,00765277347389776;-0,0723236820894481;0,183;0,234;1
"TATDN2";0,00774672050577879;-0,0771649393749095;0,09;0,13;1
"UTP18";0,00786567252453091;-0,104574567809184;0,384;0,427;1
"PIM1";0,00796220467109488;-0,0750029993048511;0,376;0,439;1
"WDR24";0,00796272665253524;-0,0549122123802793;0,07;0,108;1
"TPX2";0,00796558686564508;-0,13012912548251;0,541;0,586;1
"SH3KBP1";0,00803072403945682;0,111792084534603;0,571;0,506;1
"DPH3";0,00803215081859262;0,0852589527560691;0,417;0,357;1
"HDAC7";0,00806630965442297;-0,0636228131809072;0,365;0,431;1
"MTRNR2L12";0,00815592401857557;-0,0721702381184326;0,56;0,621;1
"POLR2J3.1";0,00820019165295937;-0,0783430519241946;0,418;0,485;1
"TMEM11";0,00821462420898107;0,0667139275648354;0,33;0,268;1
"METAP1";0,00823427053608799;-0,0863197978863224;0,221;0,274;1
"DPP4";0,00826529314204816;0,0965463645976284;0,463;0,405;1
"GMFG";0,00827281915884672;0,0743756477704789;0,83;0,784;1
"SCPEP1";0,00830751012897587;0,0881071424793956;0,136;0,095;1
"FAM222B";0,00832391248851309;-0,0884383963828046;0,093;0,133;1
"SENP5";0,00836157199891832;0,0690705799122486;0,28;0,222;1
"ORAI1";0,00847374841028009;0,0842052641693529;0,433;0,364;1
"LITAF";0,00848868404455875;0,0849525930698292;0,497;0,426;1
"JUND";0,00849849237756358;-0,0929317478772467;0,64;0,696;1
"ATP6V0B";0,00850378191059419;0,0967622213234312;0,761;0,759;1
"F5";0,00858576221263245;0,100761809981829;0,234;0,18;1
"ERLEC1";0,00863742586961818;0,104542791215751;0,452;0,39;1
"PUM2";0,00875472482118147;-0,0971962517625257;0,267;0,324;1
"KLHL20";0,00877017474959401;-0,0511754117996691;0,067;0,104;1
"SLAMF7";0,00882560653323036;-0,0803207016796472;0,166;0,217;1
"ATF5";0,00888127446900778;0,102373082166211;0,244;0,193;1
"UTRN";0,00911739655791757;-0,0500008872202028;0,172;0,228;1
"PDIA3";0,00917101721488535;0,0865039144543707;0,816;0,802;1
"PTPRE";0,00918320290429018;0,0702109184311595;0,272;0,216;1
"C4orf3";0,00944462350327075;0,0975068225066289;0,605;0,55;1
"ATP5F1C";0,00945094353690958;0,0621810308505487;0,686;0,628;1
"IRF4";0,00958399993294884;-0,07659733015269;0,457;0,513;1
"ITPKB";0,00959916731380723;-0,0522179366625717;0,065;0,101;1
"TSEN15";0,00995375263230069;0,0775702493688151;0,325;0,265;1
"LBR";0,010039323135595;-0,0909281516241313;0,502;0,55;1
"CASP1";0,0102053541359927;0,076980151914108;0,238;0,185;1
"RPL13A";0,0102232985246503;-0,050797984430508;1;0,999;1
"EFHD2";0,0102642204122988;0,0893195385816142;0,685;0,631;1
"KLRD1";0,0102742530461226;0,136225819476981;0,305;0,248;1
"PSMB5";0,0102882707024527;0,0906525504593507;0,661;0,61;1
"ATP5MG";0,0103682726741157;0,0740099848638258;0,931;0,927;1
"SELENOF";0,0103714775422694;0,063980962778928;0,515;0,451;1
"YDJC";0,0104500003731796;-0,0814488139203544;0,371;0,419;1
"C21orf58";0,0104508019784991;-0,0732631691560129;0,189;0,242;1
"PSMG4";0,0104943636554702;-0,0794446380936197;0,333;0,387;1
"CCDC130";0,010494865154904;0,0694171574900823;0,207;0,157;1
"SNHG25";0,0105684272821288;-0,088620523286228;0,319;0,37;1
"ACAT2";0,0105765322515925;0,0857057664299377;0,524;0,459;1
"AURKB";0,0107130019669079;-0,100160923109316;0,381;0,437;1
"PTTG1";0,0107325826811867;-0,0874827166857776;0,463;0,518;1
"TMEM208";0,0107845347319962;0,106163783066682;0,654;0,609;1
"ATP6V1G1";0,0108198123457022;0,0878773864337877;0,496;0,442;1
"SSBP1";0,0108593453360714;0,0836110575225788;0,841;0,81;1
"UQCRFS1";0,0108839877192313;-0,0759645679899875;0,652;0,684;1
"GBP2";0,0109205961627087;0,116946241314343;0,703;0,675;1
"FNIP1";0,0109242661575278;-0,0615297973657674;0,103;0,144;1
"TMED8";0,0109270853464985;-0,0704738846202188;0,203;0,256;1
"DIAPH2";0,0110736683949893;-0,0576100289749344;0,123;0,166;1
"TARBP1";0,0111377147667449;-0,0527493358838273;0,097;0,137;1
"DECR1";0,0111570076046207;0,110130194313493;0,408;0,352;1
"PRKCE";0,0111909773572935;-0,0771225483431247;0,071;0,107;1
"PMAIP1";0,0112079004148989;0,0672323789236066;0,475;0,407;1
"CCL28";0,0112192116261922;-0,0862168893644253;0,091;0,13;1
"SRSF7";0,0113318614488854;0,0800496668032358;0,872;0,835;1
"SELENOO";0,0113838888319554;-0,050585131555083;0,075;0,112;1
"NDUFA12";0,0114678426422535;0,0679789068181023;0,682;0,646;1
"DYNC1H1";0,0115143229372444;-0,0878949901919647;0,54;0,586;1
"GALNT10";0,0115998064016225;-0,0774200735997449;0,166;0,213;1
"ETS1";0,0116463052054862;-0,0903766904401906;0,799;0,838;1
"ZNF292";0,0116624238840031;-0,0843421627637717;0,366;0,418;1
"COMMD2";0,011687554019749;0,0622292001488787;0,324;0,26;1
"CYTOR";0,011819779807267;0,0699441881144203;0,579;0,527;1
"BTG2";0,0118447525607283;0,0613740946552833;0,551;0,483;1
"ST3GAL1";0,0119395326740353;-0,0916583548391549;0,258;0,305;1
"PIGH";0,0119567298111515;0,054844106466413;0,197;0,149;1
"TRNAU1AP";0,0119653764579199;0,061546606051346;0,375;0,309;1
"S1PR1";0,0119876122806622;-0,0913009636567396;0,156;0,2;1
"GOLGA3";0,0120949133519324;-0,110973113873651;0,32;0,366;1
"CCR7";0,0121287474191325;-0,0645624140546659;0,201;0,253;1
"RAD54L";0,0121521255148535;-0,0520436324740019;0,126;0,169;1
"UNC50";0,0121555492390743;0,056858689883187;0,292;0,234;1
"NDUFA1";0,012298257087953;0,0719822881066716;0,78;0,748;1
"ARL4C";0,0124761889780889;-0,15673055948131;0,412;0,459;1
"CFL1";0,0126086050007441;0,0542329755511566;0,973;0,976;1
"PDCD2";0,0126258166505749;0,0674397310823849;0,593;0,534;1
"RUNX3";0,0126330253409594;-0,0617038618190031;0,537;0,594;1
"MACF1";0,0126568150801202;-0,118383438244589;0,593;0,646;1
"HIGD1A";0,012705234332341;0,0845044932188046;0,388;0,338;1
"MUS81";0,0127315199960184;0,0536134520854384;0,221;0,17;1
"STARD3NL";0,0128209073340446;0,0805737196001872;0,285;0,23;1
"SACS";0,0128607193241225;-0,0731252509914115;0,329;0,391;1
"YWHAZ";0,0130135533411198;-0,0644836224199454;0,808;0,862;1
"VDR";0,0130355791419767;-0,0863137544928092;0,37;0,426;1
"NBN";0,0130370491740487;0,0644316214474481;0,351;0,289;1
"CES2";0,0130625497708022;-0,0698295974230614;0,13;0,17;1
"EGR2";0,0132462962561251;0,0838003421450103;0,113;0,077;1
"COX6C";0,0133472309393007;0,0705856817307344;0,884;0,884;1
"HM13";0,0134265074802743;0,0539534743261897;0,578;0,51;1
"SLC35B2";0,0134818310922602;0,0763239851327547;0,173;0,126;1
"COPRS";0,0135251984319635;0,0810645110052253;0,44;0,382;1
"DPY30";0,0135859605107354;0,0588752757600564;0,473;0,405;1
"EIF1B";0,0136919157937518;0,0573487073726263;0,501;0,439;1
"PXN";0,0137045504116888;-0,071484579317642;0,126;0,166;1
"CELF2";0,0137804464991025;-0,0924877607579704;0,658;0,698;1
"ME2";0,0138086762102613;-0,0954669822671912;0,452;0,494;1
"LMNA";0,0138125314591332;-0,100582997045408;0,241;0,29;1
"TULP4";0,0138192223315333;0,0646355997261664;0,136;0,096;1
"IFI35";0,0138286010352624;0,0604426640265622;0,247;0,194;1
"ATG3";0,0139288229666867;0,0787036927028235;0,474;0,413;1
"EIF4B";0,0139490552598521;-0,0680982366510396;0,705;0,736;1
"SMC3";0,0141496241203402;0,0939595572894023;0,732;0,68;1
"FAM204A";0,0142808670658298;0,0598334028806785;0,465;0,399;1
"MED10";0,0143625190898791;0,0754555632643419;0,502;0,446;1
"PDHA1";0,0144782756183254;0,0739022766422307;0,479;0,418;1
"GTSE1";0,0145181062650513;-0,0826734575162978;0,332;0,382;1
"DHX32";0,0145184875970961;-0,0614238885637426;0,1;0,14;1
"RASGRP1";0,0146149479946112;0,0939856869859486;0,501;0,445;1
"TMEM181";0,0146557864048694;-0,0519627051283018;0,149;0,193;1
"RTN3";0,0146853357838093;0,0746211370392291;0,375;0,321;1
"EMC4";0,0147270847509681;0,087463301303508;0,488;0,447;1
"DCAF13";0,0147367881851635;0,082969473041866;0,521;0,459;1
"DPP7";0,0147557208125311;-0,0639295455834347;0,56;0,607;1
"MORF4L1";0,0148176643494681;-0,0760396023859506;0,734;0,759;1
"AK6";0,0148329811742355;0,0623361623156613;0,503;0,446;1
"KLF13";0,0149015487033732;-0,0715147318744347;0,436;0,491;1
"PFDN4";0,0149033028764435;0,0943004397498657;0,461;0,411;1
"COMMD4";0,0150178600131974;0,0880283199844994;0,464;0,415;1
"MAP2K4";0,0151304087420422;0,0788379981904943;0,186;0,141;1
"ATP6V1H";0,015226406916593;0,0853049437536961;0,164;0,124;1
"SFMBT1";0,0152380390600269;0,0519002674818321;0,131;0,092;1
"MKI67";0,0152401118442965;-0,112752042309756;0,668;0,712;1
"PRRC2A";0,01525394689072;-0,101128890104922;0,413;0,462;1
"NFU1";0,015333201687535;0,0592790938126352;0,257;0,205;1
"EEF2K";0,0154893880678136;-0,0554336486944977;0,093;0,13;1
"TNFSF10";0,0155318881444403;-0,0660455607695852;0,175;0,225;1
"STX4";0,0155400203165852;0,0545546084256145;0,259;0,208;1
"MED13";0,0155675759594259;-0,0731789317465046;0,206;0,253;1
"SLC25A5";0,0155814772408833;0,0755879645654336;0,86;0,874;1
"ATP5MC1";0,0156419216114171;0,084797538326044;0,806;0,807;1
"NBR1";0,0156689055844383;-0,0642459949575904;0,131;0,173;1
"N4BP1";0,0156982132206769;0,0654100699006776;0,323;0,266;1
"ARL6IP4";0,0157675528124105;-0,0768202287861501;0,848;0,858;1
"MCM4";0,0158122770867208;-0,0948942241528189;0,609;0,63;1
"SUPT4H1";0,0160042127001579;0,0821058846317057;0,565;0,519;1
"POLB";0,0162517267312707;-0,0570621234387199;0,116;0,156;1
"DDX5";0,0163254200206629;0,0810683083196528;0,893;0,863;1
"RRP1B";0,0163436861623392;-0,072756059334271;0,516;0,57;1
"SH2D2A";0,0163469531072266;-0,0784213324186278;0,682;0,728;1
"PPP3R1";0,0163734620637623;-0,0944920494680322;0,201;0,245;1
"ACADM";0,0164156540305985;0,0642088073926074;0,518;0,461;1
"DCXR";0,0164218230318278;-0,0769637665508133;0,521;0,567;1
"SPCS1";0,0165047936866238;0,0729240625732011;0,746;0,683;1
"COX6B1";0,0166048232808668;0,0743673013476596;0,85;0,842;1
"SCCPDH";0,0166231495959911;0,104679403783597;0,341;0,289;1
"MRPL42";0,0166677032511732;-0,0621566679822457;0,353;0,411;1
"JPT1";0,0167633200763812;-0,072080533143255;0,732;0,764;1
"TCP1";0,0167794038277242;-0,0532738728316833;0,756;0,8;1
"KDM3A";0,0168174459885428;-0,0681670369653276;0,091;0,128;1
"M6PR";0,0168438391498716;0,0778315044384029;0,593;0,546;1
"HAVCR2";0,0171629345156726;0,0975831328815261;0,36;0,302;1
"CST7";0,0172530990410854;0,115957323827821;0,773;0,747;1
"SAP130";0,0172811318888205;-0,0611362207109478;0,076;0,111;1
"RAB11FIP1";0,0173447463074322;0,0995507051637603;0,555;0,493;1
"YEATS4";0,0173856534532786;0,0880090699930412;0,381;0,326;1
"ETF1";0,0175352482278042;-0,0809457637594135;0,597;0,64;1
"MYO1C";0,0175545804342195;-0,0515149504362501;0,083;0,119;1
"LTA";0,0176167762923725;0,0783065338049509;0,963;0,956;1
"FAM96B";0,0179123529851624;0,0805119199117632;0,821;0,812;1
"TMSB4X";0,0180469227669146;0,0586807376064824;0,996;0,999;1
"MRPL32";0,0183728350788887;0,0610203769569569;0,479;0,425;1
"ADNP";0,0185075667364592;-0,103152278018518;0,234;0,28;1
"COPS8";0,0185422996874341;0,0638558859470795;0,343;0,288;1
"ZNF622";0,0185735113036671;0,0633153106180093;0,389;0,336;1
"BIRC5";0,0185817169307949;-0,06073604445245;0,469;0,529;1
"JAML";0,0186858909327636;0,109922501264536;0,487;0,441;1
"TRAPPC3";0,0187660702007695;-0,0815785129426838;0,403;0,451;1
"DNAJC5";0,0188253870565314;-0,082036412026684;0,224;0,268;1
"RPL36AL";0,0188421993396561;0,0590354253504977;0,983;0,98;1
"BIN2";0,0188579051027059;0,0660376861212015;0,371;0,316;1
"SYTL3";0,0188748439717692;-0,108827285247844;0,532;0,583;1
"UBE3C";0,0189114076320096;-0,0957049998660553;0,281;0,329;1
"SPCS3";0,0190393180476036;0,0527556174913437;0,828;0,82;1
"PELP1";0,0190409361172074;-0,0770849184559763;0,389;0,442;1
"BRK1";0,0190609637118151;0,0962476349177268;0,663;0,632;1
"MRPS18B";0,0194273903803668;-0,0895635376370066;0,466;0,511;1
"AGTRAP";0,0198321141273012;0,0572252365017382;0,135;0,097;1
"ITGB7";0,0198648346599823;0,085014034531025;0,36;0,308;1
"P4HB";0,0198945606033077;0,0776205916222663;0,784;0,763;1
"CSNK2A2";0,0199783801663248;-0,0769514008903333;0,26;0,306;1
"NDFIP2";0,0199860880259086;0,0746374138445685;0,563;0,514;1
"AEBP2";0,0200045030610719;-0,0557501446991083;0,183;0,229;1
"KIF1C";0,0200331916488824;-0,0506528315586151;0,126;0,165;1
"EID1";0,0203449272876032;-0,0659972836983778;0,764;0,8;1
"SELENOS";0,0203592878674489;0,117802634454495;0,569;0,539;1
"DYRK2";0,0205024992072588;-0,054340525438543;0,108;0,145;1
"LARP1";0,020512117913782;-0,0754283480843094;0,553;0,603;1
"CYSTM1";0,0205173322553881;0,050485867481973;0,22;0,173;1
"PNP";0,0205914721949182;0,0718863777037149;0,591;0,541;1
"NMT1";0,0207260603705287;-0,0961731311249823;0,394;0,439;1
"SMIM4";0,0207739716692827;0,0527442148909638;0,26;0,21;1
"SNRNP27";0,0208997216180259;0,082025870602445;0,438;0,39;1
"KRR1";0,0210197337976803;0,097071768093786;0,619;0,586;1
"RNF181";0,0211413687287314;0,0773614346094281;0,539;0,499;1
"NOP53";0,0212031853720307;-0,06472774818506;0,621;0,67;1
"GNB2";0,0213158716517458;-0,0523797817559618;0,654;0,69;1
"KPNA6";0,0214917131702123;-0,0681112868910116;0,297;0,348;1
"HDGFL3";0,0215829783731979;-0,0839796025528238;0,102;0,137;1
"PIBF1";0,0216766838727333;-0,0719493328059119;0,108;0,144;1
"WDR83OS";0,0217019729156075;0,0914328835254123;0,693;0,672;1
"COQ10B";0,0217316846381732;0,0560422773628922;0,231;0,185;1
"MON1B";0,0217448307980002;-0,0561648826448367;0,166;0,212;1
"IL10RA";0,0218799853131703;0,0892179014240314;0,149;0,111;1
"NFKBIA";0,0219968924826462;0,118865545045746;0,731;0,692;1
"ATP5MPL";0,0220460567333979;0,0633368054079557;0,801;0,782;1
"SDHC";0,0221318716002383;0,076825897109022;0,447;0,391;1
"DDX54";0,0221673902613074;-0,0820689967371686;0,38;0,421;1
"HNRNPR";0,0223168225649023;-0,0647387932593475;0,766;0,831;1
"EBPL";0,0223555066615585;0,0569055191287318;0,344;0,289;1
"CSF2";0,0223859921821352;0,0533934853793132;0,407;0,345;1
"ZMYM2";0,0224784019261861;-0,0722302722553477;0,117;0,156;1
"DIAPH3";0,0224859424419358;-0,0841354493508792;0,281;0,318;1
"TDG";0,0225084144804283;-0,0872434440298905;0,476;0,518;1
"ZRANB2";0,0228616292444993;-0,0811701571064528;0,635;0,659;1
"PGAM1";0,0228668712933034;0,0725241582503307;0,952;0,939;1
"DERL2";0,0231002499856341;0,0682192085825697;0,382;0,325;1
"SLC25A36";0,0231726778110865;-0,0663246719980368;0,269;0,32;1
"RUBCN";0,0232566859856409;-0,0563178154403837;0,075;0,107;1
"CLEC2B";0,0233542208250905;0,0543716768174894;0,385;0,332;1
"ADAM19";0,0233812794181605;-0,0892414001323796;0,252;0,297;1
"NINJ1";0,023403892103349;-0,05855988008344;0,21;0,257;1
"MFSD14B";0,0234862902433392;-0,0700830306903682;0,192;0,236;1
"LTBP4";0,0237895059301742;-0,0637641699382632;0,117;0,154;1
"PANK2";0,0237996803870187;0,0516501558984595;0,274;0,228;1
"CFAP36";0,0238255255170275;-0,0674961088565167;0,269;0,318;1
"PSMA5";0,0238848064477632;0,0720627652026886;0,814;0,77;1
"FXYD5";0,0239000943392053;0,072906798955906;0,831;0,786;1
"RNF214";0,0239639831690583;-0,0637828498657641;0,137;0,176;1
"ANKH";0,0241054660206181;-0,0744414818108959;0,213;0,258;1
"ASNA1";0,0242236188047136;0,0802674362793475;0,432;0,383;1
"DUSP2";0,0242339972957135;0,111452360293981;0,659;0,611;1
"CDK16";0,0242592854518047;-0,0560040743380013;0,136;0,176;1
"SPATS2";0,024326299526097;-0,05933872395262;0,098;0,132;1
"PAQR4";0,0243494518513766;0,0545666046252942;0,116;0,083;1
"SELPLG";0,0243891219012279;-0,0726570377261044;0,159;0,2;1
"VKORC1";0,0244153219298598;0,0501752882881803;0,427;0,365;1
"ANAPC16";0,0245003090734029;-0,0738394881414604;0,637;0,678;1
"ALOX5AP";0,0245684121941238;0,182168839506998;0,468;0,427;1
"CYLD";0,0245988863758475;0,111490681590109;0,394;0,345;1
"ZNHIT6";0,0247182983273608;-0,0718505959063139;0,313;0,364;1
"PRKAR1B";0,0249486534235062;0,0617262087051527;0,301;0,253;1
"EIF2S2";0,0250245619291825;-0,0515322856880236;0,891;0,877;1
"NCOA2";0,0250291524248105;0,0778133607243109;0,436;0,385;1
"TXN";0,025094341005952;0,0523193798436687;0,971;0,969;1
"PSIP1";0,0251213972204843;-0,100307654206823;0,609;0,635;1
"PREP";0,0251399754427879;0,062545461740056;0,194;0,152;1
"RAP1B";0,0251764570779136;0,0740049405926477;0,817;0,807;1
"MAP3K4";0,0252634215102632;0,0609238937041304;0,255;0,206;1
"ATRAID";0,0253758292240053;0,0539484118006656;0,457;0,403;1
"CHMP5";0,0255562271105895;0,0556176655714468;0,436;0,383;1
"ARL1";0,0256335495788012;0,0627563878572383;0,428;0,373;1
"ELMSAN1";0,0256454018814948;-0,054029029645517;0,156;0,198;1
"H3F3B";0,0257255136101132;0,0563492090510262;0,99;0,98;1
"MAZ";0,0259858773920763;-0,0630288094837946;0,529;0,581;1
"RNF114";0,0260151553529575;-0,0609598098282461;0,3;0,344;1
"NDUFB6";0,0262169924189456;0,0987261171786128;0,569;0,526;1
"MMADHC";0,0262750113531424;-0,0590633582939392;0,465;0,515;1
"U2SURP";0,0263291162092591;-0,0717049366990554;0,661;0,692;1
"CDC20";0,0264401447486292;-0,108700432233093;0,388;0,427;1
"FKBP11";0,02649993211267;0,101624453374122;0,875;0,871;1
"TIFA";0,0266179052144329;0,0524829511059864;0,292;0,241;1
"SDF2L1";0,0266670400358716;0,0638897409321857;0,789;0,766;1
"VPS36";0,0269412011243618;0,0665739776485031;0,385;0,324;1
"CLOCK";0,0269676938854953;-0,0771853232070398;0,1;0,134;1
"HLA-DPA1";0,0271482225340667;-0,0677104931022972;0,23;0,273;1
"CD2BP2";0,0271991973603577;0,0708593376623363;0,513;0,463;1
"RBPJ";0,0273500825032628;0,101163289856098;0,773;0,732;1
"AP1S1";0,0274750236478767;0,0666021085603363;0,32;0,27;1
"POLR2C";0,0275760673578211;0,0539752658956955;0,374;0,317;1
"ARPC5L";0,0277672275019798;0,0613477239857154;0,873;0,823;1
"ATP11C";0,0278935331814398;-0,0621693702610774;0,09;0,124;1
"MICAL2";0,0281195670674536;0,0788222630985321;0,366;0,314;1
"KNOP1";0,0282519996140085;-0,0757053908874302;0,382;0,43;1
"TAGLN2";0,0285298843490878;-0,0671667131799261;0,79;0,807;1
"CMAS";0,0285435033927221;-0,057031539138009;0,282;0,329;1
"DSTYK";0,0286848309641666;-0,05711935185443;0,186;0,229;1
"PCNT";0,028836538656885;-0,0650269160017568;0,266;0,309;1
"ABCE1";0,028942537031057;-0,0796160040818163;0,564;0,609;1
"RNASEH2B";0,0290414433244604;0,089860043140002;0,423;0,381;1
"LSM4";0,0290445946535833;-0,0764789621038593;0,722;0,75;1
"HDLBP";0,0290930794612538;-0,0773869474186977;0,604;0,634;1
"LINC01943";0,0293530475382327;0,139353897594996;0,47;0,419;1
"MTA1";0,029451125405329;-0,0835450879196841;0,196;0,232;1
"CHURC1";0,0294515330807459;0,0671411492990918;0,388;0,333;1
"ATP6V0D1";0,0295557446026114;0,0613868225745954;0,332;0,277;1
"DDX46";0,029669478600207;-0,0733948633981494;0,766;0,806;1
"ARHGDIB";0,0297386970768587;0,0778708074188348;0,849;0,828;1
"CDC42EP3";0,0297711864844637;0,0785487535864837;0,333;0,285;1
"PLEKHO1";0,0301007582942191;0,0605601064854212;0,314;0,265;1
"CD74";0,030144154198988;-0,0837875973007768;0,428;0,482;1
"NSFL1C";0,0301608419971656;0,0521932042809187;0,328;0,272;1
"STX16";0,0301813125355646;-0,0543662355796661;0,243;0,289;1
"GFOD2";0,0302482128845644;-0,0534405645367611;0,097;0,13;1
"GTF3C6";0,0303286063227519;0,0841663618935846;0,685;0,643;1
"VPS51";0,0306093409694204;-0,10119259805368;0,324;0,361;1
"DNPH1";0,0307004246693287;0,0902354424717801;0,628;0,574;1
"ZC3H13";0,0308095899819767;-0,0664535665678015;0,628;0,651;1
"ACSL5";0,0311612637789552;-0,0624884910552619;0,163;0,201;1
"SETD5";0,0312825874807188;-0,0588250625227118;0,272;0,324;1
"JUNB";0,0313656328611443;-0,108784197195429;0,648;0,684;1
"GNB1";0,031371624603042;-0,0677210825918289;0,597;0,628;1
"SLC27A5";0,0314878699396308;-0,066093960710448;0,208;0,249;1
"COTL1";0,0318412598380646;-0,0943559024272526;0,361;0,406;1
"BACH2";0,0318567348459973;0,062045334238151;0,135;0,101;1
"GGA2";0,0319480994940971;-0,0601781143825936;0,234;0,274;1
"ZC3H4";0,0322523283489331;-0,0681733876951848;0,286;0,33;1
"USP7";0,0323651760315725;-0,0786474191974234;0,466;0,511;1
"CRIP1";0,0323667790941311;-0,11717066839947;0,247;0,284;1
"NAE1";0,0324141685360724;0,064388631835503;0,555;0,502;1
"TMEM167A";0,0325282289404525;0,0847118201450014;0,554;0,519;1
"GADD45GIP1";0,0326417837169919;-0,0729210431896099;0,858;0,862;1
"DCTN3";0,0328016912560329;0,0903503053182637;0,513;0,462;1
"TAF10";0,0328818093663949;0,0684959245735071;0,628;0,594;1
"STK4";0,0329944635040081;-0,0994087001423678;0,588;0,613;1
"ARHGAP19";0,0330892513505402;-0,0599540910192883;0,085;0,116;1
"EHMT1";0,0331594283418582;-0,051036050133736;0,206;0,252;1
"NDC80";0,0331658009059519;-0,0566832076866011;0,327;0,372;1
"TP53BP1";0,0332817371041528;-0,0580836100356122;0,136;0,173;1
"CEP104";0,0333433779794784;0,0707664847764677;0,188;0,149;1
"TBP";0,0333548286188532;-0,0644820678136004;0,1;0,133;1
"USP4";0,0336311002802982;-0,0644630060358868;0,174;0,212;1
"ORAI2";0,0338124001870423;-0,0745356119665951;0,297;0,342;1
"STARD7";0,0338329362262101;-0,0791629772200095;0,465;0,51;1
"SMG9";0,0339322646919336;-0,0536575241712292;0,109;0,144;1
"SFXN5";0,0341766773463251;0,0621561140952647;0,123;0,092;1
"MKNK2";0,034331580940087;-0,0625169775160256;0,269;0,312;1
"RELB";0,0347300084014967;0,0856184570610293;0,341;0,294;1
"TMEM9B";0,0347555232210024;0,0721772129524297;0,294;0,252;1
"CPSF2";0,0349860203265799;-0,0803755688509402;0,36;0,398;1
"SNW1";0,0349976123595852;-0,0746703241678864;0,52;0,557;1
"WAC";0,0353542081491914;-0,0647162713566373;0,449;0,495;1
"TMCO1";0,0355638248142242;0,0534922679622174;0,587;0,543;1
"REX1BD";0,0356033995709061;0,065450076535869;0,645;0,601;1
"CD52";0,0356465416698842;0,140221718360037;0,449;0,415;1
"SEC11C";0,0359289860950821;0,0899007245744052;0,766;0,73;1
"ASNSD1";0,035984775979509;0,0694210659988244;0,445;0,387;1
"CTSW";0,0361692963927758;0,0681800204267309;0,651;0,601;1
"DNAJC10";0,0362441614468651;-0,0707797944921563;0,257;0,298;1
"SNX2";0,0362846195345995;0,0581790461730159;0,285;0,238;1
"GABARAPL2";0,0364551668252945;0,0777669617749027;0,531;0,497;1
"BLOC1S1";0,0364754414402389;0,0613391417621411;0,634;0,594;1
"CSNK2A1";0,0365156950008346;-0,0918738872399034;0,506;0,535;1
"MCM2";0,0365415333175832;-0,086273908360282;0,416;0,459;1
"FBXO33";0,0367347498764747;-0,0594884895419435;0,183;0,224;1
"DENR";0,0367385197191833;-0,0673713672118695;0,517;0,57;1
"C9orf40";0,0369931819274759;-0,0748743158429801;0,206;0,242;1
"GLRX";0,0372496434829831;0,071742430074051;0,399;0,35;1
"FUOM";0,0372502208405167;0,0703787083135478;0,398;0,35;1
"LAMTOR5";0,0375980151240127;0,0663775630674814;0,676;0,646;1
"TTC37";0,0376919457448793;-0,0547486146582991;0,264;0,309;1
"BAX";0,0377046901901579;0,0732289954094357;0,616;0,579;1
"TAF12";0,0377407324372658;0,0651341149521309;0,334;0,288;1
"CCNG1";0,0380871917933786;-0,0686400721021704;0,211;0,253;1
"ZNF282";0,0382113843087519;-0,0610199300866671;0,123;0,157;1
"CSKMT";0,0386946152732832;-0,0976100077217184;0,183;0,221;1
"FANCI";0,0387437127902777;-0,0650123268128242;0,393;0,438;1
"CD40LG";0,0389291900538809;0,14256160301961;0,316;0,278;1
"RAB21";0,0389691128720883;0,0611740054276632;0,371;0,318;1
"RSBN1";0,0390837105867921;-0,100066702004493;0,203;0,238;1
"LAMP1";0,0391468757558434;0,051529673516566;0,333;0,281;1
"FASTKD5";0,0392149144300354;-0,0605691480098705;0,131;0,164;1
"USF2";0,039443950985667;-0,0530206823350403;0,287;0,333;1
"TMEM258";0,0394522483179757;0,0762077645747732;0,784;0,807;1
"MAFG";0,0394897477818232;0,0859780598136757;0,247;0,204;1
"APRT";0,0395418383567268;0,0559015502042071;0,92;0,915;1
"ANXA2";0,0399472605324457;0,0541509876021486;0,732;0,707;1
"EMP3";0,0401989329320306;0,0569254417085687;0,875;0,883;1
"ELL2";0,0404551243496447;-0,0883864791188056;0,28;0,32;1
"CSNK1G2";0,0405129537434645;-0,0614893498561871;0,219;0,258;1
"CHSY1";0,0406166937035736;0,0602392370048552;0,221;0,181;1
"AIM2";0,0406495007097832;0,0812462340126198;0,238;0,197;1
"KMT5B";0,0407394896335507;0,0706146560060278;0,135;0,103;1
"KPNB1";0,0408544046218662;-0,056059629117579;0,841;0,877;1
"MFHAS1";0,0408853348365727;0,0690951109269222;0,287;0,241;1
"RUVBL2";0,0413961904784737;-0,0687232628266999;0,402;0,439;1
"UBE2V2";0,041601045979465;0,0717085074081522;0,539;0,498;1
"PIK3C2A";0,041898259839947;0,0524455412788276;0,165;0,129;1
"GXYLT1";0,0420339843814467;0,0558584054867063;0,137;0,104;1
"SLC25A12";0,0421502301480625;-0,0525176818982369;0,109;0,141;1
"BFAR";0,0421555383064784;0,0612435127547757;0,337;0,288;1
"POMP";0,0423393332408481;0,0574798596006056;0,854;0,844;1
"XPOT";0,0423653127872204;-0,0695126312316682;0,273;0,313;1
"RFTN1";0,0424505481533199;-0,104845940291815;0,316;0,345;1
"WDR1";0,0425329736563626;0,066900924564365;0,682;0,651;1
"BTF3L4";0,0425803367943467;0,06237459430993;0,377;0,332;1
"EMC7";0,0426986056254015;0,0969175135350767;0,506;0,458;1
"NSMF";0,0428527649167302;-0,0614825118374413;0,108;0,14;1
"AGFG2";0,0431766541142755;-0,0703607099248565;0,117;0,15;1
"PRPF40A";0,0432265454406866;-0,0771397362888966;0,713;0,747;1
"MAP2K7";0,0434019798081768;-0,0602263648119578;0,159;0,198;1
"GPBP1";0,0434077215963049;-0,0958634138803846;0,418;0,453;1
"NACC1";0,0434791824569021;-0,0614165339280822;0,205;0,244;1
"H2AFZ";0,04350068062418;-0,0752119818046126;0,936;0,932;1
"AURKA";0,043637240231102;-0,0778705801441608;0,332;0,377;1
"PCK2";0,0436611001710323;-0,0604173132822984;0,221;0,261;1
"CSK";0,043770897765525;-0,0668735638933808;0,489;0,545;1
"ATP2A3";0,043915578753997;-0,0944150824427062;0,254;0,296;1
"DYNLT3";0,0439408185521015;0,0523301819532991;0,272;0,228;1
"HNRNPF";0,0441775025929708;0,0712007975438222;0,794;0,779;1
"RPP38";0,0442028737050464;0,0738505487383193;0,333;0,289;1
"KIF21A";0,0447788384213143;-0,0816514558319897;0,402;0,434;1
"TSR2";0,0449901925028779;0,0618596637269517;0,339;0,294;1
"PSMB3";0,0451791972819136;0,0796908603082038;0,813;0,808;1
"COPS9";0,0452908457331291;0,0541352532289261;0,701;0,676;1
"ARL14EP";0,0453566355639678;0,0760321766117988;0,474;0,418;1
"EIPR1";0,0455171840947991;-0,0707398379167345;0,189;0,226;1
"PAXBP1";0,0457038057641537;-0,0508099727134321;0,258;0,301;1
"RPL39L";0,0457723707315852;-0,081164520633432;0,151;0,184;1
"ERP44";0,0458144398904179;0,0588616979350003;0,377;0,328;1
"ZNF654";0,0459330305299324;-0,0662451352159857;0,084;0,112;1
"CLIP1";0,0459704933530093;-0,0902253988254527;0,413;0,453;1
"NAA38";0,0462978216720698;-0,0748875272709996;0,609;0,656;1
"ID2";0,0463300081329306;0,101335295413863;0,698;0,667;1
"NUDCD1";0,0464896619639405;-0,0748073443142956;0,283;0,322;1
"RNF2";0,0466543326015845;0,0535058949368372;0,154;0,12;1
"ATP2A2";0,0468776302934973;-0,0647157874353377;0,489;0,514;1
"RAB7A";0,0470435679453262;0,0551610744143687;0,541;0,49;1
"BAZ1B";0,0470468755400406;-0,0555982393066184;0,595;0,636;1
"PTPN2";0,0473721023992813;0,0646288077673149;0,479;0,425;1
"TRAT1";0,0475095051852608;0,0571208124168788;0,211;0,172;1
"MAP3K5";0,0475326377222975;-0,0503217847747478;0,09;0,12;1
"RPA2";0,0475902460070828;0,0713416217579708;0,558;0,518;1
"PDCD10";0,0477836069487227;0,0586689916906719;0,548;0,502;1
"EHD4";0,0480518579631803;-0,0642127564684096;0,247;0,284;1
"PNPLA6";0,0481285291981348;-0,0677291821767224;0,236;0,274;1
"FCMR";0,0483970632675728;0,0753923792766991;0,206;0,169;1
"HAUS3";0,0486002711627456;0,0525954267108911;0,158;0,123;1
"SMARCD1";0,0488819380932462;-0,0584279248955209;0,341;0,383;1
"PSMA4";0,0489491000044187;0,0710651009700718;0,748;0,73;1
"PRPF38A";0,0489783347384923;0,0516018722797164;0,409;0,366;1
"COX6A1";0,0492041030043627;0,0576484526530119;0,865;0,862;1
"TMEM273";0,0492357224346405;0,10311260710232;0,328;0,29;1
"PUM1";0,0494365267639519;-0,0573623125861644;0,295;0,338;1
"SMC4";0,0496134689194823;-0,0728307590719319;0,663;0,686;1
"DYNLL2";0,0497078271601546;-0,0897140947790861;0,407;0,434;1
"ANKRD11";0,0500398169608266;-0,075098089970123;0,659;0,691;1
"MYL6";0,0500486989739472;0,0619974892536383;0,991;0,996;1
"BCAS4";0,0504519562875719;-0,0616993017163646;0,135;0,166;1
"SDC4";0,0505306962518267;0,069664989310833;0,248;0,206;1
"EXOC6";0,050625035267478;0,0513464707122882;0,169;0,133;1
"SNRNP70";0,0507859045514394;-0,0612765429449835;0,668;0,708;1
"CDKN1B";0,0507981090300477;0,0733966963670212;0,244;0,202;1
"UBE2D3";0,0508348089134213;0,0638406502937114;0,822;0,796;1
"IL12RB1";0,0510496999967405;-0,089579162989062;0,141;0,173;1
"CEP350";0,0511229020272411;-0,0528445773571009;0,377;0,421;1
"TRUB2";0,0512662663306896;-0,0641832333738891;0,301;0,334;1
"LYAR";0,0513562413197962;-0,080649607133723;0,652;0,682;1
"VAPA";0,0517304364425304;0,062996338795585;0,61;0,566;1
"NCAPG2";0,0517522453280869;-0,0744727997809262;0,244;0,282;1
"SPOCK2";0,0517932743902109;-0,088952641022002;0,468;0,503;1
"RAB6A";0,0519794751548214;-0,0777202242612777;0,208;0,245;1
"EMC6";0,0522423266188414;0,0568051540787077;0,579;0,554;1
"MT1E";0,0526069263157984;-0,0675288891996733;0,319;0,358;1
"OTUD6B-AS1";0,0526980490563956;0,055114675781326;0,273;0,229;1
"HADHB";0,0527545715810601;0,0638892354125529;0,302;0,261;1
"YWHAQ";0,052855606072669;0,0642866265032438;0,776;0,76;1
"MRPS34";0,0529244548982802;-0,0526696437547212;0,783;0,796;1
"KIF2C";0,0532695183384059;-0,0833786054882857;0,26;0,293;1
"CTSB";0,0533143744814941;0,094750015062101;0,367;0,324;1
"YWHAE";0,0533202566837286;-0,0695797450065048;0,738;0,751;1
"BDH1";0,0533770905873764;-0,0593090069143039;0,231;0,269;1
"IST1";0,0533982196181333;-0,0697436071239403;0,22;0,258;1
"ZWINT";0,0536261014754596;0,098411177808056;0,451;0,422;1
"CEP55";0,05375848513662;-0,0809567859557137;0,302;0,342;1
"TTF2";0,0538170094710126;-0,0580596067261831;0,381;0,421;1
"WBP11";0,0539029152650898;-0,0538333431013533;0,545;0,589;1
"TPR";0,0541436635601743;-0,0520974500890525;0,74;0,755;1
"H2AFY";0,0541908300356451;0,054415892481066;0,701;0,663;1
"MRPL14";0,0544283060592008;0,064409964565342;0,675;0,65;1
"CHPF";0,0546523893929579;0,0790214940281641;0,254;0,214;1
"C9orf16";0,0546852102085624;0,0749153064479182;0,867;0,83;1
"BTBD6";0,0547000290329577;-0,0567303369588321;0,14;0,172;1
"MTRNR2L8";0,0547723189188093;-0,13247768494809;0,389;0,433;1
"KLRB1";0,0548571859649838;0,0794189461778815;0,53;0,485;1
"LCP2";0,0550002146233635;0,0624113011715431;0,499;0,461;1
"ENOPH1";0,0553323011966816;-0,0651050213992553;0,319;0,353;1
"HIST1H2AL";0,0555435988664432;0,071159055764565;0,231;0,192;1
"RPA3";0,0556061227074321;0,0622272244874809;0,696;0,698;1
"DENND2D";0,0560437405432956;0,0569112932599063;0,456;0,406;1
"EIF2S1";0,0563690917840009;0,072432779984326;0,626;0,605;1
"PDCD4";0,0563837747387176;-0,0578800868095815;0,282;0,322;1
"GNPTAB";0,0564285912354278;0,0542289915031884;0,374;0,329;1
"KIF2A";0,0566140765076021;0,060108779262154;0,814;0,808;1
"CYHR1";0,0567126327017043;-0,0806048671637991;0,119;0,149;1
"FIBP";0,0567711789534736;-0,0741002866635402;0,551;0,579;1
"RER1";0,0568905814471099;0,0777154559458442;0,645;0,643;1
"ASH1L";0,0572847670628195;-0,0531701824035123;0,282;0,326;1
"CERK";0,0579525122925501;-0,0757989287247978;0,347;0,39;1
"POLR2I";0,0581990582268985;0,0532653228398416;0,695;0,652;1
"POP1";0,0584068535301895;-0,0639327423052473;0,215;0,25;1
"GMPPB";0,0584088223549476;0,0539421432893454;0,426;0,383;1
"MAPKAPK2";0,0584580338075653;-0,0787504239110635;0,381;0,413;1
"SELENOW";0,0585660337089801;-0,0653366687321624;0,604;0,628;1
"XIST";0,0587413879177729;0,155356160336018;0,164;0,133;1
"ARID1B";0,0588143226520738;-0,0538552603032922;0,297;0,337;1
"AATF";0,0588345016612684;-0,0632600332605253;0,459;0,493;1
"MRPL58";0,0590011455560466;0,064782217897608;0,414;0,372;1
"SNRPD3";0,0591265361917839;0,0546523967772747;0,813;0,791;1
"CYB5A";0,0593058563648078;0,0665096348598395;0,454;0,411;1
"SAMD9";0,059353845108873;-0,0695999723128033;0,201;0,236;1
"PPP6R1";0,0594030919458751;-0,0616276217914514;0,606;0,64;1
"DCAF6";0,0594146043708452;-0,0596254424000142;0,116;0,146;1
"SHISA5";0,0594783993348525;0,0533126274703201;0,231;0,193;1
"TIMMDC1";0,0594961146312902;0,0590069868625354;0,423;0,383;1
"CCL20";0,0599852610333195;0,131736238325165;0,38;0,34;1
"SEPT9";0,060044930189949;-0,0698491892939782;0,384;0,413;1
"PNPLA2";0,0603366251760725;-0,0515810953931676;0,156;0,19;1
"RUNX1";0,060384419968643;0,0601011216407278;0,417;0,368;1
"HDAC1";0,0604284550007605;0,061979701470316;0,532;0,493;1
"SNAP29";0,0609224620388641;0,0647547828293519;0,33;0,29;1
"OPA1";0,0610098327615159;-0,0714430575764825;0,316;0,348;1
"H1FX";0,061282289786503;-0,084123803638247;0,455;0,493;1
"NCBP3";0,0612831156257538;-0,070468235034955;0,334;0,379;1
"LRPPRC";0,0614975187370876;-0,0622646696977857;0,507;0,545;1
"ATG2B";0,0622465362838295;-0,0563922928882156;0,094;0,123;1
"POLR2L";0,0625183861640252;0,0609009653065813;0,822;0,816;1
"DCTD";0,0626206197503202;0,0652101727807012;0,362;0,321;1
"ARID1A";0,0627370599982628;-0,102760248836821;0,438;0,463;1
"ARGLU1";0,0630088420180596;-0,0644796244153287;0,673;0,708;1
"POLR2K";0,063016928181;0,0697053973083648;0,649;0,64;1
"S100A6";0,0636377313147831;0,0582275224904141;0,968;0,969;1
"ZDHHC20";0,0636767753167737;-0,0613110203123338;0,163;0,196;1
"PCBP1";0,063946634500077;0,0650629017045685;0,832;0,828;1
"NSD1";0,0640149813911232;-0,0625396187862093;0,395;0,434;1
"UBAP2";0,0640879452294297;-0,0883920729535373;0,288;0,322;1
"EIF5A";0,0641074239688703;0,0562653959745172;0,911;0,905;1
"SEC11A";0,0645535222726717;0,0739203690319613;0,653;0,631;1
"PDE4D";0,0647042797852318;-0,104932320026738;0,249;0,284;1
"NFE2L3";0,0649651732814273;0,0570510771802745;0,26;0,221;1
"HIST1H1A";0,0649682893227954;0,0788603139783638;0,166;0,134;1
"C17orf75";0,0657273190011675;0,0543998124246485;0,22;0,184;1
"SLC35A3";0,0659726260615523;-0,0645359064777898;0,118;0,146;1
"ARHGEF1";0,0659742336415355;-0,0885946425367811;0,355;0,391;1
"PRKAA1";0,0661418820720854;0,0525600711058563;0,196;0,16;1
"MIS18BP1";0,0662362576399514;-0,0713219002272634;0,47;0,502;1
"XPO5";0,0666322947435173;-0,0767177498197696;0,254;0,29;1
"TCF25";0,0668325210453908;-0,108173777151145;0,588;0,614;1
"UTP20";0,0671758077535946;-0,0612790372371506;0,324;0,36;1
"EIF3A";0,0672130002565595;-0,0578873878323385;0,874;0,867;1
"ITM2A";0,0672634850262556;0,0732375864636688;0,264;0,228;1
"ADIPOR1";0,0673698465148815;0,0731540837905923;0,337;0,297;1
"EXOSC6";0,0675727732407925;-0,0548908894805749;0,292;0,328;1
"CNTRL";0,0676902866181232;-0,0636382682406947;0,476;0,519;1
"TTC3";0,0679318687805844;-0,0682179850049071;0,438;0,478;1
"CNOT6L";0,0679646268939326;-0,0615891727178797;0,285;0,325;1
"USP8";0,0679797079633523;-0,0668540852527737;0,316;0,36;1
"PYCR2";0,0687965751711759;-0,0598893913356913;0,391;0,427;1
"C4orf48";0,0688238263524897;0,0710771914270316;0,626;0,598;1
"MRPS21";0,0690432098539184;-0,0613815427918097;0,616;0,664;1
"AIDA";0,069106802132261;-0,0666855710496589;0,307;0,341;1
"CPSF6";0,0695519280626235;0,0891060845074773;0,417;0,375;1
"BAG1";0,069725856391183;0,0654711422916515;0,546;0,491;1
"EIF3I";0,0697870104571197;0,0681347229475389;0,732;0,714;1
"TRIM28";0,0701293379829588;-0,075962834158858;0,555;0,587;1
"ARFIP2";0,0702180587179377;0,0597203960749204;0,239;0,2;1
"ARCN1";0,0703686742475912;-0,0925764326321304;0,478;0,506;1
"AC004951.1";0,0704633627952739;-0,0524660700527544;0,09;0,117;1
"PHLDA2";0,0705168967210268;-0,0871123081447011;0,09;0,116;1
"NUDT5";0,0708967152493851;0,0593829327475947;0,591;0,561;1
"C19orf66";0,0713507802908758;0,0523785255587773;0,263;0,222;1
"CARHSP1";0,0714252337454683;-0,0574119101801064;0,554;0,59;1
"PERP";0,0714873980784374;0,0501566698578271;0,278;0,238;1
"HOOK3";0,0715397361076796;-0,0574129083527601;0,309;0,345;1
"DPP8";0,0716325143366991;-0,0689004647159808;0,18;0,212;1
"CD28";0,0723111447332053;0,0911442777190516;0,412;0,374;1
"FUNDC2";0,0724004642773937;0,0991597673871052;0,459;0,423;1
"PDCD6";0,0726814263295872;0,0574389518398742;0,545;0,498;1
"TBC1D15";0,0727503919204687;0,0604867921715864;0,254;0,218;1
"NFKBIB";0,0731964999220141;0,0603159680781983;0,451;0,398;1
"AHI1";0,0732057705399526;-0,056459656452848;0,262;0,294;1
"PSMD6";0,0732071352134854;0,0598364354947406;0,512;0,482;1
"PSMD5";0,0732201817939656;0,057352726174159;0,234;0,198;1
"PIEZO1";0,0732937704310619;-0,0543709992910569;0,267;0,305;1
"CNDP2";0,0733587373475852;0,0518157908510459;0,341;0,302;1
"ANP32E";0,0735456417261018;-0,0590948815618784;0,825;0,831;1
"EMC3";0,0735846230487151;0,0678415377858498;0,441;0,402;1
"HSP90AB1";0,0737009699872738;0,0536579226971332;0,996;0,993;1
"HIRIP3";0,0737667459078573;-0,0775671127984265;0,351;0,389;1
"ESF1";0,074683408638995;-0,0664541416106864;0,41;0,447;1
"INTS1";0,075115610862667;-0,0500799647009809;0,245;0,28;1
"GPANK1";0,0754806978052371;-0,0584925945682143;0,307;0,345;1
"ECD";0,0755186605659024;-0,0658762503571005;0,168;0,197;1
"HNRNPAB";0,075770687209339;-0,0624237057621824;0,902;0,909;1
"PHTF1";0,0757990058072997;0,0573271813856124;0,149;0,12;1
"TNIP2";0,076142281131414;0,0828771106988535;0,516;0,467;1
"MCUB";0,0762652611803809;0,0804244862814504;0,341;0,305;1
"SF3B6";0,077303517947658;0,0542882712460979;0,733;0,699;1
"MFNG";0,0773260085101995;-0,0667136170789894;0,438;0,463;1
"CD48";0,0777313321952552;0,0682685896422857;0,747;0,722;1
"TRMT61A";0,0778061837171334;0,0627829548646696;0,213;0,178;1
"RPS27L";0,0779937465355026;0,0523949557477021;0,602;0,566;1
"SNTB2";0,0783419244521661;0,0558989069465423;0,135;0,107;1
"HIST1H3F";0,078607906326687;-0,0673597002189626;0,137;0,166;1
"BIRC6";0,0786526712578147;-0,0720442101409228;0,388;0,415;1
"VIM";0,0787386299854091;-0,112234635768309;0,85;0,87;1
"PRDM1";0,0792632764578824;0,0591850612195377;0,606;0,563;1
"GRAMD1B";0,0797195957124996;-0,0544833840545074;0,146;0,177;1
"CDC26";0,0797630166844978;0,0538063637692111;0,494;0,446;1
"SLC15A4";0,079809484701525;-0,0539935824831115;0,085;0,111;1
"ECHDC1";0,0800467219199313;0,0802563829561164;0,49;0,466;1
"ZAP70";0,080066539360928;-0,0749882288142629;0,423;0,45;1
"MAP3K11";0,0801788802959009;-0,0747386782573557;0,219;0,25;1
"C1GALT1C1";0,0803098137458713;0,0659166431044798;0,249;0,212;1
"CNIH4";0,0810470358427439;0,0601563578668328;0,459;0,423;1
"TRIP12";0,0811291092012193;0,0866815152814522;0,468;0,419;1
"PPFIA1";0,0813149743527753;-0,0636663039265927;0,229;0,266;1
"METAP2";0,0814039900640757;-0,0650276587467957;0,695;0,723;1
"PPP2R5C";0,0814322602743129;-0,080812268334029;0,414;0,449;1
"CD8A";0,0814599415430959;0,11779606358795;0,489;0,461;1
"NDUFV3";0,0817379979385112;-0,0590987147483664;0,358;0,389;1
"NDUFAF8";0,0817585279517183;-0,050902815785525;0,637;0,67;1
"STT3A";0,0819568356421147;-0,0506118072930657;0,255;0,29;1
"DERA";0,0825399965887379;0,0776656919843597;0,184;0,153;1
"MYL12A";0,0830548655793491;0,0594245089352141;0,892;0,874;1
"ATP2B1";0,0832337253989303;-0,0681695806844198;0,31;0,346;1
"KIF11";0,0834243441809348;-0,0626071707786751;0,333;0,368;1
"NFAT5";0,0836568484716542;-0,0665417357772845;0,4;0,441;1
"MAPRE1";0,0845080030695822;-0,0572292434442974;0,474;0,51;1
"ACLY";0,0845229919205687;-0,0725950701552501;0,402;0,43;1
"PSMD13";0,0845431434835967;0,0664963898424917;0,667;0,65;1
"FAM3C";0,0846541752375688;0,0594872545078529;0,464;0,417;1
"CCND3";0,0846802438140992;-0,0614756329775168;0,615;0,636;1
"RB1CC1";0,0848025951658617;-0,0657208401509166;0,306;0,336;1
"POLR3A";0,084862605579345;-0,0605803294598754;0,188;0,217;1
"QARS";0,0851154147894076;-0,0675065824569081;0,269;0,302;1
"MYO19";0,0851753457656247;-0,0813398009491891;0,207;0,236;1
"EVA1B";0,0857394558782264;0,0525241703195418;0,272;0,236;1
"CDKN3";0,086044655480217;-0,0866020853615773;0,423;0,45;1
"RNF125";0,0861128063281849;0,0650431557435705;0,221;0,186;1
"ANKRD39";0,0862280724713283;0,064674040593224;0,484;0,443;1
"LAMTOR2";0,0864496389296788;0,0923137888906695;0,559;0,542;1
"CDC5L";0,0866153074957434;0,0637290827155024;0,525;0,483;1
"PARP14";0,0867333513789747;0,0746383546400727;0,402;0,365;1
"PNPLA8";0,0867664574387565;0,0517419638122749;0,219;0,181;1
"BRD4";0,0872439420407132;-0,0659180638281858;0,476;0,499;1
"RABAC1";0,087333140499039;0,0989749046404828;0,64;0,622;1
"SVIP";0,0875196812959807;0,0504042647521232;0,618;0,582;1
"ATM";0,0876926076768589;-0,0683147064143491;0,194;0,228;1
"LSM14A";0,0878819220664404;-0,0663893067566724;0,408;0,443;1
"JOSD2";0,0880213832597073;0,0691576468859898;0,449;0,41;1
"ANKRD12";0,0883119445891449;0,0606881712065663;0,817;0,804;1
"MZB1";0,0890998530016475;0,0774798238774912;0,29;0,25;1
"SRSF2";0,0893314875415356;0,0506322559183228;0,806;0,794;1
"AC004687.1";0,0894782907940932;-0,110242516768634;0,587;0,611;1
"NUSAP1";0,089599173271484;-0,0903215442937879;0,498;0,529;1
"CXCR4";0,0899853784309315;0,0934928761896651;0,431;0,39;1
"GOLPH3";0,0901919532770501;-0,0632136048232498;0,193;0,225;1
"ARHGAP18";0,0906884271201619;0,0694940820586984;0,152;0,125;1
"MAP4K1";0,0908580352884941;-0,0537811567722589;0,219;0,249;1
"TIMM13";0,0909165624478334;-0,0611840055813755;0,728;0,732;1
"AHNAK";0,0909315511389522;-0,0823110014065643;0,203;0,237;1
"ARID5A";0,091117077859261;0,067623015498473;0,465;0,417;1
"SYNRG";0,091645985339556;-0,0506157478560514;0,271;0,309;1
"ERGIC2";0,0918630930305747;0,059026721411419;0,47;0,431;1
"SRFBP1";0,0919834453258266;0,0574123459005093;0,295;0,258;1
"HSPD1";0,0921797508993083;-0,0533395198795015;0,931;0,937;1
"CTNNBL1";0,0922640885612358;0,0506425151758042;0,382;0,337;1
"LSG1";0,0924121900637723;-0,0556955675077352;0,315;0,348;1
"AGTPBP1";0,0929986805205119;-0,0596285677905664;0,13;0,157;1
"C1QBP";0,0930694119936273;0,053068869866874;0,831;0,835;1
"NME2";0,0931277309952683;-0,0801168659373497;0,208;0,236;1
"TNF";0,0933541963186887;0,0593623803748595;0,676;0,648;1
"SORD";0,0934126629825208;-0,0556118557163297;0,085;0,108;1
"BRD2";0,0937234989091173;-0,0540044210556595;0,55;0,585;1
"METTL4";0,093897837482763;-0,0804719088359493;0,135;0,16;1
"GANAB";0,0940650404913341;-0,0665591181090081;0,299;0,328;1
"TET2";0,0940993737547844;0,0565778962730942;0,189;0,158;1
"TRAF5";0,0943011692251509;0,0840611537313245;0,255;0,224;1
"CDT1";0,0949131901677336;-0,0535748500379117;0,381;0,419;1
"AKAP8L";0,0950911556192761;-0,057849108238118;0,199;0,232;1
"BICD2";0,0951298483936133;-0,0606264217022573;0,156;0,184;1
"POLR2B";0,0951863936362042;-0,075759494018651;0,432;0,466;1
"HELLS";0,0953907118096657;-0,050207105884496;0,633;0,667;1
"SAMD4B";0,0955727040500193;-0,0650867305726994;0,177;0,205;1
"FTSJ3";0,0956565499519922;-0,063630863380666;0,443;0,479;1
"AGFG1";0,0957121218828593;-0,0850720748937505;0,276;0,306;1
"CAAP1";0,0958391290413076;-0,0546356178500544;0,196;0,224;1
"MIEF1";0,0958680506693504;-0,0505496049063743;0,288;0,325;1
"RRP1";0,0960072798434347;-0,0681941097404363;0,44;0,469;1
"FASN";0,0964088769880002;-0,0581551156107394;0,339;0,373;1
"CHMP7";0,0969156751456828;-0,0701826213456451;0,126;0,153;1
"C8orf76";0,0969445647750143;0,0701099068050395;0,213;0,182;1
"PGPEP1";0,0969908730866336;-0,0564089617970002;0,113;0,138;1
"TECR";0,0974133593525713;0,0522781916146986;0,569;0,543;1
"CHD2";0,0974623096732249;-0,0565244401895399;0,236;0,27;1
"PCNX1";0,0975519556993365;-0,0642639640135229;0,142;0,17;1
"LEPROTL1";0,098014294800392;0,0795875378039184;0,504;0,469;1
"RNF7";0,0982663712163936;0,0685374559694516;0,565;0,523;1
"NCOA3";0,0983343406769689;0,0530723053104263;0,339;0,297;1
"RABL6";0,0994890211681985;-0,0623736999740161;0,567;0,585;1
"YTHDC2";0,099983309041875;-0,0700407445686199;0,179;0,206;1
"VPS35";0,100138712411556;-0,0649422383641453;0,443;0,474;1
"NDUFA11";0,100352827377838;0,054690951682865;0,681;0,654;1
"PSMB6";0,100439166508657;0,0518220873239392;0,802;0,78;1
"ILKAP";0,100939872769392;0,0561496047350071;0,375;0,333;1
"CGAS";0,101834467438955;-0,054959608080405;0,319;0,35;1
"XPNPEP1";0,101928848960653;-0,067789356113113;0,163;0,189;1
"NDUFAB1";0,102271361744657;0,0515981028239585;0,795;0,783;1
"CDCA7L";0,102839869632877;-0,0597077407471511;0,217;0,248;1
"PSMD11";0,103759653973113;0,0563468194323706;0,633;0,605;1
"XBP1";0,104013603003558;0,0620699262036331;0,545;0,517;1
"IFT57";0,104114562806585;-0,080310722964167;0,264;0,292;1
"AP1M1";0,105724075281499;-0,0558402769545734;0,262;0,297;1
"FRG1";0,106011109004166;0,0611959848149438;0,492;0,455;1
"MRPL45";0,106051342640261;0,0575685479673676;0,263;0,23;1
"CHMP3";0,106413105356673;0,0767695568317336;0,22;0,189;1
"TOP2A";0,106493634299765;-0,0939690195495178;0,54;0,562;1
"SNHG19";0,106534357485043;-0,0869227866608639;0,184;0,21;1
"JMJD1C";0,10668345975161;-0,0712885659453613;0,274;0,304;1
"FKBP1A";0,107084826704417;0,0584940749005184;0,63;0,595;1
"HACD3";0,107164789884374;0,0614818165144556;0,426;0,385;1
"AK3";0,107500828682902;-0,062549235681738;0,236;0,268;1
"PLCB1";0,107684367969608;0,0508342689270971;0,147;0,121;1
"TNFAIP3";0,10787177110976;-0,0748638122206194;0,382;0,417;1
"MCL1";0,108519557458155;0,0623821929518159;0,524;0,478;1
"UBALD2";0,108911085048096;-0,0813475798405427;0,694;0,704;1
"TMEM222";0,10905195289866;-0,0617946149062063;0,178;0,209;1
"UNC45A";0,109068754046353;-0,0659191417523588;0,235;0,26;1
"COMMD6";0,109316164559879;0,0601952269778849;0,64;0,614;1
"SLC3A2";0,109562508881879;0,059800528465815;0,733;0,707;1
"TCF3";0,109654383487744;-0,0586517702409418;0,178;0,205;1
"ANAPC1";0,109940202767317;-0,0534891779864624;0,226;0,257;1
"NTHL1";0,110133570244686;-0,0662667414887125;0,25;0,277;1
"TUBA1C";0,111025924633266;-0,054255886729808;0,746;0,774;1
"AHCYL1";0,111026704520356;-0,0774037976695253;0,393;0,422;1
"PMF1";0,111298904348855;0,0767008243080363;0,454;0,422;1
"ITFG1";0,111465030936784;-0,0585455181629067;0,118;0,142;1
"ACBD6";0,112737985119353;-0,0571153381236987;0,346;0,378;1
"PRR5";0,113082032996642;-0,065245950061649;0,119;0,142;1
"PTTG1IP";0,113204840647082;-0,0664587302030147;0,225;0,256;1
"LRBA";0,113274816803584;0,0807142928082062;0,332;0,3;1
"ARL6IP5";0,113398473598361;0,0678810796468747;0,661;0,64;1
"C6orf48";0,113454553960742;-0,0719507702064591;0,366;0,394;1
"GBP5";0,113744663654248;-0,0648351496115941;0,447;0,474;1
"RAB1B";0,113861525052997;-0,0583143376688608;0,394;0,421;1
"TRIM27";0,114143175338693;-0,0555072563927755;0,316;0,349;1
"SWI5";0,114240808398256;-0,077127377025147;0,236;0,264;1
"DHX30";0,114396116609753;-0,0689451353817734;0,377;0,401;1
"CKS2";0,11456917899921;0,0553586543756774;0,62;0,59;1
"NDE1";0,114964949796065;-0,0587003074636811;0,145;0,172;1
"KCNAB2";0,115134073563153;-0,0543218371995609;0,386;0,415;1
"MAGED2";0,115171573544717;0,057013793003206;0,215;0,186;1
"IKZF3";0,115176134878726;0,097052923092538;0,454;0,427;1
"ATP5PO";0,115249036227306;0,0686390063836446;0,663;0,65;1
"TMED9";0,115629284869573;0,0836163937187245;0,666;0,655;1
"TROAP";0,115870930197854;-0,0591433131142817;0,226;0,253;1
"COPE";0,11649240955462;0,0557915168524901;0,793;0,768;1
"RINL";0,116665666656286;-0,0712834923016543;0,297;0,324;1
"DROSHA";0,116960812727014;-0,0600424196095655;0,105;0,129;1
"PURA";0,117464535331944;-0,065435178357805;0,377;0,41;1
"SENP2";0,117751684371339;-0,0608754172476951;0,144;0,17;1
"ATP11B";0,1177597297632;-0,0846045393251655;0,241;0,265;1
"ST6GAL1";0,1180019000269;0,060962989435345;0,269;0,238;1
"FAR1";0,118086643678037;-0,0521962228471801;0,173;0,202;1
"HSPE1";0,118385946458006;0,0509989186647473;0,939;0,913;1
"PITHD1";0,118689758952936;0,0602565242975388;0,464;0,437;1
"ARHGAP35";0,118964700794651;-0,0560771138806661;0,116;0,14;1
"PCM1";0,119275382706723;-0,0517792729548634;0,493;0,535;1
"ZNF444";0,119504731595488;-0,0518354817037013;0,113;0,137;1
"NARF";0,120185285016027;-0,05311612410389;0,277;0,308;1
"CYFIP2";0,120218100840587;-0,0631464440318289;0,428;0,453;1
"OSBPL8";0,12024397150907;0,0655757280120396;0,571;0,543;1
"PIP5K1A";0,120802753070698;0,0566245184333187;0,168;0,14;1
"CCT8";0,120835467411117;-0,0564817308008678;0,794;0,834;1
"PQBP1";0,121575439271954;-0,0662818839576911;0,384;0,415;1
"CCDC6";0,121782356005242;-0,061898084529684;0,418;0,455;1
"C12orf49";0,122414151057912;-0,0535573217100333;0,225;0,25;1
"LYN";0,122470147003103;-0,0616938012943015;0,149;0,174;1
"CTDSPL2";0,122798693085899;-0,0608178961019157;0,231;0,257;1
"WASHC3";0,123546851561136;0,0637189374437445;0,253;0,22;1
"GHITM";0,123675210999063;0,0507913329226712;0,705;0,686;1
"PCSK7";0,123886727566236;-0,0645668723670456;0,358;0,387;1
"FKBP8";0,124187962025521;-0,0864510812426518;0,531;0,545;1
"ZNRF1";0,124280666598335;-0,071109123586833;0,302;0,33;1
"RDX";0,124284363843402;0,0608443877840521;0,49;0,455;1
"AMDHD2";0,12534087109977;-0,0597964309937668;0,15;0,176;1
"CDK4";0,125593274037528;0,050998919200733;0,574;0,554;1
"MORC3";0,125598753585273;-0,0536039319829866;0,177;0,205;1
"NDUFAF3";0,128182620978326;0,056580547362856;0,593;0,558;1
"CNN2";0,128439036425676;-0,0574913292296202;0,249;0,277;1
"PRRC2B";0,128878719092468;-0,0604871394053145;0,273;0,301;1
"OCIAD2";0,128920306403268;0,0660828000016712;0,463;0,433;1
"IL23A";0,128962251407619;-0,116903246853244;0,177;0,145;1
"STAMBP";0,129273724869535;-0,053815857693024;0,264;0,296;1
"EIF4G1";0,129455432739555;-0,0670065962095696;0,757;0,755;1
"PCBD1";0,129570042223656;0,0538551961542203;0,366;0,332;1
"NOC4L";0,129885700431848;0,0542962540529884;0,283;0,254;1
"SYF2";0,129912551475438;0,0683720126260839;0,534;0,489;1
"UBN1";0,13020604936055;-0,0594045651489085;0,335;0,362;1
"GNG2";0,130620736087139;-0,0805558216218415;0,388;0,409;1
"IMP3";0,130800629829634;-0,0512234126793779;0,534;0,565;1
"CHD4";0,13092331249628;0,0677581783653602;0,752;0,727;1
"LASP1";0,131358332112295;-0,0617222702098292;0,269;0,298;1
"NENF";0,131484230405984;0,0606077500749732;0,502;0,471;1
"SEPHS1";0,131502634491627;-0,0734522771817578;0,274;0,298;1
"TMSB10";0,132192821215746;-0,0766979124733544;1;0,997;1
"CCDC18";0,132425341089368;-0,0610451039670478;0,188;0,216;1
"NUP62";0,132522914532953;0,0689326053749477;0,551;0,518;1
"TFAM";0,13352551356677;-0,0585252401943078;0,624;0,652;1
"PDE4B";0,133631130031104;-0,0734019273395911;0,132;0,156;1
"GLRX2";0,133815294660667;0,0763287873461662;0,413;0,383;1
"ATF4";0,134863849328085;-0,0692155059518551;0,684;0,688;1
"CFAP97";0,137167403450252;-0,0528650635290089;0,429;0,45;1
"DDX3Y";0,137402379573848;-0,0738215899370304;0,278;0,309;1
"ANXA11";0,137761031467553;-0,0634187110559459;0,518;0,546;1
"AUP1";0,138032931695959;0,0535023858220564;0,527;0,51;1
"PARD6A";0,138238174707354;-0,0643594116064389;0,154;0,177;1
"PSTPIP1";0,138376220974484;0,0504443143907819;0,437;0,399;1
"TMEM160";0,138493087011826;0,0731912010723881;0,714;0,691;1
"TFB1M";0,138542600608071;-0,0658613274522768;0,188;0,213;1
"NCKAP1L";0,138580932939956;-0,0696098775550029;0,407;0,431;1
"MED4";0,139040571246542;0,0566505594000146;0,41;0,37;1
"SLC20A1";0,140179500096932;0,0515959573632392;0,318;0,284;1
"TRAPPC2";0,140947501606555;0,0784465678364516;0,122;0,101;1
"HIKESHI";0,141151788151487;0,0633400394773752;0,476;0,449;1
"DNTTIP2";0,141508601607;0,0613601791304272;0,581;0,549;1
"NDUFA13";0,141977801424725;0,0607380849700838;0,562;0,513;1
"AGO3";0,143014711068377;-0,0699780202547434;0,158;0,182;1
"NUP205";0,143476027291901;-0,0652582361426681;0,201;0,225;1
"CKAP5";0,143693321998138;-0,0541479158475572;0,376;0,402;1
"RBM27";0,144433578723076;-0,0578045763395918;0,18;0,208;1
"PLIN2";0,144496329707499;-0,0538097066461805;0,402;0,427;1
"GPR180";0,145913314395508;0,0557959689597511;0,205;0,177;1
"COX7A2L";0,146366237080798;0,0558596866941984;0,535;0,518;1
"PELO";0,146561126539783;-0,0557116370620697;0,245;0,273;1
"ME1";0,147388666427616;-0,0587705471645809;0,122;0,144;1
"GSR";0,1477022772937;-0,0709732796400155;0,259;0,28;1
"TAOK3";0,148032820163093;-0,0776617429367595;0,484;0,499;1
"MRPS9";0,149555842404904;-0,0584820111687393;0,356;0,383;1
"CAP1";0,149567808306948;0,0507922775573559;0,769;0,766;1
"ZFAND6";0,150302003982945;0,0511154230713958;0,287;0,256;1
"ABCB8";0,151112176779502;-0,0525539725555026;0,188;0,214;1
"SP4";0,152455602726437;-0,0662103757086831;0,146;0,169;1
"STAG1";0,153210216910309;-0,0542462353584182;0,299;0,324;1
"DNAJC1";0,154287238923563;0,0561036383857185;0,474;0,445;1
"CCS";0,154639591872047;-0,051057518495273;0,182;0,205;1
"RRM2";0,155096864320519;-0,056027668841411;0,638;0,667;1
"TRAP1";0,155450824828025;-0,0634717694397728;0,428;0,453;1
"HSD17B10";0,155738719452449;0,0570743526739519;0,507;0,497;1
"GNPAT";0,156754134197136;-0,0634626404529139;0,201;0,222;1
"PHKG2";0,158773676467274;-0,0521410464478993;0,174;0,2;1
"HAX1";0,159550504904202;0,058159426268712;0,577;0,557;1
"HMGB3";0,15965787699532;-0,0531200906032918;0,302;0,325;1
"CAMLG";0,159997048624881;-0,0500447218698934;0,376;0,406;1
"MPC1";0,160024279446331;0,0501788515708976;0,299;0,27;1
"BCKDK";0,160281353387175;0,0578885057477357;0,273;0,246;1
"PPAT";0,160331338584479;-0,062739611096718;0,324;0,346;1
"PRDX3";0,160449985211122;0,0537691491631167;0,624;0,605;1
"CASP3";0,160608514661101;0,0538256314226278;0,47;0,437;1
"YME1L1";0,160705259599475;-0,054833223055935;0,466;0,494;1
"TMEM173";0,160972031618303;0,0764910988116975;0,362;0,333;1
"ZCCHC17";0,161427706651201;-0,057732415534982;0,421;0,449;1
"SMIM30";0,16241874234841;-0,0542354616248663;0,259;0,284;1
"RNF187";0,163074112602801;-0,0631810840493321;0,266;0,29;1
"PAFAH1B1";0,163216510562087;0,0528727554030448;0,493;0,465;1
"PRKD2";0,163658666470699;0,0511712306893712;0,128;0,107;1
"URI1";0,163975718692794;-0,0633348680853131;0,427;0,443;1
"BTBD1";0,164095846166795;-0,0592491434201953;0,197;0,22;1
"PYROXD1";0,164124567020814;-0,0511404987209663;0,285;0,31;1
"CHORDC1";0,16443498844226;0,0536471170990308;0,473;0,439;1
"SMIM15";0,164448579914679;-0,0643950054529832;0,36;0,385;1
"LIMS1";0,164648581094589;-0,0645259765763061;0,45;0,474;1
"SNHG8";0,165055987253364;-0,0734446875119785;0,667;0,682;1
"MT1G";0,165371807981338;-0,0524577129837353;0,091;0,112;1
"NOTCH1";0,166980988508151;0,0651763619101599;0,254;0,225;1
"IDI1";0,16870368325069;0,0502477441162725;0,568;0,543;1
"GATAD2B";0,168877686123723;0,0577714324437377;0,188;0,164;1
"RNF40";0,170119647060738;-0,0648496107455034;0,182;0,206;1
"IL12RB2";0,171153312725741;-0,0659849587669511;0,277;0,301;1
"TNIP1";0,171229227149461;-0,0548967500851634;0,404;0,433;1
"RPL17";0,171347729814954;-0,0798617627086468;0,583;0,59;1
"POLR3H";0,17167213533731;-0,0549141183272354;0,347;0,366;1
"MAPKAPK5-AS1";0,172222973026332;-0,0699697993301399;0,179;0,201;1
"PFKP";0,172712424597524;-0,0589220292413435;0,532;0,562;1
"GFPT1";0,173364828970077;-0,0508244819701853;0,325;0,352;1
"KIAA0232";0,173819200882069;-0,0503949480749752;0,188;0,214;1
"NR3C1";0,174517949160767;-0,0608284584962866;0,301;0,326;1
"CUL1";0,174659885737381;-0,0596649619761204;0,325;0,35;1
"NMD3";0,175337483616205;-0,0552477176865284;0,221;0,244;1
"SARAF";0,175818728807463;0,0602451288731674;0,549;0,522;1
"NUP155";0,175947604518043;0,0542485365943818;0,299;0,269;1
"ANLN";0,176588885246181;-0,0502921727615441;0,142;0,165;1
"TRIM73";0,176871295856279;-0,0646202062440034;0,113;0,133;1
"IREB2";0,178415336456452;-0,0541799544998951;0,244;0,27;1
"GTF2F1";0,18027031004915;-0,0810798901527148;0,433;0,45;1
"TRABD";0,180308842215676;-0,0525855357582946;0,551;0,563;1
"PPP1R12C";0,181499883858327;-0,0612434475152587;0,113;0,133;1
"TAP2";0,181801777116967;-0,0812607375777306;0,297;0,318;1
"PDCL3";0,18187513528513;0,0552282196339415;0,357;0,329;1
"LY6E";0,181990633270317;0,0598064694020632;0,666;0,651;1
"PIGT";0,182499513525421;-0,064056791816518;0,278;0,297;1
"LIM2";0,182608994892485;0,0923931705507428;0,196;0,173;1
"PLEKHB2";0,18368282701042;-0,0723588830446228;0,333;0,348;1
"PDPK1";0,184201877678766;0,0550306250008156;0,234;0,209;1
"TRIM25";0,184774187222306;-0,0735997352403374;0,268;0,288;1
"COPZ1";0,186013704798026;0,0575567166554161;0,417;0,394;1
"TP53BP2";0,186724345587846;-0,0689778407315563;0,159;0,18;1
"LIMD2";0,187472981267623;0,0572067698743233;0,582;0,559;1
"TMEM101";0,187667288371963;-0,067517105793598;0,161;0,182;1
"DARS";0,187688655438436;-0,0666580678269051;0,644;0,648;1
"CD53";0,188438145675952;0,0546773015310996;0,54;0,513;1
"GSDMD";0,188537663775868;-0,0523343892117468;0,402;0,426;1
"CD63";0,188667121587718;0,0514924422098137;0,801;0,804;1
"TUBA1A";0,18934165338668;-0,0780489392530338;0,402;0,422;1
"KDM6B";0,190427065685132;0,0588660500046553;0,202;0,176;1
"C1orf123";0,191092659808591;0,0572806672551016;0,257;0,229;1
"SAMHD1";0,192271533499097;-0,0747249516356862;0,221;0,241;1
"ITGB3BP";0,19257835338979;-0,0508949940979036;0,355;0,377;1
"APEH";0,193176672919043;-0,0632316535104181;0,348;0,368;1
"OCIAD1";0,194354277961549;0,0590803585448387;0,546;0,526;1
"AC245297.3";0,194674451657007;0,079916074007398;0,179;0,157;1
"SLK";0,195045260444456;-0,0704110071436461;0,402;0,427;1
"DUSP4";0,19696862340258;0,0871206943436162;0,492;0,477;1
"ZNF106";0,197602898883963;-0,0728050316973851;0,468;0,481;1
"HIGD2A";0,197671886656409;0,0521076215560817;0,508;0,486;1
"INTS10";0,197993307211476;-0,0519160118669562;0,285;0,304;1
"RSF1";0,198418057796427;0,060549676905208;0,431;0,398;1
"CD96";0,198609185248788;-0,0610560706959195;0,302;0,329;1
"C16orf72";0,198659491743964;-0,0728615905597968;0,318;0,34;1
"PRSS21";0,199519688709917;-0,0523870907292027;0,091;0,109;1
"MFAP1";0,199953894812929;-0,0720704385917912;0,457;0,481;1
"TGFBR2";0,200139104133738;0,0675270860311151;0,33;0,308;1
"SEH1L";0,200514613979401;-0,0623691245431024;0,274;0,292;1
"NCBP2-AS2";0,200758724804619;-0,0634433599521471;0,327;0,352;1
"TAB2";0,200837793333183;-0,0649999833103045;0,236;0,258;1
"ANKRD44";0,2010667667507;-0,0720087408255226;0,266;0,292;1
"MOB3A";0,201405470297303;-0,0745132146040892;0,31;0,328;1
"FAM107B";0,201561806571101;0,0503282820920536;0,612;0,562;1
"RPN2";0,202870002714743;0,0571193186117226;0,677;0,675;1
"RRP7A";0,204452334040666;-0,058666369522799;0,637;0,648;1
"SNRPA";0,204871566135852;-0,0567411461731909;0,512;0,531;1
"UPF2";0,207177702914651;-0,0503516829254246;0,402;0,422;1
"MCM5";0,209145169182175;0,0518413639539207;0,581;0,545;1
"HIPK2";0,209971347078122;-0,0595077481243141;0,316;0,337;1
"PTK2B";0,2113485885398;-0,0675379909833805;0,186;0,204;1
"SRSF5";0,211517377346567;-0,058120491817701;0,747;0,782;1
"AHCTF1";0,211822682120204;-0,0513599346232777;0,365;0,389;1
"SPAG9";0,213356364307112;-0,0542541213729764;0,384;0,403;1
"FDPS";0,213559899533835;0,056338381258205;0,756;0,743;1
"ZNRD1";0,213666221769429;0,0587347653111363;0,524;0,499;1
"DNAJC2";0,214445323946742;0,0693806625115502;0,512;0,493;1
"CCNB1IP1";0,215741041633518;-0,0558208539786898;0,227;0,246;1
"POLE4";0,216040177346207;0,064596550115292;0,446;0,419;1
"MTREX";0,216091666080264;-0,0627075585617407;0,351;0,366;1
"AIP";0,216634541761943;-0,0670021796217884;0,583;0,599;1
"DNAJC3";0,217351705475214;0,064795461144327;0,441;0,418;1
"LUC7L3";0,217667805408066;-0,062132882501533;0,684;0,708;1
"NDUFA10";0,219404229667146;0,053087689056794;0,506;0,475;1
"TRBC2";0,220441791599823;0,110249160314826;0,706;0,707;1
"DMAC1";0,220802607090738;-0,0510493253064006;0,377;0,399;1
"ZBTB16";0,221008729263907;-0,0509744202991853;0,267;0,29;1
"MMAB";0,221477830897111;-0,0525298604783787;0,245;0,268;1
"ZNF655";0,221598408822898;0,0618340602871386;0,295;0,269;1
"MDFIC";0,222078414553448;0,0557454601427777;0,532;0,502;1
"HIST1H4E";0,222676033780689;-0,0612135104056168;0,117;0,134;1
"KHSRP";0,225586426383155;-0,0603385877712187;0,407;0,429;1
"ELOB";0,226080879239616;-0,0516340124575771;0,887;0,872;1
"MRPL4";0,227182569406361;-0,0585375747509632;0,637;0,632;1
"POLR3K";0,227220256149071;0,0575021823342281;0,588;0,583;1
"OXA1L";0,22837233577318;-0,0564158993983351;0,409;0,419;1
"FH";0,229381108650249;0,0554367629816942;0,421;0,394;1
"ANK3";0,230631946321558;-0,0574809579657112;0,146;0,165;1
"TNPO3";0,23118947374122;-0,0617695314188121;0,278;0,298;1
"RCSD1";0,232417861873791;-0,0507628628060932;0,291;0,313;1
"PPP4R3B";0,232995943682134;-0,0565765606291026;0,361;0,383;1
"TRPC4AP";0,235000570373289;-0,0720060729627153;0,227;0,244;1
"GMNN";0,236117532442383;0,0568799703262018;0,567;0,549;1
"TAF1D";0,237448305586944;-0,0767993156944721;0,665;0,664;1
"MYCBP2";0,238002241435281;-0,0796186427692279;0,537;0,542;1
"NRBF2";0,241091739537784;-0,0556877456025876;0,318;0,337;1
"SEPT6";0,241095598269265;-0,0511082258642345;0,507;0,527;1
"WDR55";0,241422593431724;-0,0644461218622175;0,258;0,277;1
"CD47";0,241582018188332;0,0631953802953725;0,546;0,53;1
"UBAP2L";0,245576827543574;-0,0642542543569768;0,391;0,411;1
"PPP3CB";0,246277732108886;-0,0699320348745855;0,211;0,228;1
"MCM3AP";0,246878883004068;-0,0510012700377442;0,212;0,234;1
"EIF6";0,254267537214446;0,0513551108749214;0,609;0,615;1
"HMBS";0,254289555287795;-0,0537965376159302;0,215;0,233;1
"ATP5ME";0,254579482043882;-0,0537274342752545;0,783;0,788;1
"BIRC3";0,256169447373793;-0,0814183557992925;0,379;0,39;1
"LIG1";0,258737041591693;0,0534658492968237;0,365;0,34;1
"EMC2";0,259710520281407;-0,0694649416815348;0,211;0,226;1
"NPEPPS";0,259925339806001;-0,0553753222752985;0,307;0,325;1
"PMM2";0,260338039053279;-0,0573828236215624;0,283;0,3;1
"IFNG";0,264781302892554;-0,292864598168199;0,694;0,7;1
"PNPO";0,265090971193226;0,0587875430156444;0,193;0,173;1
"TM2D3";0,265244679361988;0,0535316630795094;0,292;0,27;1
"RHOC";0,266744065004819;-0,0857928795245328;0,186;0,202;1
"ADAR";0,268304012066641;-0,0639628222505474;0,521;0,537;1
"MYO9B";0,268343447289075;-0,0655058246201628;0,23;0,246;1
"TENT5C";0,269318657531147;-0,0735082114868615;0,159;0,174;1
"IL18R1";0,269619352290475;0,0595747769857168;0,226;0,204;1
"RPS17";0,270245541567781;-0,0559554163804739;0,788;0,776;1
"NONO";0,270467110049958;0,0563488395946434;0,679;0,668;1
"TXLNA";0,272700795825;-0,0549658294434153;0,443;0,459;1
"VSIR";0,273137303133591;0,0528609902813727;0,159;0,141;1
"RANBP2";0,273331519342764;-0,0739011021072985;0,485;0,489;1
"CARM1";0,274491370218885;-0,0637207620414416;0,233;0,249;1
"SEC23IP";0,276507010964703;-0,0518986275503591;0,233;0,248;1
"PARG";0,276642966448725;-0,0508647710939713;0,131;0,148;1
"CCDC58";0,27897458099005;-0,0531164878277472;0,278;0,297;1
"GAPVD1";0,278980784601055;-0,0517676368111156;0,247;0,266;1
"FKBP4";0,279472259628515;-0,0506772348395985;0,526;0,539;1
"RPL7L1";0,282668716023127;-0,0503959680516373;0,671;0,666;1
"FABP5";0,282970426423417;0,0602245681308728;0,878;0,891;1
"NAA50";0,282999799418193;-0,056564576401919;0,548;0,565;1
"FERMT3";0,284952316477243;0,0588056177249126;0,548;0,547;1
"FAM111B";0,285264894310295;0,0611075975560713;0,177;0,157;1
"GAMT";0,285330719654694;-0,0557652863698637;0,23;0,248;1
"ZNF330";0,288697159950194;-0,0522426578059563;0,327;0,344;1
"ANKLE2";0,290943672587752;0,0527218327503768;0,41;0,386;1
"CHMP4B";0,292154902160422;-0,0593875599553708;0,32;0,34;1
"NFKB2";0,293264609102776;-0,0548395273372614;0,395;0,407;1
"NCOA1";0,297635244848486;-0,0684919594398899;0,21;0,225;1
"SLFN11";0,297780922602969;0,0631381288104538;0,211;0,193;1
"ZNF276";0,29778194631169;-0,0507919324237909;0,104;0,12;1
"NEAT1";0,300454639628746;-0,05365361144655;0,949;0,951;1
"PTPN18";0,301360383837071;-0,078351938084755;0,31;0,32;1
"FAM120A";0,302921838585431;-0,0543182864025589;0,496;0,511;1
"DGKA";0,303287456611755;0,0574435074980331;0,229;0,21;1
"ASF1B";0,305311313521255;0,0537433002194554;0,318;0,3;1
"ODF2L";0,305877446364803;-0,0575074124471422;0,28;0,292;1
"TOP2B";0,30658420844479;-0,0760960766958603;0,386;0,394;1
"UTP25";0,306941695514964;-0,0540166685143807;0,173;0,186;1
"ZNF830";0,307748888085971;-0,0652548103828502;0,216;0,23;1
"CD46";0,310469423408828;0,0521644010526639;0,324;0,3;1
"COX7B";0,311441519346179;0,0507728976039015;0,806;0,824;1
"LSM2";0,314509382424882;0,0515083693424891;0,667;0,655;1
"ARL5A";0,31456723016955;-0,0644788053404776;0,213;0,228;1
"RNF11";0,31665061386447;-0,0630487363556;0,118;0,132;1
"UBE2R2";0,317601415895485;-0,0508641240334842;0,356;0,373;1
"HJURP";0,318435195861305;-0,0638605998186272;0,245;0,265;1
"RNF149";0,318630021370085;0,0635299121646695;0,299;0,28;1
"CTSH";0,318767122670276;-0,0525238046892138;0,478;0,489;1
"UBA1";0,320065688441039;-0,0602705087815822;0,459;0,47;1
"KDM5B";0,320887053509552;-0,050794571055205;0,132;0,146;1
"ASB8";0,321011311689822;-0,0693264697874466;0,187;0,201;1
"SF3A3";0,324909438553427;-0,0588914744349843;0,497;0,515;1
"SIPA1L1";0,327094976984564;0,0711683123102083;0,395;0,379;1
"SLC43A3";0,327512545874997;0,0684765125733422;0,53;0,523;1
"SNRNP25";0,329282808197549;0,0620746049548042;0,586;0,563;1
"NKTR";0,330779463748691;-0,0677858624337161;0,479;0,499;1
"RETREG2";0,331780382559501;-0,0625945760051104;0,187;0,2;1
"TIMM10";0,335304966903146;0,0645565263307861;0,649;0,658;1
"INSIG1";0,337198617010127;-0,0882301421855942;0,247;0,262;1
"MCTP2";0,337249895125316;-0,0557112914497371;0,197;0,209;1
"PKN1";0,33846675750096;-0,0530154560136131;0,356;0,368;1
"COIL";0,342688453475427;-0,0525136077369112;0,272;0,286;1
"APBB1IP";0,345370974259892;-0,0505800533277535;0,416;0,431;1
"AKNA";0,346288427395857;-0,0647835168745922;0,231;0,249;1
"ACAP1";0,349681613677831;-0,0561684521643537;0,478;0,486;1
"GATAD2A";0,349830835150271;-0,0501042330359596;0,337;0,356;1
"HIST2H2AC";0,350215766018773;0,0666475428043604;0,377;0,366;1
"QRICH1";0,352619037776;-0,0541031416502104;0,192;0,208;1
"PIM3";0,353034846797504;0,0731218825959372;0,537;0,531;1
"F2R";0,355440458300614;-0,0640846208813181;0,123;0,136;1
"CISD3";0,356834299604408;0,0559909647932495;0,629;0,64;1
"PARP8";0,357631601690461;-0,0581690166513896;0,15;0,164;1
"RAB11FIP4";0,362242540187409;-0,0557586055071861;0,097;0,109;1
"NBEAL2";0,364806077825646;-0,0518711671882158;0,16;0,173;1
"ERLIN2";0,365133072974847;-0,0507737156943303;0,09;0,101;1
"STRN";0,36578723950828;-0,0507698761145977;0,186;0,2;1
"SUCLG2";0,36848588142214;0,0631546730851999;0,254;0,238;1
"TMEM107";0,371217048832006;-0,0546172014684077;0,166;0,18;1
"ZNF335";0,374259391722299;-0,0629366730376257;0,114;0,126;1
"ZMYND8";0,375498968286315;-0,0643884711769387;0,248;0,261;1
"TPP1";0,375869155350073;0,0517154050496676;0,144;0,13;1
"IKZF1";0,380221021664596;0,0659158760243279;0,597;0,598;1
"TOPBP1";0,381279639378627;-0,0503683378773572;0,457;0,465;1
"HIST1H1B";0,38135922734761;-0,0579523545552323;0,438;0,453;1
"CAMTA2";0,38268353174436;-0,0542767927774008;0,335;0,353;1
"GTPBP1";0,39139870381918;-0,0523567135697136;0,136;0,148;1
"USP12";0,394266597349337;-0,0542959483276844;0,31;0,321;1
"SLC27A2";0,394538377194193;0,0507270586886952;0,244;0,229;1
"ICE2";0,398780338738337;-0,0610727989514961;0,272;0,277;1
"ARL8B";0,404979200381103;0,0586395264513571;0,349;0,338;1
"SNHG12";0,41567233528896;-0,0550559330129342;0,286;0,301;1
"RPS6KA1";0,416288385118002;-0,0702210310200142;0,334;0,344;1
"FLII";0,416838578430249;-0,065376071234904;0,388;0,405;1
"EMC8";0,424731269975986;-0,0559977974482926;0,362;0,366;1
"FBXL3";0,424749153899567;-0,0579150600395654;0,182;0,194;1
"CERS6";0,428489461792182;-0,0562428187107698;0,173;0,18;1
"MTF2";0,431391186283648;-0,0593701553498189;0,341;0,349;1
"ZHX1";0,435997165892094;-0,0503472603189615;0,238;0,248;1
"ZGRF1";0,436508049634302;-0,0530537750908182;0,133;0,144;1
"RBBP7";0,44017410212745;-0,0500449114154574;0,588;0,594;1
"NME6";0,456239100772364;-0,0507205042411204;0,186;0,197;1
"SPTY2D1";0,459741674249991;-0,0514997791177647;0,407;0,414;1
"ADGRE5";0,460011061785661;-0,0721755161524169;0,442;0,453;1
"IPO9";0,463937685483005;-0,0608987545455928;0,231;0,24;1
"FYB1";0,478784099979527;-0,0539719729677741;0,381;0,383;1
"FEN1";0,479690684991262;0,050208878342997;0,573;0,569;1
"GTF3C3";0,487966728825805;-0,0667464820147095;0,217;0,226;1
"MLX";0,494410470184024;0,0535312387401377;0,38;0,366;1
"PNPT1";0,495501570340849;-0,052849860593402;0,381;0,386;1
"GRPEL1";0,522987098073678;-0,0506108903559902;0,587;0,583;1
"NOC3L";0,526092784884947;-0,0591384584772056;0,418;0,418;1
"HSDL2";0,528126663374621;-0,0514241895095535;0,211;0,22;1
"CCDC88B";0,529075030549514;-0,0506497957330639;0,229;0,24;1
"TNFRSF18";0,535867866648629;-0,0604983840015059;0,54;0,55;1
"HIST1H2AC";0,536568985344877;-0,0575728822669707;0,175;0,184;1
"PRF1";0,539138991281538;-0,0664051302797928;0,778;0,79;1
"CBX1";0,541178108854948;0,0594057042828046;0,441;0,434;1
"ACD";0,557234361186724;-0,0619798693119796;0,286;0,292;1
"PPP1R10";0,566943229470151;-0,0839781115158861;0,31;0,317;1
"EHD1";0,567147348729571;-0,0784043596066402;0,33;0,332;1
"MAPK6";0,596719780490504;-0,0674447696619228;0,355;0,356;1
"CREB1";0,602229927176501;-0,0541482151900758;0,267;0,268;1
"SMIM20";0,606818181556972;-0,0576073102357033;0,271;0,28;1
"ITPK1";0,629964375383156;-0,0520350570488544;0,128;0,132;1
"KMT2B";0,635574355667259;-0,0518267776345425;0,205;0,209;1
"VTI1B";0,644070810000131;-0,0501864561135572;0,45;0,45;1
"ELOVL6";0,655489497839483;-0,0607697126314647;0,225;0,229;1
"GADD45B";0,655567068951522;-0,0666595137788707;0,22;0,225;1
"TRMT11";0,663294067025727;-0,0581423545669839;0,23;0,234;1
"CTLA4";0,709265747459589;0,0671813871218236;0,554;0,561;1
"RAB27A";0,715794026342458;0,0562626293001347;0,708;0,698;1
"STAU2";0,727878399947397;-0,05349514903506;0,144;0,146;1
"COA1";0,738851988105779;-0,0551144776755858;0,379;0,373;1
"PPP2R5A";0,744674011062344;-0,0614775046151241;0,239;0,241;1
"CASP8";0,787068280063502;-0,0509412807442794;0,371;0,368;1
"DUSP11";0,791425907641851;-0,0522259386373475;0,21;0,206;1
"RDH10";0,79888679227244;-0,0589760431773423;0,211;0,201;1
"RORA";0,811982383633103;-0,0505783134727267;0,605;0,601;1
"RFLNB";0,818070821218673;-0,0521237784979306;0,52;0,505;1
"IL9";0,893133576993131;-0,215252160745414;0,125;0,121;1
