"";"p_val";"avg_logFC";"pct.1";"pct.2";"p_val_adj"
"RPL29";3,4246974530871e-76;-0,143909128851258;0,999;0,999;1,14857503181635e-71
"RPS28";1,9344110711753e-70;0,160935336077692;0,999;0,998;6,48762785050771e-66
"RPS18";3,76544583754769e-61;-0,132737806630066;1;1;1,26285522499675e-56
"RPL13";5,69493174974208e-59;-0,135170287810776;1;1;1,9099662102285e-54
"RPL39";1,39566205354678e-55;0,143170577723721;0,998;0,997;4,68077139518519e-51
"RPS2";1,43553556315197e-53;-0,111687984499423;1;1;4,81449917169907e-49
"RPL18A";9,53963526501015e-53;-0,108511998014542;1;1;3,19940287517911e-48
"HLA-B";2,46465072443552e-50;0,276959754894303;0,995;0,989;8,26594559961183e-46
"B2M";5,6379731796342e-49;0,273832059986941;0,999;0,998;1,89086344498572e-44
"RPL7A";4,02301298502548e-42;-0,105969610338315;0,999;1;1,34923809491785e-37
"SOCS1";4,90474124909272e-41;0,275685193473648;0,745;0,617;1,64495212012072e-36
"MIF";8,15246076477494e-41;-0,262585572604947;0,863;0,92;2,73417229129022e-36
"RPS9";1,51334874833163e-39;-0,0946245009206295;0,999;0,999;5,07546903215462e-35
"PFN1";1,37966662662191e-34;0,122970291646253;0,996;0,994;4,62712593236457e-30
"RPL13A";4,98536305495626e-34;-0,0995073022790787;1;1;1,67199106137123e-29
"OST4";2,37836837756053e-33;0,176104056521391;0,918;0,87;7,9765718646625e-29
"RPLP1";8,39676182287095e-32;0,0735329113104957;1;1;2,81610598015446e-27
"RPL12";1,87140217308291e-31;-0,0963480989398398;0,999;1;6,27630860808546e-27
"RPS21";2,43630872902019e-31;0,0977409384150243;0,988;0,989;8,1708922153879e-27
"RPL18";7,01937244013097e-31;-0,0845536991059617;0,999;1;2,35415712897112e-26
"RPS19";1,78843401220614e-30;-0,0837414573374988;1;1;5,99804999013694e-26
"ATP6V0E1";2,17792233769814e-29;0,185804063477596;0,842;0,753;7,30431593617201e-25
"DDX5";3,8737518161193e-27;0,147931998574097;0,933;0,913;1,29917888409009e-22
"RPS27";4,87622923945528e-27;0,0909004371658355;1;1;1,63538976232851e-22
"TMA7";2,18289582147452e-26;0,112775448447857;0,96;0,953;7,32099600606123e-22
"TMEM258";4,94147513629291e-26;0,160445172612344;0,85;0,804;1,65727193120992e-21
"SEC61B";3,17783589565195e-25;0,144710196750373;0,943;0,929;1,06578260268375e-20
"RPL11";3,3111389590472e-25;-0,0852118780461741;0,999;1;1,11048978408525e-20
"CFL1";3,85112045846902e-25;0,11189464774209;0,987;0,984;1,29158877936134e-20
"NDUFA4";2,57939745459777e-24;0,130440153346917;0,959;0,937;8,65078318323e-20
"CCDC85B";3,58163570707666e-24;-0,162691290814993;0,855;0,891;1,20120898343937e-19
"PPIA";4,53601597199345e-24;0,10193123401991;0,995;0,993;1,52128903668716e-19
"NOP10";3,52935634152751e-23;0,144331186570926;0,856;0,821;1,1836755298215e-18
"SELENOW";5,86712436617233e-23;-0,164551666866457;0,71;0,778;1,96771616992688e-18
"MT-ND4";8,74620903842205e-23;-0,145293812475717;0,992;0,989;2,93330358730599e-18
"RPL3";4,35223240903822e-22;-0,0801072571091965;1;1;1,45965170534324e-17
"RPL8";6,90034395392457e-22;-0,0911184355365786;0,999;1;2,31423735526722e-17
"CD52";1,47386067453739e-21;0,265180961372144;0,65;0,532;4,94303393026348e-17
"BTF3";1,74808447473651e-21;0,0957773687213903;0,968;0,96;5,86272571137131e-17
"SLC25A5";4,56071866129937e-21;0,124312264858296;0,892;0,885;1,52957382462658e-16
"COX6C";9,25813632008563e-21;0,136733800093314;0,93;0,905;3,10499375903032e-16
"SPCS1";3,19869092222283e-20;0,132081775039624;0,835;0,783;1,07277696149509e-15
"TRMT112";3,29937804309186e-20;0,136245669102223;0,86;0,821;1,10654540809215e-15
"SNRPF";5,17418421970359e-20;0,110553196642699;0,886;0,886;1,73531790360419e-15
"FTL";6,45980459922263e-20;0,165314010260944;0,997;0,996;2,16648926648729e-15
"COPS9";1,08720301237168e-19;0,12768987411971;0,782;0,736;3,64626146289215e-15
"COX8A";4,29575291323838e-19;0,120789558669871;0,923;0,896;1,44070961204189e-14
"RPSA";6,45356347563118e-19;-0,0751468916386053;0,998;0,998;2,16439611845719e-14
"RPS3";7,19626085945854e-19;-0,0748016306618822;0,999;1;2,41348196704521e-14
"MT-ATP6";1,5352634360246e-18;-0,12292957922724;0,991;0,991;5,14896651173931e-14
"CALM2";1,56400923595474e-18;0,124661334402949;0,87;0,857;5,245374175545e-14
"NPC2";1,85302349525333e-18;0,198034563528311;0,31;0,212;6,21467019838063e-14
"MT-ND5";2,83349896879585e-18;-0,17844248384149;0,933;0,943;9,50298884154753e-14
"RPS15";4,00036705584172e-18;-0,0776721548522197;1;1;1,3416431031882e-13
"DAD1";4,20031206718174e-18;0,130650401207749;0,822;0,761;1,40870066109141e-13
"COX7A2";8,13364948723678e-18;0,104278511765678;0,935;0,913;2,72786336502947e-13
"PRDX1";1,03323183627823e-17;0,105220566638957;0,923;0,915;3,46525293250993e-13
"COX7C";1,22693183397871e-17;0,0942468782612944;0,957;0,955;4,11488398479778e-13
"RPS29";2,10992926171783e-17;0,0610517964737478;1;1;7,07628075794924e-13
"TPT1";2,48049419536561e-17;0,0798410936761922;1;0,999;8,31908143241717e-13
"RPS5";3,60134676501565e-17;-0,0772184363876156;0,998;0,998;1,20781967805095e-12
"POLR2L";4,24155461759191e-17;0,12024639884256;0,876;0,862;1,42253258764797e-12
"MT-ND6";4,62132781594505e-17;-0,186360430534047;0,554;0,625;1,54990092291165e-12
"UBE2S";4,62230827629269e-17;-0,178014234952954;0,762;0,824;1,55022974970304e-12
"COX6A1";6,23381325740269e-17;0,120927232905482;0,919;0,896;2,09069629026771e-12
"ATP5F1E";6,53668626502793e-17;0,109166312286927;0,986;0,985;2,19227383956507e-12
"CSNK2B";9,39444969853157e-17;0,12655322872063;0,734;0,658;3,15071053989352e-12
"MGST3";1,00238570706772e-16;0,178203852571381;0,553;0,438;3,36180118436372e-12
"BRI3";1,01979332706932e-16;0,150088921787383;0,541;0,432;3,42018286032507e-12
"RPL19";1,06778746291313e-16;-0,0571795006187537;1;1;3,58114559311804e-12
"MINOS1";1,33306198243091e-16;0,132463580815173;0,679;0,602;4,47082327667678e-12
"GADD45GIP1";1,7710865488566e-16;-0,103150531114374;0,874;0,889;5,93987006755527e-12
"ACTG1";2,2077241007558e-16;0,0890390793906515;0,996;0,994;7,40426508911479e-12
"MIR155HG";3,82185918752793e-16;0,214562642805115;0,79;0,739;1,28177513431312e-11
"RPL34";5,63944050359497e-16;0,0595107554757934;0,999;0,998;1,89135555609568e-11
"RPL28";7,63638242532571e-16;-0,0740790980493804;1;1;2,56108993780574e-11
"SRSF2";8,89352260141563e-16;0,10882713842126;0,858;0,852;2,98270961006277e-11
"PEPD";1,42689654035334e-15;0,0936442853321637;0,316;0,219;4,78552561703703e-11
"COX7B";2,21685899947172e-15;0,113646926983149;0,858;0,842;7,43490171242825e-11
"EIF5A";2,57210314367537e-15;0,132645614138938;0,93;0,937;8,62631952325846e-11
"RPS16";2,60963875020378e-15;-0,0588571382455592;0,999;0,999;8,75220644043344e-11
"PKM";3,70726949744076e-15;-0,111956122357515;0,96;0,972;1,24334404405168e-10
"ABRACL";3,78681803878143e-15;0,124234080669708;0,784;0,746;1,27002303384651e-10
"ATP6V0B";9,80770380580837e-15;0,123037172851948;0,8;0,764;3,28930770239201e-10
"ATP5MC1";1,17981726846526e-14;0,109828136585546;0,87;0,836;3,95687115497881e-10
"SUMO2";1,45264732220501e-14;0,0895644879523696;0,926;0,913;4,87188858921117e-10
"COX7A2L";1,53173535935263e-14;0,123968444871321;0,657;0,577;5,13713404819686e-10
"TOMM7";1,63514343603013e-14;0,0921669394509852;0,902;0,899;5,48394405575784e-10
"HNRNPF";1,72938652437198e-14;0,100681298308313;0,857;0,851;5,80001652543874e-10
"EEF2";2,03192978682497e-14;-0,110308442469659;0,939;0,962;6,81468611905357e-10
"MT1X";2,04775095180012e-14;0,146176000502266;0,597;0,535;6,86774714214724e-10
"RPL22L1";2,58922829117332e-14;-0,129374445720127;0,833;0,891;8,68375384293707e-10
"MT-CO3";3,80754777025527e-14;-0,104548463500963;0,994;0,991;1,27697537118821e-09
"RPS3A";3,97808091800569e-14;-0,0688847903700842;1;0,999;1,33416877828075e-09
"NKG7";4,10904538458094e-14;0,255100390016862;0,86;0,825;1,37809164108076e-09
"NDUFA3";5,09691235160158e-14;0,123558082535356;0,695;0,618;1,70940246448014e-09
"ATP5MD";6,9057127338845e-14;0,101458798855139;0,84;0,824;2,31603793669018e-09
"UQCRB";7,84184622152024e-14;0,101185029992243;0,896;0,874;2,62999838577346e-09
"AC004148.2";9,27470513228472e-14;0,0582662761435653;0,222;0,144;3,11055060726565e-09
"TFRC";1,02066011072379e-13;-0,147964555379495;0,627;0,679;3,42308987934545e-09
"ATP1B3";1,03534312981037e-13;0,120638380482572;0,79;0,754;3,47233378875802e-09
"ACTR2";1,57611495738065e-13;-0,117370549367764;0,791;0,829;5,28597434406322e-09
"MYO1G";2,15026389247965e-13;-0,144087902263219;0,671;0,719;7,21155504259825e-09
"CALR";2,2266602365455e-13;0,102368710056196;0,9;0,897;7,4677731013263e-09
"LMAN2";3,02267037594538e-13;0,137241253659646;0,693;0,61;1,01374319068456e-08
"TMEM97";3,22590493368735e-13;0,0809406913926441;0,352;0,258;1,08190399666006e-08
"RPS26";3,63208794131458e-13;0,0732760480602672;0,993;0,992;1,21812965375808e-08
"APH1A";5,4669046534247e-13;0,101076246507902;0,48;0,383;1,83349048266558e-08
"BRK1";5,69814267778947e-13;0,124434097073917;0,752;0,698;1,91104309127703e-08
"MT-CYB";6,64230441135948e-13;-0,0922381626184086;0,988;0,985;2,22769605348174e-08
"XCL1";7,20358258646407e-13;0,200152560467328;0,146;0,085;2,41593752784832e-08
"PSMB2";7,46652775723367e-13;0,100844866489664;0,788;0,742;2,50412407922103e-08
"TNFSF14";8,21524576033479e-13;0,138503451270299;0,408;0,318;2,75522912310108e-08
"C1QBP";9,38454321142713e-13;0,104383340483011;0,88;0,877;3,14738810224843e-08
"PSMA1";9,8203312130367e-13;0,110053874879509;0,819;0,787;3,29354268222825e-08
"BANF1";1,2614440874398e-12;0,106222317118044;0,749;0,716;4,23063118045562e-08
"SNRPE";1,28900273933991e-12;0,0862520283585162;0,886;0,874;4,3230573871982e-08
"CDK4";1,59042572329251e-12;0,105277352429096;0,685;0,645;5,33396979077842e-08
"HMGN1";1,77588439012851e-12;0,0880700208215786;0,902;0,894;5,955961067613e-08
"RTRAF";1,81765306519405e-12;0,098003785656007;0,826;0,802;6,09604485004781e-08
"ERAP2";2,56413186815523e-12;-0,105492025932223;0,2;0,272;8,59958545941901e-08
"RAB7A";3,11597966394582e-12;0,116266051085265;0,644;0,579;1,04503725969415e-07
"LINC01943";3,35620997132209e-12;0,318228170175082;0,636;0,584;1,125605700182e-07
"UQCRQ";3,93817555405825e-12;0,0853331573850264;0,892;0,89;1,32078531732006e-07
"CXCR4";4,36155847699925e-12;0,278904102028571;0,394;0,32;1,46277948201601e-07
"RAB5IF";4,3967623174037e-12;0,0967607710880476;0,565;0,474;1,47458614601085e-07
"COMMD6";5,44109851794483e-12;0,115513580258385;0,773;0,708;1,82483562094834e-07
"JTB";5,5832151598676e-12;0,0927417229179559;0,845;0,819;1,87249870031639e-07
"MBNL1";6,20183779576755e-12;-0,108515421565107;0,713;0,747;2,07997235994452e-07
"CD63";6,74337639731884e-12;0,181609062979964;0,863;0,811;2,26159357613279e-07
"EIF1B";6,8081973578117e-12;0,116574018375232;0,589;0,499;2,28333322986289e-07
"TPI1";7,31592713144282e-12;-0,0806798215596203;0,962;0,98;2,45361564134329e-07
"CXCR3";8,22044505886718e-12;0,0742393709808226;0,289;0,209;2,75697286384287e-07
"NDUFC2";1,12003090797418e-11;0,103676667749752;0,781;0,718;3,7563596591638e-07
"CSTB";1,12826250770988e-11;0,153942552273333;0,778;0,725;3,78396679835739e-07
"HMGB2";1,22141026167577e-11;-0,123891712592188;0,803;0,857;4,0963657356082e-07
"SPCS2";2,28058805886289e-11;0,121648403369198;0,806;0,758;7,64863623181437e-07
"SLC39A1";2,64303539130878e-11;0,0674021604389544;0,438;0,347;8,86421209537138e-07
"RPL10A";4,02709867994517e-11;-0,0571685501957653;0,999;0,999;1,35060835528001e-06
"SNRPG";5,07595764806079e-11;0,0769862988473011;0,898;0,898;1,70237467600663e-06
"TSTD1";6,37051686737000e-11;0,107621465196601;0,635;0,55;2,13654394697855e-06
"BAX";6,84716620278547e-11;0,113789082020482;0,737;0,678;2,29640260109019e-06
"SNX3";7,07126296237393e-11;0,114120648850698;0,599;0,514;2,37156017232097e-06
"EIF1";7,77981848291774e-11;0,0781112974277187;0,996;0,994;2,60919552280095e-06
"EMP3";7,81640536365418e-11;0,130390945744776;0,911;0,886;2,62146603086234e-06
"POLR2K";9,7180486321027e-11;0,097378484616867;0,731;0,675;3,2592391502346e-06
"ALG5";1,04464535375996e-10;0,0804841973072684;0,479;0,389;3,50353158744017e-06
"RACK1";1,08514142412847e-10;-0,0626569054453392;0,996;0,998;3,63934730824207e-06
"ATP5MF";1,11349807192864e-10;0,0798574014950459;0,864;0,846;3,73444983363428e-06
"SRSF3";1,28038199536394e-10;0,070038471919774;0,927;0,924;4,29414513605159e-06
"XCL2";1,4848441222462e-10;0,29523908447268;0,14;0,086;4,9798702171893e-06
"GNG5";1,53866162454818e-10;0,0955074134140579;0,887;0,865;5,16036335640968e-06
"ATP5MG";1,56328264716394e-10;0,0857485383365901;0,966;0,958;5,24293734205843e-06
"SDHC";1,60309896245613e-10;0,0945405293740267;0,565;0,487;5,37647330028535e-06
"HLA-E";1,6371614150246e-10;0,132056670856051;0,907;0,879;5,49071195370949e-06
"SPTBN1";1,67821463675748e-10;-0,126838326757484;0,376;0,433;5,62839624875725e-06
"KRT10";1,73130419313175e-10;0,0954614814734072;0,704;0,641;5,80644800292527e-06
"PSMB3";1,81324242068177e-10;0,0876563958049847;0,893;0,872;6,08125243048251e-06
"ERH";1,98140000039436e-10;0,0807902920080175;0,851;0,828;6,6452193213226e-06
"APEX1";2,00683070429312e-10;0,106748877820908;0,709;0,669;6,73050881605827e-06
"PPP1R14B";2,02050939685046e-10;0,0953728977005979;0,802;0,808;6,77638441515708e-06
"MAGOH";2,48560066675081e-10;0,0931380133155882;0,736;0,685;8,33620751614888e-06
"PSME1";2,55507318703242e-10;0,0978689134716542;0,889;0,87;8,56920445466932e-06
"CENPF";2,87489500996937e-10;-0,156527754452809;0,519;0,571;9,64182288443528e-06
"NDUFB1";3,12997521700865e-10;0,106545355317842;0,758;0,705;1,04973108828036e-05
"EMC4";3,13180494234204e-10;0,0879001495618231;0,59;0,508;1,05034474156267e-05
"PARP1";3,65425691598905e-10;-0,0980538142757834;0,854;0,879;1,22556468448441e-05
"MGAT4B";3,92947609370041e-10;0,0521311403971263;0,304;0,223;1,31786769230524e-05
"CCND2";4,08275828600417e-10;0,104168620512271;0,868;0,851;1,36927547396008e-05
"SUB1";4,77603919975626e-10;0,0921873428351612;0,969;0,952;1,60178802681425e-05
"RAB13";5,00245984592923e-10;0,0529295314790794;0,211;0,146;1,67772498312775e-05
"SERF2";5,95304207945731e-10;0,0879293308379676;0,991;0,987;1,99653125260839e-05
"SNRPB2";6,09646011029659e-10;0,0822846637281569;0,78;0,761;2,04463079179127e-05
"RPS11";6,17091938365814e-10;-0,0540606890539923;0,997;0,998;2,06960294289127e-05
"PIM3";6,54789319634419e-10;0,0926898909857574;0,647;0,576;2,19603242018991e-05
"CALM1";6,73822720848147e-10;0,0920790751684004;0,988;0,981;2,25986664118051e-05
"OSTC";6,77328354243947e-10;0,0952163883726191;0,709;0,657;2,27162383446335e-05
"VCP";7,36998258267996e-10;-0,0990987915114634;0,771;0,801;2,47174475857921e-05
"UXT";8,14159875272762e-10;0,124703929454787;0,786;0,743;2,73052938968979e-05
"KDELR2";8,24323891663061e-10;0,0890619707264082;0,647;0,579;2,76461746785957e-05
"RGS1";8,62893169073928e-10;0,247416787098483;0,16;0,107;2,89397111044014e-05
"SPINT2";8,7210394523747e-10;0,0685822302526133;0,204;0,14;2,92486221153743e-05
"VAPA";8,95363545102029e-10;0,0893984501933573;0,689;0,636;3,00287025756318e-05
"SEC61G";1,02409754875812e-09;0,0807632727743699;0,872;0,857;3,43461835902499e-05
"PTGES3";1,03622290500799e-09;0,0737184848992005;0,901;0,894;3,47528437881579e-05
"CD53";1,04675387531209e-09;0,0992506589179059;0,594;0,508;3,5106031470217e-05
"RPS8";1,07360826459526e-09;-0,0597989150654907;1;1;3,60066739779958e-05
"UBE2I";1,11916958361027e-09;0,0845247370048756;0,813;0,781;3,75347094951212e-05
"RANBP2";1,20966150525186e-09;-0,123063425105689;0,538;0,582;4,05696275631369e-05
"TMEM256";1,21246475975676e-09;0,104535535719707;0,463;0,378;4,06636431127221e-05
"EEF1B2";1,27108735487005e-09;-0,0572528502530467;0,993;0,994;4,26297277076319e-05
"COX6B1";1,28614358585002e-09;0,0786340309223208;0,915;0,897;4,31346835822378e-05
"ARPC3";1,4460468518505e-09;0,0917799367352785;0,911;0,894;4,8497519317362e-05
"PSMA2";1,62707987203464e-09;0,100074047942863;0,607;0,533;5,45690047482979e-05
"C4orf3";1,67389881746872e-09;0,0956412646517448;0,68;0,6;5,61392185402659e-05
"RPS4Y1";1,67525214047453e-09;0,110771563676096;0,666;0,598;5,61846062872349e-05
"HK1";1,70721096950698e-09;-0,116749052163919;0,534;0,576;5,72564414953251e-05
"RPL27A";1,71646100671724e-09;-0,0525930453940195;0,998;0,998;5,75666692432828e-05
"CD99";1,76701783905335e-09;0,128747047596542;0,737;0,664;5,92622442861714e-05
"DDIT4";1,79218337162176e-09;-0,152137215796519;0,682;0,726;6,01062459174506e-05
"DPM3";1,80464749334637e-09;0,0865896702951415;0,394;0,311;6,05242676318506e-05
"SEC11C";1,87898145470482e-09;0,141840967437272;0,851;0,801;6,30172800278904e-05
"SQSTM1";1,97540807580335e-09;0,176125716147778;0,674;0,612;6,62512360462929e-05
"LBR";2,27894101060796e-09;-0,106153070163051;0,609;0,645;7,64311236137699e-05
"CCR7";2,28222906390538e-09;0,142905254306287;0,553;0,473;7,65413983452588e-05
"TMSB4X";2,67920104348336e-09;0,107487890819919;0,999;0,998;8,98550445963449e-05
"TMBIM4";2,85328400900836e-09;0,0989512800967227;0,523;0,434;9,56934390941223e-05
"LSM2";2,85356956714112e-09;0,0811499256715156;0,792;0,761;9,57030161427788e-05
"MKI67";3,99455823040525e-09;-0,130969322065944;0,629;0,696;0,000133969493931331
"SSU72";4,21038508775541e-09;0,0895248757947499;0,683;0,624;0,000141207895073141
"MT1E";4,23754973789512e-09;0,21274447774593;0,443;0,389;0,000142118943109527
"RAC1";4,52930842312734e-09;0,0825975902997034;0,84;0,809;0,000151903945894845
"HIGD2A";5,89806413334735e-09;0,0975285653743475;0,681;0,616;0,000197809274904203
"ATP5MC2";6,01064839614426e-09;0,090738376903214;0,923;0,905;0,000201585125909886
"CD55";6,73390375683055e-09;0,0858526104976792;0,421;0,343;0,000225841664196583
"GTPBP6";7,63042442500214e-09;0,0736041970783557;0,493;0,409;0,000255909174365722
"ATP6V1G1";7,88526967717367e-09;0,10177098669141;0,589;0,505;0,00026445617443305
"DERL2";9,48437088164348e-09;0,0721103119783084;0,448;0,364;0,000318086830628559
"HLA-F";9,96281505899442e-09;0,137129582520765;0,551;0,473;0,000334132891448555
"EIF4G1";1,09739133226757e-08;-0,109800138821886;0,733;0,782;0,000368043105015897
"PRRC2A";1,14715615415061e-08;-0,114295528511987;0,467;0,511;0,00038473323097903
"IL2RG";1,22775790569077e-08;0,106543325826071;0,667;0,587;0,00041176544641057
"GLRX5";1,42442438340849e-08;0,0817499034749987;0,637;0,575;0,000477723449707539
"BLOC1S4";1,44457315064271e-08;0,0702172404848441;0,389;0,311;0,000484480943262553
"ATP5MPL";1,52740478052256e-08;0,0798569828439322;0,848;0,842;0,000512261015291655
"SLC25A3";1,54222803984581e-08;0,0734449885401449;0,934;0,919;0,000517232440003489
"LAMP1";1,58927305532383e-08;0,0726118019117039;0,402;0,322;0,000533010397294507
"NUDT1";1,74301015227791e-08;-0,0888151281557206;0,687;0,714;0,000584570744870967
"SMIM4";1,75646737803127e-08;0,0633061917874033;0,386;0,311;0,000589084029244128
"TMPO";2,06732041629896e-08;-0,100919513349913;0,776;0,816;0,000693337921218344
"MACF1";2,069173098519e-08;-0,131700913125016;0,588;0,621;0,000693959273781301
"MRPL33";2,69189710940322e-08;0,0838195982565568;0,746;0,708;0,000902808452551651
"SCFD1";2,69529833202117e-08;0,051564832267072;0,434;0,347;0,000903949154593259
"UBE2N";2,70074426561336e-08;0,0741054773599024;0,753;0,732;0,000905775611801408
"RWDD1";2,796716215327e-08;0,0760423971365907;0,778;0,741;0,00093796268429637
"GNAS";2,89565866265397e-08;-0,0976931972611568;0,783;0,802;0,000971146002280887
"RPL17";3,5932218111172e-08;-0,0993735416116862;0,631;0,654;0,00120509473101249
"MYL12B";3,6512570606605e-08;0,0923160377959089;0,922;0,889;0,00122455859300432
"TXNDC15";3,87132321277236e-08;0,0545644323539834;0,297;0,228;0,00129836437909959
"ARF4";3,89766643749284e-08;0,0803148082680882;0,54;0,464;0,00130719936980635
"ETS1";3,93028982137217e-08;-0,0995212538994987;0,747;0,771;0,0013181406002918
"ITM2B";4,16489082955354e-08;0,131152801133646;0,501;0,427;0,00139682108641567
"CAMTA1";4,24725783683527e-08;0,0794920115697217;0,517;0,434;0,00142444533331781
"MT-CO2";4,28618373249244e-08;-0,0605495625152779;0,994;0,99;0,00143750030020332
"TMCO1";4,37644616360175e-08;0,0813332982407527;0,638;0,577;0,00146777251434875
"RBM3";4,82235138723898e-08;0,0782214322034349;0,873;0,858;0,00161732020825221
"PDIA3";4,90696131118081e-08;0,0843865002354207;0,809;0,791;0,00164569668454382
"RGS16";5,03079560042167e-08;0,11688226609692;0,346;0,278;0,00168722822846942
"COPRS";5,05110159742923e-08;0,0886653345572811;0,561;0,498;0,00169403845374581
"GPR171";5,14074942773254e-08;0,144696124306688;0,679;0,612;0,00172410454307294
"MT1G";5,15185292268315e-08;0,0768451377445643;0,183;0,13;0,00172782843320948
"WASHC3";5,18780168062357e-08;0,0738806950218926;0,349;0,278;0,00173988492764753
"XBP1";5,6262103163838e-08;0,0904868480831034;0,516;0,437;0,0018869184159088
"PPP1R11";5,86392233159911e-08;0,0504159765083286;0,362;0,283;0,00196664227157171
"AKR1B1";5,96398564953284e-08;0,0508400757923964;0,505;0,425;0,00200020150714033
"MT2A";6,00375969125633e-08;0,154995592379914;0,839;0,823;0,00201354092525355
"UBL5";6,24908941978197e-08;0,0730677381213982;0,91;0,906;0,00209581960960648
"VARS";6,8849972612743e-08;-0,119837286860568;0,483;0,511;0,00230909038148617
"KARS";7,16352339088594e-08;-0,0921427287520572;0,585;0,617;0,00240250247483533
"NDUFA12";7,31496773612066e-08;0,0846840994100193;0,771;0,718;0,00245329387934015
"MTRNR2L12";8,09133605677659e-08;-0,0793331931058832;0,614;0,654;0,00271367228672173
"TXN";8,09830205498786e-08;0,10831894208918;0,982;0,972;0,00271600854320183
"CDK2AP2";8,72792961343133e-08;0,104777424392605;0,688;0,634;0,0029271730337526
"CCL4";8,83565044174787e-08;0,330177557010584;0,731;0,664;0,0029633004451534
"SRP14";9,37641657338421e-08;0,0778714388891633;0,971;0,962;0,0031446625903816
"MLF2";1,00297919662431e-07;0,075273656562073;0,605;0,547;0,00336379162963862
"DIMT1";1,10400788541395e-07;0,0527782278827114;0,483;0,408;0,0037026216461013
"ORMDL2";1,26909854202577e-07;0,0821610833974432;0,438;0,364;0,00425630269024603
"ACTN1";1,31400008206223e-07;0,069264209331812;0,401;0,332;0,0044068934752203
"SELENOH";1,36190891993149e-07;-0,0763883848656062;0,804;0,843;0,00456757013566623
"TMEM243";1,38388625750688e-07;0,0526129109754323;0,491;0,414;0,00464127773042657
"TMEM59";1,38416984955465e-07;0,0935266015982419;0,59;0,513;0,0046422288414364
"RGCC";1,43692929195254e-07;0,102608408849127;0,518;0,445;0,00481917345935043
"LAMTOR5";1,5106577418787e-07;0,0779307003056342;0,798;0,756;0,00506644393471279
"NDUFB6";1,5719208081719e-07;0,0838432165204575;0,669;0,603;0,00527190800644692
"HERPUD1";1,65655480923035e-07;0,0947563981493948;0,586;0,512;0,00555575351919674
"ARPC4";1,66359929090628e-07;0,0835332429142936;0,757;0,725;0,00557937930184147
"TMEM18";1,70097996791624e-07;0,0661281159277408;0,4;0,33;0,00570474661639747
"HIST1H1D";1,85333522452399e-07;-0,173250882418283;0,563;0,614;0,00621571567600854
"TRIR";1,89112055798573e-07;0,0746391922482306;0,841;0,819;0,00634244012737253
"DNAJA1";1,95688506462139e-07;0,0677875157202537;0,857;0,838;0,00656300112972722
"ERP44";2,16749202278294e-07;0,0673872749639363;0,414;0,338;0,00726933474600944
"ZBTB32";2,31887261796445e-07;-0,106934778811878;0,544;0,582;0,00777703498612919
"RPL36A";2,81237725346831e-07;0,0759184651388367;0,828;0,81;0,00943215083268201
"SLAMF7";2,95720814064466e-07;0,0590209109317292;0,252;0,19;0,00991788466209405
"EIF2B1";2,96886729985381e-07;0,0646900987879492;0,455;0,385;0,0099569871502497
"TMBIM6";3,34541236617228e-07;0,0782203117046909;0,862;0,853;0,0112198439936686
"ID2";3,42524228085051e-07;0,17979596029173;0,508;0,444;0,0114875775615164
"CTSC";3,65174673276605e-07;0,112834652753175;0,684;0,636;0,0122472281923508
"TNIP1";3,91985164376529e-07;-0,108550961445985;0,53;0,564;0,01314639844286
"PIP4P1";4,10621821477659e-07;0,0528493490189419;0,238;0,181;0,0137714346487177
"ILKAP";4,17399160234e-07;0,0596233016143607;0,472;0,403;0,0139987330359279
"HUWE1";4,24424865302056e-07;-0,094269734661556;0,816;0,83;0,0142343611325004
"RBM39";4,36050652113992e-07;0,0625430143790455;0,811;0,802;0,0146242667705991
"TAP1";4,43831381799239e-07;0,077896359178666;0,681;0,621;0,0148852168827829
"FKBP1A";4,54701669861783e-07;0,0796841521032882;0,723;0,685;0,0152497846038245
"AURKAIP1";4,72798871825158e-07;-0,061790299441679;0,844;0,867;0,0158567285632721
"OAZ1";5,11565553634048e-07;-0,0504399383202414;0,976;0,982;0,0171568855377787
"PPP6R1";5,28308446416871e-07;-0,097424643613321;0,591;0,633;0,017718408675929
"GLOD4";5,30585535001428e-07;0,0639470016205609;0,471;0,389;0,0177947776728779
"PTTG1";5,32549735790094e-07;-0,0968329959082455;0,625;0,656;0,0178606530389282
"COPZ1";5,39015320154221e-07;0,06949748555082;0,515;0,439;0,0180774958073322
"POMP";5,48672657920874e-07;0,0571065729631111;0,894;0,89;0,0184013836013503
"PPP1CB";6,15357329597496e-07;-0,0786053602982254;0,552;0,581;0,0206378541200408
"NDUFB4";6,18219850343714e-07;0,071131219973807;0,801;0,755;0,0207338573408275
"TNFRSF4";6,18762895439194e-07;-0,143250570831001;0,504;0,549;0,0207520699872397
"TOMM22";6,19342025771049e-07;0,0721747890800921;0,728;0,697;0,0207714928603094
"TPM4";6,34116645012077e-07;-0,0751162228792619;0,851;0,877;0,021267004040415
"ALYREF";6,65064246464979e-07;0,0750468249714157;0,636;0,613;0,0223049246979425
"SELENOT";6,68207925001938e-07;0,0820080381947402;0,591;0,525;0,022410357388715
"USP7";6,68411508039652e-07;-0,0969080877965622;0,517;0,551;0,0224171851566338
"DLGAP5";6,70850750601838e-07;-0,104837687567851;0,387;0,427;0,0224989924736844
"TPX2";6,74218099563516e-07;-0,114519553344969;0,518;0,559;0,0226119266231612
"ODC1";6,90420094106739e-07;0,081205359516457;0,788;0,792;0,0231553091161518
"MT-ND2";6,9180196358044e-07;-0,0891455981524714;0,967;0,97;0,0232016542545608
"DPY30";7,00046289590843e-07;0,0718213889199846;0,56;0,483;0,0234781524602977
"LTV1";7,03495440016423e-07;0,0654568963529274;0,53;0,473;0,0235938300672708
"LSM8";7,78587608942394e-07;0,0692959204410507;0,714;0,675;0,02611227122871
"MTCH2";8,16979388797914e-07;0,0739939849960731;0,575;0,516;0,0273998547415044
"NDUFA2";8,24503004340193e-07;0,0799137639183256;0,79;0,743;0,0276521817595614
"YRDC";8,71393256909002e-07;0,0781201326238637;0,476;0,423;0,0292247870502141
"COX17";8,72696485404039e-07;0,0800929018543268;0,855;0,828;0,0292684947274807
"CYSTM1";9,01377482537313e-07;0,0593371362154909;0,354;0,284;0,0302303980093364
"ETHE1";9,0706361010182e-07;0,0859999002125531;0,501;0,423;0,0304210993555948
"BIRC3";9,13165047913912e-07;-0,136520985300555;0,548;0,574;0,0306257293769368
"LINC01588";9,56691186448611e-07;-0,071799426188755;0,207;0,257;0,0320855090111135
"ENY2";9,61830066139028e-07;0,0690913371859869;0,765;0,722;0,0322578567581707
"NBN";9,78292251731416e-07;0,0585033590583857;0,425;0,351;0,0328099655385682
"DDOST";9,9061493340711e-07;0,0720082579784962;0,577;0,517;0,0332232436366076
"LBH";9,93849932037597e-07;0,118502764593144;0,366;0,301;0,0333317390206769
"GIMAP4";1,02931721461307e-06;-0,0973666582526407;0,339;0,39;0,0345212407436932
"RER1";1,10637647946406e-06;0,0909207364618356;0,722;0,684;0,0371056543682656
"ATP5MC3";1,17383172667965e-06;0,0545032432861832;0,948;0,943;0,0393679684493821
"SCPEP1";1,18204125558963e-06;0,0509403271251858;0,187;0,137;0,0396432996299648
"EMC7";1,1929474234099e-06;0,06920419048078;0,575;0,505;0,0400090706863212
"POLR2G";1,20676038507067e-06;0,0699905284609542;0,613;0,54;0,0404723297945001
"SKP1";1,33442810914526e-06;0,0680416665269157;0,86;0,848;0,0447540499245139
"CRTAM";1,33561248150174e-06;0,107635241442382;0,275;0,217;0,0447937714046055
"CD8B";1,34324839878975e-06;0,11544045636956;0,511;0,445;0,0450498647986106
"PYURF";1,34625113263181e-06;0,0775555708705402;0,62;0,57;0,0451505704862056
"CD7";1,38163507412561e-06;-0,0884549045221215;0,796;0,82;0,0463372771160248
"ATP5PF";1,45295894639889e-06;0,0588882452552157;0,9;0,897;0,0487293371443259
"EIF4B";1,46935867378274e-06;-0,0766124583611452;0,77;0,792;0,0492793512013254
"ATP5PD";1,52699565126209e-06;0,0895168776331607;0,774;0,736;0,051212380152028
"PSMC4";1,53706017203284e-06;0,0692084262678552;0,685;0,639;0,0515499240496375
"LONP1";1,55230945495911e-06;-0,0996729864437897;0,519;0,545;0,0520613545004185
"MRPL39";1,74744095511702e-06;0,0515377540822008;0,432;0,362;0,0586056747527146
"RHEB";1,77877357351968e-06;0,0575582792375238;0,474;0,401;0,059656508108703
"ADAM19";1,81597156389113e-06;-0,0560440415870886;0,11;0,15;0,0609040543097808
"DYNLRB1";1,86458238977389e-06;0,0944438983182494;0,684;0,622;0,0625343641882367
"PPIH";1,87871107181851e-06;0,0556218090170441;0,529;0,468;0,0630082119266493
"PTPN11";1,88560046623308e-06;-0,0908022099971002;0,565;0,592;0,063239268436525
"GPRIN3";1,92847236744562e-06;-0,0754775163060376;0,187;0,237;0,0646771062593914
"TMEM9B";1,95835725043554e-06;0,0545699477749629;0,341;0,275;0,065679385465107
"FLNA";1,97370034291631e-06;-0,0980979320308073;0,754;0,767;0,0661939621007274
"TOMM20";1,98605943382847e-06;-0,0746056357428952;0,778;0,808;0,0666084612917392
"STMP1";2,01282365030461e-06;0,0618808306349591;0,492;0,417;0,0675060795839161
"TSG101";2,07293546244612e-06;0,0569868028380562;0,448;0,374;0,0695221095395179
"HM13";2,0879127414566e-06;0,0733973521818481;0,585;0,519;0,0700244175229713
"LAPTM4A";2,19099770263228e-06;0,0567407303684134;0,311;0,249;0,0734816809508813
"ETFB";2,25133253459487e-06;-0,082277115189618;0,723;0,745;0,0755051905452429
"NDUFB10";2,27870217344849e-06;-0,0714454810251131;0,84;0,872;0,0764231134931155
"CKLF";2,33885152378935e-06;0,0918568399069971;0,669;0,608;0,0784404024048474
"TRAPPC4";2,40046626923021e-06;0,0699276287247605;0,67;0,624;0,0805068377374428
"PSMD11";2,42743147778131e-06;0,0695773978789613;0,718;0,675;0,0814111969018295
"VAMP2";2,46751655689632e-06;0,0824330126606099;0,424;0,358;0,0827555702851887
"MIR4435-2HG";2,49925444042352e-06;0,0727244353291443;0,319;0,258;0,0838199954229239
"SMIM27";2,57108443000018e-06;0,0631824923111878;0,234;0,181;0,086229029613346
"PPIB";2,64413793717204e-06;0,0692342120318361;0,923;0,919;0,0886790981368758
"UBB";2,65697923801475e-06;-0,0593745015317477;0,94;0,951;0,0891097696845386
"LSM6";2,78481883696866e-06;0,0702880536662596;0,718;0,665;0,0933972541542551
"ATP6AP2";2,95499663518165e-06;0,0708341504549114;0,504;0,437;0,0991046771507221
"HSPD1";3,00148932290439e-06;-0,0738058231328877;0,929;0,959;0,100663948911568
"PRDX3";3,04093758695735e-06;0,0659498319327203;0,717;0,705;0,101986964791376
"HOPX";3,15675368090721e-06;0,145251151850295;0,736;0,699;0,105871204950266
"RRAGC";3,1577439261944e-06;0,0810778054006052;0,339;0,279;0,105904415796708
"RAB18";3,15861179098511e-06;0,0554858145389761;0,387;0,317;0,105933522246059
"FAM89B";3,1683738414371e-06;0,0587294174039068;0,29;0,233;0,106260921894117
"SRI";3,22714423652076e-06;0,0639448195582253;0,816;0,789;0,108231963404433
"C19orf53";3,25123675342088e-06;-0,0544153022522995;0,891;0,906;0,109039978236229
"C1D";3,29605456638358e-06;0,051529131414792;0,52;0,453;0,110543078047372
"CUTA";3,56862254562811e-06;0,0806199697751903;0,655;0,58;0,119684462935276
"SERP1";3,56966984216855e-06;0,0633410192859833;0,836;0,802;0,119719587166649
"IRF1";3,67238870346686e-06;0,102802176255267;0,549;0,482;0,123164572336872
"SUPT4H1";3,71108825631172e-06;0,0707561156255965;0,628;0,575;0,124462477940182
"MSC";3,77971346337872e-06;0,104746609628428;0,161;0,121;0,126764030134796
"SPPL2A";3,82370246804568e-06;0,0738425510010619;0,404;0,338;0,128239333373316
"HIST1H1E";3,89752924087347e-06;-0,135483800218137;0,53;0,562;0,130715335680415
"HIST1H1C";3,9020470545186e-06;-0,118638811102069;0,538;0,582;0,130866854114445
"MRPL15";3,95068062525942e-06;0,063694572617764;0,578;0,528;0,13249792680995
"SNX9";3,9917074581891e-06;0,080057072684002;0,421;0,359;0,133873884732746
"ATG101";4,01980129607362e-06;0,0627891803690346;0,442;0,371;0,134816095867717
"FURIN";4,0322624104002e-06;-0,0827529465941303;0,481;0,516;0,135234016720002
"NDUFAF4";4,25037946202586e-06;0,0590400745871734;0,505;0,447;0,142549226397423
"SRM";4,48613037695857e-06;0,0723492512830493;0,826;0,819;0,150455840582437
"CRELD2";4,53471971736636e-06;0,0650677776078448;0,483;0,421;0,152085429881033
"NME2";4,58150514069703e-06;-0,120930143274508;0,31;0,338;0,153654519408697
"CMTM3";4,58512315847704e-06;0,0518408121396213;0,375;0,31;0,153775860489003
"BCAP29";4,64248114695294e-06;0,0528311034555531;0,415;0,346;0,155699532706508
"NDUFA1";4,77462379711712e-06;0,0717818119896683;0,819;0,789;0,160131332907714
"ADPGK";4,81034331987523e-06;0,0569940263343499;0,33;0,27;0,161329294261976
"UBE2E3";4,84231429381625e-06;0,0511767831468581;0,414;0,345;0,16240153678601
"EVI2A";4,89823622121976e-06;0,0587579910224578;0,149;0,108;0,164277046387268
"EVI5";4,90261270145762e-06;-0,1047684536819;0,426;0,469;0,164423824781486
"LGALS1";5,10813938076924e-06;-0,244832620451161;0,438;0,473;0,171316778552239
"PSMA3";5,48732118901568e-06;0,0595485526379258;0,816;0,821;0,184033778037208
"ATF5";5,54379564855887e-06;0,0500584604956806;0,261;0,207;0,185927818461367
"U2SURP";5,69146913332359e-06;-0,0808591989812812;0,735;0,779;0,190880491793407
"MRPL20";5,73098926825585e-06;0,0540273333674033;0,834;0,828;0,192205918078765
"VKORC1";5,78263123134243e-06;0,0674184695265446;0,487;0,421;0,193937886236762
"PSENEN";6,12624959515953e-06;0,0679246031938301;0,369;0,307;0,20546215892246
"KLRD1";6,1732464687476e-06;0,174140068185423;0,254;0,208;0,207038340068857
"USP48";6,24640766365517e-06;-0,0809125042835775;0,474;0,508;0,209492020223667
"DNAJC3";6,38439359501536e-06;0,0554645707492648;0,427;0,359;0,214119792389625
"OCIAD1";6,39465004548826e-06;0,0728900686326771;0,647;0,592;0,214463773225585
"NOL10";6,49984396509997e-06;0,06196868592565;0,453;0,393;0,217991766901523
"METTL26";6,53735792450132e-06;-0,0630941865424504;0,731;0,751;0,219249910071925
"RRM2";6,86574711415622e-06;-0,0931664298406659;0,594;0,65;0,230263426714571
"SRGN";7,10613170720163e-06;0,143109428117164;0,944;0,932;0,238325445196128
"PRPF8";7,53407094137148e-06;-0,074564440362091;0,619;0,649;0,252677671231717
"PSMD8";7,60393073992096e-06;0,0578208301916479;0,875;0,871;0,255020629155469
"AIMP2";7,74803047325207e-06;0,0535527523493002;0,453;0,388;0,259853446011928
"PFKL";7,78815883525626e-06;-0,0889524790168942;0,414;0,44;0,261199271016824
"PLCG2";7,92066346678466e-06;-0,189284802640291;0,462;0,501;0,265643211349024
"EIF4A3";7,99070375103672e-06;0,0668170059653183;0,647;0,62;0,267992222402269
"ATP6V0D1";8,47949413098057e-06;0,0517243662319953;0,37;0,306;0,284385274164826
"ATRAID";8,59633374681701e-06;0,0725846737410916;0,577;0,513;0,288303841200749
"SEPT7";8,71010093736156e-06;0,0851924639055746;0,901;0,877;0,292119365237232
"RBX1";8,72001066849768e-06;0,0664597722197695;0,877;0,852;0,292451717800075
"SELENOS";8,94256742292929e-06;0,0767128777946067;0,573;0,51;0,299915826230203
"LSM1";9,25092968163755e-06;0,0602614737244723;0,552;0,491;0,31025767966276
"ZWINT";9,3254438634276e-06;0,0761638572811947;0,534;0,486;0,312756736291635
"LAP3";9,67468026263357e-06;0,0577062017702028;0,549;0,489;0,324469426648205
"YWHAQ";9,88444661106542e-06;0,0727022316494224;0,838;0,825;0,331504570441912
"CRIPT";9,96406638560316e-06;0,0541968811251679;0,373;0,31;0,334174858440359
"CIRBP";1,01539612903974e-05;0,0817928834132059;0,741;0,703;0,340543553757349
"RBM22";1,02473622066177e-05;0,0510797583221638;0,454;0,386;0,343676033685545
"TRAC";1,07305946646936e-05;0,0741081726870172;0,847;0,83;0,359882683864495
"HCST";1,07377630420113e-05;0,109709329415253;0,635;0,566;0,360123096902976
"IPO7";1,08624574491459e-05;-0,0856124559783319;0,591;0,619;0,364305097929456
"EIF3L";1,11373197290054e-05;-0,0681377509565426;0,752;0,77;0,373523429071382
"RABAC1";1,12296476861982e-05;0,135288439554393;0,696;0,635;0,376619924099717
"BCL2A1";1,14557772849435e-05;0,0554546856137219;0,41;0,344;0,384203858582434
"LTB";1,15274068469674e-05;0,0891085837954666;0,691;0,652;0,386606170833593
"BIRC5";1,15655630283316e-05;-0,0803273553492728;0,524;0,573;0,387885852844187
"NUSAP1";1,16142340565233e-05;-0,107501541562774;0,529;0,555;0,389518181787677
"PMF1";1,16921551806499e-05;0,0733681031003862;0,558;0,497;0,392131500448636
"TMEM230";1,17407535992347e-05;0,0539882959363813;0,523;0,455;0,393761394211132
"SEPT9";1,19040310638266e-05;-0,0737192509080918;0,522;0,552;0,399237393818615
"TMEM109";1,2423532507e-05;0,0638544149508912;0,486;0,421;0,416660433219766
"DDX3X";1,2681858463967e-05;-0,0722204557106204;0,666;0,7;0,425324169164527
"ERGIC2";1,27530059469775e-05;0,0561792238130596;0,54;0,477;0,427710313449731
"LINC00513";1,27785581528595e-05;-0,0520465917314611;0,137;0,178;0,428567283330601
"MYH9";1,3177094395692e-05;-0,0893471346561006;0,773;0,799;0,441933391842719
"COMMD3";1,388551075205e-05;0,0627369707844621;0,482;0,411;0,465692259602252
"CAPRIN1";1,42773094737136e-05;-0,0805057164017962;0,638;0,674;0,478832405129408
"CD3D";1,43919464774305e-05;0,0721439079182842;0,947;0,943;0,482677100960064
"NDUFB2";1,51970787584425e-05;0,084102133521117;0,882;0,856;0,509679627400645
"ARL6IP5";1,58443401952969e-05;0,107924621476944;0,776;0,723;0,531387481469866
"DDX39A";1,60072247065166e-05;0,071365862795074;0,716;0,7;0,536850302207153
"FAM207A";1,60195698419963e-05;-0,080858397449863;0,632;0,66;0,537264333360872
"HIST1H2AG";1,68142966378947e-05;-0,0945799136721192;0,283;0,325;0,563917880641713
"EIF4EBP1";1,70824571068261e-05;-0,0924093761733745;0,59;0,619;0,572911446448733
"ALG13";1,72070829890263e-05;0,051480768545825;0,357;0,296;0,577091149285966
"MPV17";1,79581226891461e-05;0,0502622798639101;0,414;0,346;0,60227951874858
"PHF19";1,84457232229855e-05;-0,0862719644635296;0,581;0,617;0,618632665452487
"HIST1H1B";1,9047669878216e-05;-0,141074406457972;0,457;0,494;0,638820752375608
"REEP5";1,9097909478311e-05;0,0946087881636246;0,715;0,668;0,640505688083593
"YIF1A";1,91151112459113e-05;0,0610861830259407;0,597;0,531;0,641082600965375
"HDAC1";2,10473721684783e-05;0,0554977761003439;0,653;0,609;0,705886767786424
"MCRIP1";2,1488341247963e-05;0,062036062132389;0,448;0,382;0,720675988774183
"TMEM273";2,15797260354522e-05;0,105211330961441;0,245;0,2;0,723740851776996
"CRIP1";2,21117745002972e-05;-0,0891705144969701;0,311;0,357;0,741584693190966
"CFLAR";2,21424993163054e-05;0,0801079385892713;0,835;0,804;0,74261514207025
"SNRNP200";2,22000921035153e-05;-0,0861704341563274;0,607;0,633;0,744546688967695
"RAC2";2,36056458723144e-05;0,0603708783475534;0,852;0,841;0,791686151265679
"MRPS26";2,3814707706089e-05;-0,0709088169586602;0,709;0,74;0,798697667046814
"TMEM126B";2,46559373616193e-05;0,0653886528493978;0,515;0,451;0,826910827233989
"CYB5A";2,49793143658159e-05;0,0673721134674892;0,516;0,454;0,837756245200735
"DPM1";2,55536891427083e-05;0,0602714228741522;0,581;0,532;0,857019626468152
"CHRAC1";2,57642680720749e-05;0,0559151425507319;0,471;0,404;0,864082022601248
"ARL6IP4";2,62870612317775e-05;-0,0519652684033216;0,868;0,887;0,881615459591353
"MYL12A";2,70102601099561e-05;0,0749506791429595;0,904;0,884;0,905870103567707
"HAT1";2,74496021638852e-05;0,0554387746791826;0,533;0,48;0,920604757372381
"BTG3";2,77267544807289e-05;0,0674151543422636;0,489;0,425;0,929899891774687
"VDR";2,80817513703952e-05;-0,0727119624566269;0,426;0,455;0,941805777460313
"ROMO1";2,8242762681142e-05;0,0655537032009714;0,776;0,746;0,94720577480014
"CSE1L";2,83630371467832e-05;-0,0847237304385614;0,495;0,52;0,951239539828816
"MT-ND4L";2,93701795842685e-05;-0,0931500808466228;0,648;0,683;0,985017082897198
"CD48";2,94524117958748e-05;0,0763501235534925;0,766;0,747;0,987774986810047
"MT-ATP8";2,96577961150634e-05;-0,115031466132575;0,364;0,393;0,994663166106996
"RRP15";2,9751201758468e-05;0,0671269843999091;0,517;0,464;0,997795804575501
"IQGAP2";3,02278079222074e-05;-0,0692818539750861;0,576;0,605;1
"PSMB9";3,02789801635528e-05;0,0731230974570094;0,82;0,782;1
"FDX1";3,15737495965316e-05;0,0553615804566188;0,521;0,459;1
"MAGOHB";3,22477529770785e-05;0,0542772005575018;0,648;0,602;1
"TNFRSF14";3,35603573089499e-05;0,068643296924768;0,424;0,364;1
"LYPLA2";3,53349741029324e-05;0,0521707234296737;0,406;0,344;1
"MAF1";3,74635904726542e-05;0,0510773802957574;0,53;0,463;1
"JAGN1";3,85026796688084e-05;0,0550123239301736;0,489;0,426;1
"COA4";3,9462158148533e-05;-0,0735148467337314;0,704;0,729;1
"TMED2";3,95857727885699e-05;0,0598393468426428;0,602;0,545;1
"PHACTR4";3,98985265038933e-05;0,0532468459437255;0,295;0,243;1
"CYCS";4,0330510992347e-05;0,0668914855756308;0,86;0,872;1
"ASPM";4,08679024600561e-05;-0,12064859115775;0,452;0,476;1
"EMG1";4,23408880240653e-05;0,0683894814073461;0,552;0,519;1
"SEC11A";4,27937853931911e-05;0,0674781614490632;0,725;0,686;1
"GARS";4,3643586486695e-05;-0,0810475791939576;0,698;0,714;1
"H2AFZ";4,37528051273489e-05;-0,0697727619602051;0,935;0,96;1
"MRPL1";4,410438675252e-05;0,0554870806677622;0,551;0,501;1
"TRBC2";4,42817371121956e-05;0,0621852010863944;0,716;0,679;1
"RPS27L";4,65513158258156e-05;0,0841881457319039;0,699;0,647;1
"NDFIP1";4,91255568844761e-05;0,0563547572705465;0,602;0,545;1
"PSMA7";4,97936743533945e-05;0,0509313216047409;0,973;0,976;1
"PDCD2";5,01090784148539e-05;0,0633855096348664;0,665;0,634;1
"RPA2";5,14513147709568e-05;0,0666961611073966;0,619;0,563;1
"SELENOK";5,27973896939088e-05;0,0836894930639026;0,722;0,671;1
"TNFRSF8";5,4274931264911e-05;-0,0624886056316575;0,144;0,179;1
"MRPS21";5,46364913103307e-05;0,0671203385869463;0,745;0,733;1
"ESD";5,76460232078903e-05;0,0506083373390727;0,551;0,498;1
"SAP18";5,80634645163664e-05;0,0582972314659946;0,825;0,81;1
"SNRNP40";6,18352439943242e-05;0,0630229334922265;0,562;0,506;1
"GHITM";6,23130108897634e-05;0,0595221177643446;0,755;0,714;1
"TRAPPC1";6,27937260244575e-05;0,0733054241768879;0,744;0,699;1
"CSF2";6,2815511319423e-05;0,10534342291424;0,225;0,18;1
"SLBP";6,3685436227902e-05;0,0557659930761614;0,691;0,68;1
"ITM2A";6,48431844038707e-05;0,051907914844291;0,43;0,368;1
"NCAPD2";6,63613509675112e-05;-0,0714656296684796;0,445;0,473;1
"PLGRKT";6,64078865307917e-05;0,0532728642022138;0,407;0,347;1
"GPSM3";6,90063729829964e-05;-0,0812441048720786;0,527;0,545;1
"CDK6";7,44838737166607e-05;-0,0771557776785121;0,721;0,743;1
"NDUFV2";7,45553114226693e-05;-0,0568211618535828;0,937;0,951;1
"ARFGAP3";7,77889100375561e-05;0,0508285069598025;0,348;0,291;1
"SELENOF";8,05841797600763e-05;0,0594792302773515;0,573;0,514;1
"HNRNPH1";8,07886076748171e-05;-0,0739232389698061;0,749;0,779;1
"TMED10";8,42891585102738e-05;0,0693177835186782;0,584;0,525;1
"CRBN";8,74311666664404e-05;0,0513879958889491;0,35;0,294;1
"CD8A";8,90833672659863e-05;0,0720424044407155;0,658;0,602;1
"FUNDC2";9,15968321368328e-05;0,0621142281261151;0,558;0,498;1
"PRKDC";9,92244079575511e-05;-0,0683354767081603;0,818;0,846;1
"DESI1";0,000101031368880964;0,0655415431601438;0,683;0,654;1
"CD164";0,000102500295742267;0,0806709006574949;0,661;0,618;1
"KLF6";0,000104866111251276;0,0571175951181634;0,37;0,311;1
"APOBEC3G";0,000106031224410903;0,119849391199976;0,533;0,488;1
"RPA3";0,000108611764721045;0,0611544789827132;0,766;0,73;1
"ACLY";0,000114118297013039;-0,083419004262309;0,469;0,486;1
"RPS4X";0,000119456464484593;-0,0671458189558094;0,999;1;1
"RRM1";0,000120201836287619;-0,0616039274839236;0,611;0,645;1
"DEGS1";0,000131409459696078;0,0561240845391321;0,386;0,329;1
"SNHG15";0,000132966299841277;-0,0720106867616515;0,7;0,729;1
"BAG6";0,000134657137311217;-0,0827800487758157;0,381;0,403;1
"TMEM141";0,000134863750524636;-0,0552859217147568;0,487;0,51;1
"TARS";0,000135202675545501;-0,0769229983042108;0,655;0,675;1
"KIF2A";0,000136990362642409;0,0858409842689627;0,838;0,82;1
"GALM";0,000138898012451964;-0,0669298291674322;0,464;0,496;1
"SPTAN1";0,00013910750205708;-0,0710969891040188;0,426;0,456;1
"RAB8A";0,000141561556506649;0,0614720206341082;0,676;0,623;1
"M6PR";0,000145197902859482;0,0700856938286666;0,623;0,573;1
"C8orf33";0,000151101915243455;0,057556537662712;0,558;0,513;1
"PHF5A";0,000154650897190225;0,0524768275568405;0,502;0,442;1
"PEBP1";0,000157505957483545;0,051152991618215;0,825;0,819;1
"RGS10";0,000158765566535381;0,051802344255472;0,738;0,715;1
"CD2BP2";0,000160327501229352;0,0592860837509143;0,56;0,499;1
"SMARCB1";0,000161126146678943;0,0507674287663715;0,495;0,438;1
"JPT1";0,000174736823422352;-0,0738055768446857;0,796;0,82;1
"SSR4";0,000196082332569063;0,0695767159556402;0,931;0,92;1
"HLA-DRA";0,000204000639519635;0,226844136488123;0,269;0,236;1
"HMGN3";0,000211972030879374;0,0526686356627599;0,561;0,502;1
"SLC25A39";0,000219961745547253;0,0618148616958606;0,55;0,515;1
"XPO1";0,000227935558790618;-0,0722254387596246;0,672;0,694;1
"LIMD2";0,000234662752325024;0,0678561922448055;0,682;0,638;1
"LMO4";0,00023492892342941;0,062980351352743;0,447;0,389;1
"TMEM50A";0,000235769345424033;0,0847830136406201;0,67;0,62;1
"PRPF38B";0,000238370033186615;0,0599920771144038;0,693;0,657;1
"RAP1A";0,00023864633540459;0,067903231310197;0,775;0,743;1
"LTA";0,00024034532954403;0,0929650491229732;0,897;0,88;1
"VARS2";0,000240512580601269;-0,0677646683463286;0,187;0,216;1
"MT-ND3";0,000240706113431942;0,0607097269319747;0,98;0,976;1
"LAPTM5";0,000244396206810571;-0,0701186498083655;0,508;0,532;1
"DNAJC2";0,000254868152823607;0,0607006357459728;0,629;0,594;1
"CLPP";0,000256827693707291;0,0532879025206724;0,712;0,701;1
"EMC6";0,000257853126636426;0,050651707870501;0,689;0,653;1
"PRDX2";0,000265932781448319;-0,0521911092926324;0,836;0,857;1
"MUC20-OT1";0,000272900928610083;0,0692323086240128;0,362;0,311;1
"UQCC2";0,000286394935454134;-0,0615610100780999;0,695;0,719;1
"ZFP36L1";0,000295347810158281;0,0597954397288524;0,439;0,384;1
"FYB1";0,000303385875206429;-0,0825641053976232;0,508;0,521;1
"SYTL3";0,000320556202770791;-0,0576269946290519;0,617;0,641;1
"LRRFIP1";0,000320686016055611;-0,0667952307427477;0,869;0,891;1
"FAM177A1";0,000320880418747087;0,0636097283009532;0,502;0,443;1
"XRCC6";0,000351007698836808;-0,0522156415576194;0,812;0,843;1
"SH3BGRL3";0,00036189293085521;0,0603308078001579;0,974;0,975;1
"UQCRC2";0,000362956967406769;0,0505595525572446;0,593;0,55;1
"EEF1D";0,000370938598530469;-0,0543068282425336;0,947;0,958;1
"CLDND1";0,000382451872520376;0,0770272022640794;0,56;0,511;1
"GSDMD";0,000393824723611529;-0,0720525598967773;0,427;0,453;1
"CLPX";0,000398237043292429;-0,0721971491506073;0,364;0,391;1
"OLA1";0,000401865445426982;0,0520089324063696;0,632;0,602;1
"TADA3";0,000419255380364735;-0,0644537204663131;0,418;0,443;1
"SMC4";0,000429833398603488;-0,076106564733202;0,659;0,692;1
"OCIAD2";0,000438288859931642;0,055137351714505;0,582;0,529;1
"PSMB8-AS1";0,00047576502921418;0,0569459684736256;0,326;0,28;1
"RHOA";0,00048193389856392;0,0548360005757602;0,867;0,86;1
"HLA-DPB1";0,000483312893604738;0,115193016419191;0,292;0,254;1
"NRDC";0,000494558472113215;-0,0518941522390416;0,582;0,601;1
"NFKBIA";0,000502279222413708;0,076878335904041;0,794;0,763;1
"ZNFX1";0,00052360995915792;0,0511794971096974;0,352;0,302;1
"PUF60";0,00052429796630793;0,050972482105649;0,669;0,627;1
"TNFRSF18";0,000529406208946061;-0,0629356018663098;0,442;0,488;1
"WIPF1";0,000559213741760825;-0,0590707366027368;0,551;0,568;1
"NCKAP1L";0,00055953525884333;-0,0632506854651899;0,396;0,42;1
"CD47";0,000564472762010875;0,0703150651882191;0,596;0,549;1
"GNG2";0,000565354548687139;-0,0580798102918738;0,331;0,36;1
"EIF3D";0,000575389235910282;-0,0560134817789582;0,757;0,795;1
"ORAI1";0,000583274794869634;0,0533908750665455;0,433;0,379;1
"CKAP5";0,000583292039824253;-0,0836819657695007;0,422;0,439;1
"HSPB11";0,000591314098906538;0,0691632226761897;0,665;0,621;1
"EIF3F";0,000601117053542817;0,0552985949740483;0,809;0,787;1
"RUVBL2";0,000609610243100725;-0,0780168007067896;0,482;0,497;1
"TMSB10";0,000610632320868095;0,0746532731625291;0,998;0,998;1
"SLC4A7";0,000624949937540354;-0,0605450876471669;0,383;0,407;1
"JAML";0,000649940328781934;0,0637457172617679;0,539;0,492;1
"ATOX1";0,000656203253482221;0,0586339147402355;0,717;0,67;1
"CLTC";0,0006743208993782;-0,0567136504059195;0,627;0,647;1
"HSPA4";0,000679170825910686;-0,0604564593179446;0,7;0,735;1
"PSMD6";0,00073076134188195;0,0520760310691878;0,591;0,547;1
"KRAS";0,000742063711421635;0,0541103242034434;0,435;0,384;1
"PSMD13";0,000749794996271704;0,0586006951763309;0,711;0,702;1
"UBA6";0,00075924363819711;-0,0785319036084789;0,324;0,345;1
"CMTM6";0,000781120900613127;0,0509744138587652;0,622;0,567;1
"TFPT";0,000792493230434539;-0,0540705100836436;0,335;0,359;1
"NCOA2";0,000802193282586975;-0,0803978077993689;0,285;0,315;1
"ARHGAP11A";0,000810740839733283;-0,0737672534923385;0,334;0,358;1
"DNAJC15";0,000834703945917132;0,0575622666208403;0,683;0,639;1
"CLTA";0,000838504057371286;0,051969316702227;0,813;0,795;1
"SMIM12";0,000864898430631969;0,0593063455276273;0,523;0,468;1
"ANXA1";0,00090173647860556;-0,0534980015881816;0,142;0,172;1
"RBM25";0,000944120543533905;0,0524274575172228;0,78;0,78;1
"GABPB1-AS1";0,000944838142513618;-0,0764556930430356;0,449;0,466;1
"CUL1";0,00096731447369093;-0,0692494666461402;0,43;0,449;1
"EIF3J";0,000978808990311179;0,0513136821650271;0,738;0,745;1
"ATP6V1F";0,00101713807473977;0,0602679992140047;0,729;0,704;1
"MRPS18C";0,00101723696144753;0,0603302206413097;0,705;0,695;1
"SLC38A2";0,00105032153729529;-0,0830598147132518;0,352;0,375;1
"POLE4";0,00105244650205273;0,0560180833014698;0,534;0,483;1
"CAND1";0,00105393705470601;-0,0515678074152466;0,496;0,52;1
"MFSD10";0,00105980145431591;0,0758264265094294;0,604;0,547;1
"RELB";0,00106181407966842;0,053238022392435;0,419;0,366;1
"ATF4";0,00111043675604467;-0,0725716696686844;0,688;0,724;1
"HIST1H3B";0,00111075240875659;-0,0604051374566061;0,251;0,279;1
"NUP210";0,00113995580460316;-0,0667860898885563;0,454;0,466;1
"ECHDC1";0,00116499945448967;0,0500475998149444;0,553;0,503;1
"S100A11";0,00119618064329121;0,116803065781203;0,897;0,855;1
"CENPE";0,00119941706323964;-0,0811504460270198;0,386;0,409;1
"HNRNPUL2";0,00121343944284327;-0,0843701996164445;0,361;0,377;1
"CNPY2";0,00122971374846088;0,0545853695742841;0,612;0,578;1
"EIF4G2";0,00124449228056482;-0,063248039939463;0,828;0,852;1
"EWSR1";0,0012971505790372;-0,0619978090559549;0,649;0,681;1
"YY1AP1";0,00131490496680186;-0,0749629303387723;0,256;0,278;1
"TMEM205";0,00136025449988078;0,0646849880260166;0,405;0,359;1
"NOP53";0,0013913731602205;-0,0543041808944198;0,724;0,735;1
"SRSF1";0,00140213230399807;-0,0645478864987127;0,624;0,643;1
"LMNA";0,00143222264595497;-0,125964532775482;0,492;0,505;1
"TLE3";0,00147863306477897;-0,0543214444350597;0,216;0,242;1
"SEM1";0,00148685988613632;0,0512096074018742;0,839;0,828;1
"PTMS";0,00155245350166982;0,0843803760805046;0,609;0,562;1
"NUBP1";0,00165548273183797;0,0502921247994586;0,291;0,253;1
"IFI16";0,00173882834513252;0,0542049537142941;0,782;0,762;1
"INTS1";0,00176243022407379;-0,066476206104827;0,302;0,322;1
"MKNK2";0,00180195547570463;-0,0714496542180702;0,348;0,365;1
"PAPOLA";0,00181026398467391;-0,0555764812417922;0,702;0,718;1
"TOP2A";0,00185106995174862;-0,0998360606252707;0,513;0,533;1
"GYPC";0,00187531181400579;-0,0512986610575921;0,719;0,744;1
"ANXA11";0,00187799422094527;0,0641659078437993;0,634;0,593;1
"CYFIP2";0,00188194659133431;-0,0703892691232977;0,506;0,518;1
"SMC1A";0,001882360813241;-0,0769258669754915;0,68;0,694;1
"GATA3";0,00191556032536795;0,054936766137101;0,365;0,323;1
"DRAP1";0,00192163346963207;0,0718673848033733;0,801;0,762;1
"SYNE2";0,00197025494212535;0,0834193535684561;0,392;0,352;1
"BTG1";0,00197872979294777;0,111126161340981;0,579;0,527;1
"LGALS3";0,001998099528939;0,150070057331084;0,321;0,29;1
"TCOF1";0,00204686157212673;-0,0640005275497585;0,584;0,609;1
"TK1";0,0020523810980639;-0,0508128789847911;0,531;0,552;1
"CEP55";0,00206981228747732;-0,0797656870985968;0,424;0,439;1
"PCK2";0,00209051534451216;-0,0593928845233765;0,319;0,336;1
"DDX6";0,00212905401156514;-0,0680972606933501;0,53;0,54;1
"KIF20B";0,00222167442715465;-0,0708084898335467;0,528;0,55;1
"TBCB";0,00225298596902784;0,0519921990957866;0,558;0,502;1
"PLP2";0,00235781284885714;0,0788770023095308;0,706;0,672;1
"STK26";0,00240903985837374;-0,0524475854511876;0,384;0,406;1
"COX20";0,00243761392507682;0,0609953102076775;0,643;0,619;1
"SLC2A3";0,00245815750468218;-0,0755739129224174;0,302;0,326;1
"USP9X";0,00246074226600822;-0,0613521218201308;0,348;0,366;1
"CLEC2D";0,00255675940127342;0,0659182501871001;0,678;0,647;1
"SARAF";0,00258844445082115;0,059430587971157;0,656;0,625;1
"RAB11FIP1";0,00261163458987896;0,0618600947957993;0,552;0,506;1
"ATXN1";0,0026564064737105;0,0712284874671848;0,225;0,194;1
"VAMP8";0,00266437113388654;0,0525109017257116;0,722;0,667;1
"NAMPT";0,0026852528307323;-0,0949735636139597;0,79;0,816;1
"CCNB1";0,00272433587207026;-0,0688021355991485;0,489;0,515;1
"PRDX6";0,0028586447595901;0,0510459682984971;0,724;0,702;1
"FBL";0,00296685749080679;-0,0525316318715445;0,793;0,833;1
"OXCT1";0,00306773334946516;-0,0676200539067154;0,538;0,555;1
"ANXA6";0,0030774745695763;-0,0603660641351109;0,548;0,563;1
"WARS";0,00310345372703592;-0,0610253834090639;0,691;0,694;1
"HNRNPU";0,00314948939138917;-0,050845571750886;0,92;0,942;1
"KIF3A";0,00316254842525521;0,0519928806380791;0,329;0,288;1
"DHRS7";0,00328239799920067;0,0633021188854455;0,531;0,488;1
"TXNL1";0,00328988157390368;0,0527957089460626;0,665;0,64;1
"NDUFV1";0,00344382677553248;-0,0501312705799768;0,679;0,69;1
"RALBP1";0,00345380276910392;-0,0564456224375681;0,64;0,644;1
"PSMD12";0,00346152035046677;-0,0502896151973251;0,717;0,75;1
"TNFAIP8";0,00354871192753247;0,0634153883160049;0,774;0,761;1
"TXNIP";0,00367026410343595;0,0946924241714985;0,348;0,311;1
"CARHSP1";0,00368562827180758;-0,054410647386383;0,561;0,57;1
"ACAP1";0,0037041874152352;-0,0637198944421077;0,513;0,523;1
"AC017002.3";0,00375859619276242;0,106848426605236;0,271;0,242;1
"SNHG25";0,00388530943627218;-0,090401398669439;0,409;0,418;1
"ZFAS1";0,00389173828118941;-0,0654062366871278;0,825;0,839;1
"SERPINB6";0,00394089700320691;0,054485649985031;0,458;0,408;1
"MAP1LC3B";0,00401284457645888;0,0582242318054814;0,616;0,568;1
"DUSP2";0,00410785455813587;0,0725153751248138;0,621;0,595;1
"CAPN2";0,0041743899202573;-0,0654086695091088;0,24;0,263;1
"SNRNP70";0,00423173781527461;-0,0551343799203803;0,727;0,745;1
"H2AFJ";0,00425103153750918;-0,0707528319246584;0,352;0,371;1
"CCL5";0,00426458216191224;0,206278357514275;0,637;0,636;1
"FAM133B";0,00434486135119917;0,0517547495104449;0,586;0,537;1
"CISH";0,00461155780648675;0,0627130862355119;0,608;0,573;1
"DIAPH1";0,004765421363902;-0,0536238099270794;0,677;0,689;1
"DBI";0,00487235509590733;0,0541952878341629;0,919;0,906;1
"HLA-DQB1";0,00489653683713545;0,113900688570743;0,166;0,143;1
"C19orf24";0,004957477343617;-0,0502930934411121;0,692;0,7;1
"SMIM26";0,00518279717677884;0,0503479208332498;0,593;0,548;1
"UCP2";0,00525356413913109;0,087188030966149;0,698;0,658;1
"NBR1";0,00526528904517653;-0,0555845109657225;0,18;0,201;1
"CD74";0,00537761015510407;0,125588844480463;0,748;0,711;1
"RPS17";0,00547324801201307;-0,0922171729770374;0,833;0,853;1
"NCAPG2";0,00556561356994589;-0,0508209117959483;0,303;0,321;1
"OPA1";0,0056117169738007;-0,0585082943211538;0,426;0,445;1
"SSR2";0,00561614362227681;0,0519868718999659;0,8;0,79;1
"CDKN3";0,0057908255122484;-0,0601926097222506;0,496;0,506;1
"CDK12";0,00581190199809253;-0,0582949447342935;0,529;0,544;1
"RIF1";0,00610067013043052;-0,0648724321976488;0,64;0,647;1
"IARS";0,00626189902009536;-0,0510363178002938;0,618;0,634;1
"LINC01871";0,00706964766844203;0,179869419631505;0,393;0,368;1
"SCD";0,00709989519621248;-0,0570157273461667;0,251;0,269;1
"SURF4";0,00718150968403877;-0,0531612226492369;0,682;0,693;1
"HMMR";0,00722159691371644;-0,0690093814916747;0,472;0,498;1
"TNFRSF1B";0,0073286269552598;-0,0816003620158526;0,563;0,564;1
"NDUFB8";0,00736784761540199;0,0566517645881819;0,819;0,78;1
"BATF";0,00737795422315448;0,0872409047339386;0,871;0,858;1
"PNN";0,00745773222489027;-0,0510815686970472;0,808;0,843;1
"TRIM28";0,00756527597271307;-0,0572177931035952;0,642;0,669;1
"HLA-DPA1";0,00812273364679725;0,0932591828815831;0,459;0,426;1
"CHD4";0,00822858243556564;-0,0583205695879443;0,756;0,784;1
"LITAF";0,00873915404763594;0,0610273158564943;0,588;0,542;1
"CCND3";0,00923380382428089;-0,0544632777256244;0,637;0,662;1
"MSH6";0,00964892062257044;-0,0586328038417594;0,58;0,602;1
"CORO1B";0,00985734302201183;-0,0865350138595861;0,565;0,578;1
"HLA-C";0,00994383547332097;0,10094926561945;0,977;0,959;1
"NOSIP";0,0105974908204116;-0,0517561530459147;0,503;0,509;1
"ATAD2";0,0106516586731207;-0,0519660551422891;0,63;0,659;1
"MAST4";0,0107521240468474;-0,0532089345235058;0,15;0,17;1
"KPNB1";0,0109118845502552;-0,0539775228806836;0,839;0,869;1
"CLTB";0,0110378036853382;0,0503869517875514;0,624;0,588;1
"ATP13A3";0,0114520266520441;-0,0658110072040634;0,472;0,474;1
"POLQ";0,0119412403141747;-0,0650556498450013;0,191;0,208;1
"NSD2";0,0124940419801804;-0,0520429549857507;0,475;0,481;1
"CSNK2A2";0,0129724859802518;-0,0570850978190559;0,318;0,333;1
"ANXA5";0,0132129955917351;0,0605715282801835;0,496;0,464;1
"NEAT1";0,0134740426688152;-0,0632070671512288;0,914;0,918;1
"PSMB10";0,0135047626970256;-0,0558968256054578;0,355;0,365;1
"DNPH1";0,0138782861473287;0,0700395542233069;0,739;0,71;1
"UBA1";0,0143859442214651;-0,061233999644821;0,505;0,509;1
"GOT2";0,014682591459637;-0,051931331918073;0,527;0,531;1
"CYBC1";0,0152737872140684;-0,0518001936530978;0,475;0,482;1
"ANP32E";0,0155241342896396;-0,0507173939652563;0,821;0,849;1
"SNHG8";0,0156054046272922;-0,0555352062143899;0,736;0,749;1
"CMC1";0,0164048854377505;0,0797094154966949;0,628;0,586;1
"ORAI2";0,0166468008466151;-0,0549423623024125;0,375;0,385;1
"LINC02446";0,0166910671692135;-0,0810658587753167;0,215;0,232;1
"DYNC1H1";0,0167615367368956;-0,0545226303133236;0,618;0,626;1
"SEC16A";0,0169160591471445;-0,0514301589742444;0,274;0,288;1
"DDX1";0,0169932024744123;-0,0510561144737646;0,621;0,636;1
"HLA-DQA1";0,017783779425231;0,0768231238255737;0,118;0,1;1
"MCM5";0,0182937067272756;-0,0541891169356401;0,62;0,629;1
"ITGAL";0,0184542911644039;-0,0503482174207257;0,466;0,475;1
"RCAN2";0,0186578885254822;-0,0552297881783243;0,096;0,114;1
"STXBP2";0,0186855216658882;-0,0557028854536422;0,275;0,289;1
"CKS2";0,0187815372888048;0,0543769537399263;0,642;0,634;1
"NUP160";0,0188021815887643;-0,0648900454490367;0,342;0,352;1
"HDLBP";0,019521848824998;-0,0655402963970505;0,612;0,617;1
"C12orf57";0,019594474179571;0,0672223711745874;0,806;0,79;1
"NUFIP2";0,020036470967024;-0,0650414458562404;0,523;0,526;1
"NUP205";0,0201383759704181;-0,0617473520188395;0,282;0,294;1
"POLD2";0,0202347709139938;-0,0551031454419748;0,638;0,658;1
"HIST1H1A";0,0207160592286714;0,050751393578687;0,199;0,175;1
"RBM42";0,0211399473368072;-0,0558883493026368;0,458;0,462;1
"JUNB";0,0215556828483206;0,0536998893613703;0,78;0,761;1
"ANKRD11";0,0216339023921213;-0,0510965359292659;0,698;0,723;1
"PITPNM1";0,0223718493040593;-0,0575419597532245;0,263;0,276;1
"NUP155";0,0227286400938682;-0,0565452685070534;0,361;0,368;1
"KCNAB2";0,0230862156674423;-0,0524173358340919;0,475;0,483;1
"SLC43A3";0,0236267463299949;-0,0542438608396879;0,581;0,602;1
"ELAC2";0,0237811578430911;-0,0529713782717375;0,396;0,402;1
"CDCA8";0,0238053358046976;-0,058752030012408;0,282;0,297;1
"GNLY";0,024943861411733;-0,198150643688655;0,19;0,166;1
"MTRNR2L8";0,0263205138849413;-0,0956035538475637;0,47;0,483;1
"FAM91A1";0,0263547193844999;-0,0568623012235255;0,3;0,31;1
"BLOC1S1";0,0265810290492581;0,0614584738616242;0,675;0,639;1
"FLII";0,0270693173224526;-0,052972577577903;0,438;0,444;1
"BUB1";0,0300930026150285;-0,0580305655484401;0,333;0,338;1
"RNASEH1-AS1";0,0301364700635976;-0,0530529165847581;0,254;0,268;1
"MRPL12";0,0303044520247203;-0,0519958782103616;0,724;0,756;1
"MYDGF";0,0307223154964191;0,0536134001287945;0,785;0,758;1
"ICE2";0,0307810955561882;-0,0523306171080963;0,323;0,335;1
"ANAPC1";0,0312031058729945;-0,0527478666244773;0,348;0,358;1
"ZAP70";0,0313150856130894;-0,0589397045849035;0,476;0,479;1
"CCNA2";0,0316064078711152;-0,0549939345567881;0,46;0,47;1
"DEF6";0,032575727355629;-0,0575062871596226;0,339;0,343;1
"MDM2";0,0346280275428158;-0,0881483457804749;0,36;0,365;1
"CCL3";0,0347077020458444;0,146385471524638;0,775;0,761;1
"MALAT1";0,0351243913954066;0,0506977065852938;0,995;0,996;1
"IPO9";0,0352840541060826;-0,0565062419006747;0,314;0,323;1
"GADD45A";0,0356581512066363;-0,0671835942405334;0,18;0,197;1
"MCM3AP";0,0360279986736587;-0,059052047671473;0,296;0,302;1
"HLA-DRB1";0,0361127009291378;0,114129454761166;0,324;0,307;1
"TESC";0,036226418809015;-0,0547151728035615;0,33;0,346;1
"KIF11";0,0362552017903313;-0,0553134325845081;0,361;0,37;1
"PPP4R3B";0,0365821572330617;-0,0562127723735521;0,425;0,427;1
"SMARCA4";0,0373852170593668;-0,0517991495436827;0,54;0,534;1
"PAG1";0,0383884991841087;-0,0558919132411009;0,254;0,267;1
"RNASEH1";0,0400822116806744;-0,0500255937335105;0,506;0,511;1
"GTF2F1";0,0403015997265592;-0,051613537424873;0,513;0,51;1
"H1FX";0,040582955175077;0,0546615631016121;0,604;0,575;1
"CEP350";0,0409536529270734;-0,0527932678658782;0,436;0,44;1
"BRD2";0,0439291417117257;-0,0579575519405527;0,605;0,617;1
"ITGB7";0,044194392197115;-0,0579296404527356;0,317;0,329;1
"TACC3";0,04641506071634;-0,0637587717971149;0,476;0,479;1
"GPX4";0,0465313126188602;0,0568768130574151;0,893;0,875;1
"MYBBP1A";0,0479031589578721;-0,0534150336846375;0,368;0,374;1
"ARID5A";0,0492435630245583;0,0544726492277213;0,607;0,574;1
"AKAP11";0,0492787933320379;-0,0556984949602553;0,248;0,258;1
"CDC25B";0,0509006157669448;-0,0502570385118268;0,259;0,271;1
"CEP250";0,0509311022867484;-0,0602633000061064;0,227;0,236;1
"BNIP3";0,051418301861278;-0,0817953257687357;0,429;0,427;1
"SACS";0,0537054379749076;-0,0512533761246023;0,408;0,412;1
"FTSJ3";0,0538686823107155;-0,056609598414167;0,523;0,528;1
"NOM1";0,0562700317723815;-0,0620281417842203;0,443;0,441;1
"GBP5";0,0571594680188058;0,0545928007136405;0,305;0,278;1
"NTMT1";0,0589542058547507;-0,0519182231135555;0,611;0,62;1
"AP1B1";0,0650571810973274;-0,0518143753441056;0,318;0,321;1
"FOXM1";0,0674694500994423;-0,0586787971481639;0,304;0,309;1
"AKNA";0,0683678626107341;-0,0572132504999174;0,272;0,281;1
"PRR11";0,0690267162403517;-0,0576842156748927;0,261;0,268;1
"SYMPK";0,0697388130650984;-0,0555351433506157;0,305;0,31;1
"HIST1H3G";0,0748781013853747;-0,0714715447971014;0,252;0,259;1
"PBK";0,0814575905426953;-0,0538112397228505;0,352;0,356;1
"MICAL2";0,0842085052558047;-0,058495960416862;0,287;0,294;1
"NDUFS1";0,0848700006016109;-0,0535302891952979;0,44;0,44;1
"AIM2";0,0850686253943603;-0,0564884768998637;0,269;0,283;1
"ARHGAP4";0,0920553434779701;-0,051587424686063;0,323;0,329;1
"CPSF2";0,0931692628297267;-0,0541011777543907;0,461;0,457;1
"MAPK1IP1L";0,101786923189003;-0,0510744308437718;0,498;0,496;1
"NCAPG";0,11117164468075;-0,0593945819390764;0,454;0,453;1
"ANKRD17";0,115989310954171;-0,0525575885604589;0,438;0,436;1
"SHCBP1";0,117700638986741;-0,05240573631595;0,352;0,355;1
"NOLC1";0,118870350491434;-0,0522281677802183;0,691;0,711;1
"ZBTB38";0,126017097142759;0,0554522014768413;0,367;0,347;1
"GZMH";0,131802279854397;-0,113255791436095;0,393;0,403;1
"PHGDH";0,138987707755852;-0,0568228729173365;0,35;0,355;1
"BHLHE40";0,146127193220918;-0,0624639724915368;0,529;0,524;1
"RBM12";0,15037257820869;-0,0501944690681739;0,34;0,341;1
"LTN1";0,156041914758145;-0,0500785690322924;0,34;0,34;1
"NT5DC2";0,159014434521937;-0,051047678244033;0,294;0,298;1
"GLUL";0,18964803414937;-0,0631745346489521;0,098;0,108;1
"HK2";0,200446679521689;-0,0585673686368736;0,222;0,222;1
"EPAS1";0,202475986853439;-0,083172293590473;0,165;0,174;1
"TENT4B";0,204938467911099;-0,0500151238383893;0,272;0,271;1
"PHF10";0,233219623819035;-0,0611690184287544;0,315;0,311;1
"KNL1";0,250116626684402;-0,0556973239577737;0,333;0,33;1
"CCL4L2";0,262020338928666;0,251338803435245;0,319;0,307;1
"IL9";0,309889831125486;0,0525443051759484;0,122;0,13;1
"IFNG";0,337954796263505;-0,162090671250876;0,461;0,476;1
"CCL3L1";0,537230454794549;0,10209955181825;0,269;0,281;1
"CAVIN3";0,645251334109725;-0,0621684487843975;0,199;0,197;1
"HLA-A";0,806700562771018;0,0683101841414153;0,994;0,991;1
"LAG3";0,884156659830227;-0,0551354292266066;0,646;0,615;1
"IL32";0,926544249338803;0,0579800672596398;0,986;0,985;1
"IL17F";0,97036681895699;0,135732216175424;0,133;0,13;1
"S100A6";0,987965454163142;0,0736080717922984;0,945;0,937;1
