sample_id,molecule_h5,condition,sample_names
18A,/home/nivall/yard/run_cellranger_aggr/molecule_info_18A.h5,AZM,HD18
18D,/home/nivall/yard/run_cellranger_aggr/molecule_info_18D.h5,CTRL,HD18
18N,/home/nivall/yard/run_cellranger_aggr/molecule_info_18N.h5,US,HD18
30A,/home/nivall/yard/run_cellranger_aggr/molecule_info_30A.h5,AZM,HD30
30D,/home/nivall/yard/run_cellranger_aggr/molecule_info_30D.h5,CTRL,HD30
30N,/home/nivall/yard/run_cellranger_aggr/molecule_info_30N.h5,US,HD30
23A,/home/nivall/yard/run_cellranger_aggr/molecule_info_23A.h5,AZM,HD23
23D,/home/nivall/yard/run_cellranger_aggr/molecule_info_23D.h5,CTRL,HD23
23N,/home/nivall/yard/run_cellranger_aggr/molecule_info_23N.h5,US,HD23
36A,/home/nivall/yard/run_cellranger_aggr/molecule_info_36A.h5,AZM,HD36
36D,/home/nivall/yard/run_cellranger_aggr/molecule_info_36D.h5,CTRL,HD36
36N,/home/nivall/yard/run_cellranger_aggr/molecule_info_36N.h5,US,HD36
37A,/home/nivall/yard/run_cellranger_aggr/molecule_info_37A.h5,AZM,HD37
37D,/home/nivall/yard/run_cellranger_aggr/molecule_info_37D.h5,CTRL,HD37
37N,/home/nivall/yard/run_cellranger_aggr/molecule_info_37N.h5,US,HD37
38A,/home/nivall/yard/run_cellranger_aggr/molecule_info_38A.h5,AZM,HD38
38D,/home/nivall/yard/run_cellranger_aggr/molecule_info_38D.h5,CTRL,HD38
38N,/home/nivall/yard/run_cellranger_aggr/molecule_info_38N.h5,US,HD38
32A,/home/nivall/yard/run_cellranger_aggr/molecule_info_32A.h5,AZM,HD32
32D,/home/nivall/yard/run_cellranger_aggr/molecule_info_32D.h5,CTRL,HD32
32N,/home/nivall/yard/run_cellranger_aggr/molecule_info_32N.h5,US,HD32
39A,/home/nivall/yard/run_cellranger_aggr/molecule_info_39A.h5,AZM,HD39
39D,/home/nivall/yard/run_cellranger_aggr/molecule_info_39D.h5,CTRL,HD39
39N,/home/nivall/yard/run_cellranger_aggr/molecule_info_39N.h5,US,HD39
35A,/home/nivall/yard/run_cellranger_aggr/molecule_info_35A.h5,AZM,HD35
35D,/home/nivall/yard/run_cellranger_aggr/molecule_info_35D.h5,CTRL,HD35
35N,/home/nivall/yard/run_cellranger_aggr/molecule_info_35N.h5,US,HD35
40A,/home/nivall/yard/run_cellranger_aggr/molecule_info_40A.h5,AZM,HD40
40D,/home/nivall/yard/run_cellranger_aggr/molecule_info_40D.h5,CTRL,HD40
40N,/home/nivall/yard/run_cellranger_aggr/molecule_info_40N.h5,US,HD40
